testbench.vcd
$date
	Wed Mar 21 16:51:56 2018
$end
$version
	Icarus Verilog
$end
$timescale
	1s
$end
$scope module testbench $end
$var wire 1 ! PCSrc_D $end
$var wire 1 " zero $end
$var wire 5 # writeReg_W [4:0] $end
$var wire 5 $ writeReg_M [4:0] $end
$var wire 5 % writeReg_E [4:0] $end
$var wire 32 & writeData_M [31:0] $end
$var wire 32 ' v0 [31:0] $end
$var wire 1 ( syscall_control $end
$var wire 1 ) stat_control $end
$var wire 32 * srcB [31:0] $end
$var wire 32 + signImm_E [31:0] $end
$var wire 32 , signImm_D [31:0] $end
$var wire 32 - readData_W [31:0] $end
$var wire 32 . readData_M [31:0] $end
$var wire 32 / ra [31:0] $end
$var wire 32 0 number_instructions [31:0] $end
$var wire 1 1 jump $end
$var wire 1 2 jr_control $end
$var wire 1 3 jal_control $end
$var wire 32 4 instr_F [31:0] $end
$var wire 32 5 instr_D [31:0] $end
$var wire 1 6 branch $end
$var wire 32 7 a0 [31:0] $end
$var wire 2 8 WB_W [1:0] $end
$var wire 2 9 WB_M [1:0] $end
$var wire 2 : WB_E [1:0] $end
$var wire 2 ; WB_D [1:0] $end
$var wire 5 < Rt_E [4:0] $end
$var wire 5 = Rs_E [4:0] $end
$var wire 32 > Result_W [31:0] $end
$var wire 5 ? Rd_E [4:0] $end
$var wire 32 @ RD2_E [31:0] $end
$var wire 32 A RD2_D [31:0] $end
$var wire 32 B RD1_E [31:0] $end
$var wire 32 C RD1_D [31:0] $end
$var wire 32 D PC_F [31:0] $end
$var wire 32 E PC_D [31:0] $end
$var wire 32 F PCPlus4_F [31:0] $end
$var wire 32 G PCPlus4_D [31:0] $end
$var wire 32 H PCBranch_D [31:0] $end
$var wire 32 I Next_PC [31:0] $end
$var wire 2 J MEM_M [1:0] $end
$var wire 2 K MEM_E [1:0] $end
$var wire 2 L MEM_D [1:0] $end
$var wire 5 M EX_E [4:0] $end
$var wire 5 N EX_D [4:0] $end
$var wire 32 O ALUOut_W [31:0] $end
$var wire 32 P ALUOut_M [31:0] $end
$var wire 32 Q ALUOut_E [31:0] $end
$var reg 1 R clk $end
$scope module ALU_block $end
$var wire 3 S ALUop [2:0] $end
$var wire 32 T reg2 [31:0] $end
$var wire 32 U reg1 [31:0] $end
$var reg 32 V ALUresult [31:0] $end
$var reg 1 " zero $end
$upscope $end
$scope module ExMem $end
$var wire 32 W ALUOut_E [31:0] $end
$var wire 1 R clk $end
$var wire 5 X WriteReg_E [4:0] $end
$var wire 32 Y WriteData_E [31:0] $end
$var wire 2 Z WB_E [1:0] $end
$var wire 2 [ MEM_E [1:0] $end
$var reg 32 \ ALUOut_M [31:0] $end
$var reg 2 ] MEM_M [1:0] $end
$var reg 2 ^ WB_M [1:0] $end
$var reg 32 _ WriteData_M [31:0] $end
$var reg 5 ` WriteReg_M [4:0] $end
$upscope $end
$scope module IdEx $end
$var wire 5 a Rd_D [4:0] $end
$var wire 5 b Rs_D [4:0] $end
$var wire 5 c Rt_D [4:0] $end
$var wire 1 R clk $end
$var wire 2 d WB_D [1:0] $end
$var wire 32 e SignImm_D [31:0] $end
$var wire 32 f RD2_D [31:0] $end
$var wire 32 g RD1_D [31:0] $end
$var wire 2 h MEM_D [1:0] $end
$var wire 5 i EX_D [4:0] $end
$var reg 5 j EX_E [4:0] $end
$var reg 2 k MEM_E [1:0] $end
$var reg 32 l RD1_E [31:0] $end
$var reg 32 m RD2_E [31:0] $end
$var reg 5 n Rd_E [4:0] $end
$var reg 5 o Rs_E [4:0] $end
$var reg 5 p Rt_E [4:0] $end
$var reg 32 q SignImm_E [31:0] $end
$var reg 2 r WB_E [1:0] $end
$upscope $end
$scope module IfId $end
$var wire 1 ! PCSrcD $end
$var wire 1 R clk $end
$var wire 32 s PC_Plus4_F [31:0] $end
$var wire 32 t PC_F [31:0] $end
$var wire 32 u Instr_F [31:0] $end
$var reg 32 v Instr_D [31:0] $end
$var reg 32 w PC_D [31:0] $end
$var reg 32 x PC_Plus4_D [31:0] $end
$upscope $end
$scope module MemWb $end
$var wire 32 y ALUOut_M [31:0] $end
$var wire 2 z WB_M [1:0] $end
$var wire 5 { WriteReg_M [4:0] $end
$var wire 1 R clk $end
$var wire 32 | ReadData_M [31:0] $end
$var reg 32 } ALUOut_W [31:0] $end
$var reg 32 ~ ReadData_W [31:0] $end
$var reg 2 !" WB_W [1:0] $end
$var reg 5 "" WriteReg_W [4:0] $end
$upscope $end
$scope module PC_block $end
$var wire 1 R clk $end
$var wire 32 #" nextPC [31:0] $end
$var reg 32 $" currPC [31:0] $end
$upscope $end
$scope module PCadd4 $end
$var wire 32 %" currPC [31:0] $end
$var wire 32 &" PCplus4 [31:0] $end
$upscope $end
$scope module aluMux $end
$var wire 32 '" mux_in_0 [31:0] $end
$var wire 32 (" mux_in_1 [31:0] $end
$var wire 1 )" select $end
$var reg 32 *" mux_out [31:0] $end
$upscope $end
$scope module branchAdder $end
$var wire 32 +" PC_Plus4 [31:0] $end
$var wire 32 ," signExtendedImmediate [31:0] $end
$var reg 32 -" out [31:0] $end
$upscope $end
$scope module branchMux $end
$var wire 32 ." mux_in_0 [31:0] $end
$var wire 32 /" mux_in_1 [31:0] $end
$var wire 1 ! select $end
$var reg 32 0" mux_out [31:0] $end
$upscope $end
$scope module branch_control $end
$var wire 1 " zero $end
$var wire 1 6 branch $end
$var reg 1 1" and_out $end
$upscope $end
$scope module control_block $end
$var wire 32 2" instr [31:0] $end
$var reg 3 3" ALUop [2:0] $end
$var reg 1 4" ALUsrc $end
$var reg 1 5" Branch $end
$var reg 5 6" EX_D [4:0] $end
$var reg 1 7" Jump $end
$var reg 2 8" MEM_D [1:0] $end
$var reg 1 9" MemRead $end
$var reg 1 :" MemToReg $end
$var reg 1 ;" MemWrite $end
$var reg 1 <" RegDst $end
$var reg 1 =" RegWrite $end
$var reg 2 >" WB_D [1:0] $end
$var reg 1 6 branch $end
$var reg 1 3 jal_control $end
$var reg 1 2 jr_control $end
$var reg 1 1 jump $end
$var reg 1 ( syscall_control $end
$upscope $end
$scope module dataMem $end
$var wire 32 ?" address [31:0] $end
$var wire 1 R clk $end
$var wire 1 @" memRead $end
$var wire 1 A" memWrite $end
$var wire 32 B" writeData [31:0] $end
$var reg 32 C" readData [31:0] $end
$upscope $end
$scope module instructionMemory $end
$var wire 32 D" currPC [31:0] $end
$var reg 32 E" instr [31:0] $end
$var reg 32 F" number_instructions [31:0] $end
$upscope $end
$scope module memToRegMux $end
$var wire 32 G" mux_in_0 [31:0] $end
$var wire 32 H" mux_in_1 [31:0] $end
$var wire 1 I" select $end
$var reg 32 J" mux_out [31:0] $end
$upscope $end
$scope module reg_block $end
$var wire 1 K" RegWrite $end
$var wire 32 L" a0 [31:0] $end
$var wire 1 R clk $end
$var wire 32 M" jal_address [31:0] $end
$var wire 1 3 jal_control $end
$var wire 32 N" ra [31:0] $end
$var wire 5 O" readReg1 [4:0] $end
$var wire 5 P" readReg2 [4:0] $end
$var wire 32 Q" v0 [31:0] $end
$var wire 32 R" writeData [31:0] $end
$var wire 5 S" writeReg [4:0] $end
$var reg 32 T" readData1 [31:0] $end
$var reg 32 U" readData2 [31:0] $end
$var integer 32 V" i [31:0] $end
$upscope $end
$scope module registerMux $end
$var wire 5 W" mux_in_0 [4:0] $end
$var wire 5 X" mux_in_1 [4:0] $end
$var wire 1 Y" select $end
$var reg 5 Z" mux_out [4:0] $end
$upscope $end
$scope module runStats $end
$var wire 1 R clk $end
$var wire 32 [" number_instructions [31:0] $end
$var wire 1 ) stat_control $end
$var reg 32 \" number_cycles [31:0] $end
$upscope $end
$scope module signExtend_block $end
$var wire 32 ]" instr [31:0] $end
$var reg 32 ^" out_value [31:0] $end
$upscope $end
$scope module testSyscall $end
$var wire 32 _" a0 [31:0] $end
$var wire 1 ( syscall_control $end
$var wire 32 `" v0 [31:0] $end
$var reg 1 ) stat_control $end
$upscope $end
$upscope $end
$enddefinitions $end
#0
$dumpvars
b0 `"
b0 _"
b0 ^"
b0 ]"
b1 \"
b1 ["
b0 Z"
1Y"
b0 X"
b0 W"
b100000 V"
b0 U"
b0 T"
b0 S"
b0 R"
b0 Q"
b0 P"
b0 O"
b0 N"
b1000 M"
b0 L"
1K"
b0 J"
0I"
bx H"
b0 G"
b1 F"
bx E"
b10000000000000000100000 D"
bx C"
b0 B"
0A"
0@"
b0 ?"
b10 >"
1="
1<"
0;"
0:"
09"
b0 8"
07"
b10xxx 6"
05"
04"
bx 3"
b0 2"
01"
b10000000000000000100100 0"
b0 /"
b10000000000000000100100 ."
b0 -"
b0 ,"
b0 +"
bx *"
0)"
b0 ("
bx '"
b10000000000000000100100 &"
b10000000000000000100000 %"
b10000000000000000100000 $"
b10000000000000000100100 #"
b0 ""
b0 !"
bx ~
b0 }
bx |
b0 {
b0 z
b0 y
b0 x
b0 w
b0 v
bx u
b10000000000000000100000 t
b10000000000000000100100 s
b10 r
b0 q
b0 p
b0 o
b0 n
bx m
bx l
b0 k
b10xxx j
b10xxx i
b0 h
b0 g
b0 f
b0 e
b10 d
b0 c
b0 b
b0 a
b0 `
b0 _
b0 ^
b0 ]
b0 \
b0 [
b10 Z
bx Y
b0 X
b0 W
b0 V
bx U
bx T
bx S
1R
b0 Q
b0 P
b0 O
b10xxx N
b10xxx M
b0 L
b0 K
b0 J
b10000000000000000100100 I
b0 H
b0 G
b10000000000000000100100 F
b0 E
b10000000000000000100000 D
b0 C
bx B
b0 A
bx @
b0 ?
b0 >
b0 =
b0 <
b10 ;
b10 :
b0 9
b0 8
b0 7
x6
b0 5
bx 4
03
02
x1
b1 0
b0 /
bx .
bx -
b0 ,
b0 +
bx *
0)
0(
b0 '
b0 &
b0 %
b0 $
b0 #
1"
0!
$end
#10
0R
#20
0K"
bx A
bx f
bx U"
bx C
bx g
bx T"
b0 *
b0 T
b0 *"
bx H
bx -"
bx /"
b0 ;
b0 d
b0 >"
b0 N
b0 i
b0 6"
0="
b0 3"
0<"
bx ,
bx e
bx ,"
bx ^"
bx a
bx c
bx b
bx P"
bx O"
b10000000000000000101000 I
b10000000000000000101000 #"
b10000000000000000101000 0"
b10 0
b10 F"
b10 ["
b10 \"
b10 8
b10 !"
b10 9
b10 ^
b10 z
b0 @
b0 Y
b0 m
b0 '"
b0 B
b0 U
b0 l
b10000000000000000101000 G
b10000000000000000101000 x
b10000000000000000101000 +"
bx 5
bx v
bx 2"
bx ]"
b10000000000000000101100 M"
b10000000000000000100100 E
b10000000000000000100100 w
b10000000000000000101000 F
b10000000000000000101000 s
b10000000000000000101000 &"
b10000000000000000101000 ."
b10000000000000000100100 D
b10000000000000000100100 t
b10000000000000000100100 $"
b10000000000000000100100 %"
b10000000000000000100100 D"
1R
#30
0R
#40
x"
bx Q
bx V
bx W
b10000000000000000101100 I
b10000000000000000101100 #"
b10000000000000000101100 0"
b11 0
b11 F"
b11 ["
bx *
bx T
bx *"
bx %
bx X
bx Z"
b0 S
0Y"
b10000000000000000101100 F
b10000000000000000101100 s
b10000000000000000101100 &"
b10000000000000000101100 ."
b10000000000000000101000 D
b10000000000000000101000 t
b10000000000000000101000 $"
b10000000000000000101000 %"
b10000000000000000101000 D"
bx +
bx q
bx ("
bx @
bx Y
bx m
bx '"
bx B
bx U
bx l
bx ?
bx n
bx X"
bx <
bx p
bx W"
bx =
bx o
b0 :
b0 Z
b0 r
b0 M
b0 j
b11 \"
1R
#50
0R
#60
bx >
bx J"
bx R"
b10000000000000000110000 I
b10000000000000000110000 #"
b10000000000000000110000 0"
b100 0
b100 F"
b100 ["
b100 \"
bx #
bx ""
bx S"
bx O
bx }
bx G"
b0 8
b0 !"
bx $
bx `
bx {
bx P
bx \
bx y
bx ?"
b0 9
b0 ^
b0 z
b10000000000000000110000 G
b10000000000000000110000 x
b10000000000000000110000 +"
b10000000000000000110100 M"
b10000000000000000101100 E
b10000000000000000101100 w
b10000000000000000110000 F
b10000000000000000110000 s
b10000000000000000110000 &"
b10000000000000000110000 ."
b10000000000000000101100 D
b10000000000000000101100 t
b10000000000000000101100 $"
b10000000000000000101100 %"
b10000000000000000101100 D"
1R
#70
0R
#80
b10000000000000000110100 I
b10000000000000000110100 #"
b10000000000000000110100 0"
b101 0
b101 F"
b101 ["
b10000000000000000110100 F
b10000000000000000110100 s
b10000000000000000110100 &"
b10000000000000000110100 ."
b10000000000000000110000 D
b10000000000000000110000 t
b10000000000000000110000 $"
b10000000000000000110000 %"
b10000000000000000110000 D"
b101 \"
1R
#90
0R
#100
b10000000000000000111000 I
b10000000000000000111000 #"
b10000000000000000111000 0"
b110 0
b110 F"
b110 ["
b110 \"
b10000000000000000111000 G
b10000000000000000111000 x
b10000000000000000111000 +"
b10000000000000000111100 M"
b10000000000000000110100 E
b10000000000000000110100 w
b10000000000000000111000 F
b10000000000000000111000 s
b10000000000000000111000 &"
b10000000000000000111000 ."
b10000000000000000110100 D
b10000000000000000110100 t
b10000000000000000110100 $"
b10000000000000000110100 %"
b10000000000000000110100 D"
1R
#110
0R
#120
b10000000000000000111100 I
b10000000000000000111100 #"
b10000000000000000111100 0"
b111 0
b111 F"
b111 ["
b10000000000000000111100 F
b10000000000000000111100 s
b10000000000000000111100 &"
b10000000000000000111100 ."
b10000000000000000111000 D
b10000000000000000111000 t
b10000000000000000111000 $"
b10000000000000000111000 %"
b10000000000000000111000 D"
b111 \"
1R
#130
0R
#140
b10000000000000001000000 I
b10000000000000001000000 #"
b10000000000000001000000 0"
b1000 0
b1000 F"
b1000 ["
b1000 \"
b10000000000000001000000 G
b10000000000000001000000 x
b10000000000000001000000 +"
b10000000000000001000100 M"
b10000000000000000111100 E
b10000000000000000111100 w
b10000000000000001000000 F
b10000000000000001000000 s
b10000000000000001000000 &"
b10000000000000001000000 ."
b10000000000000000111100 D
b10000000000000000111100 t
b10000000000000000111100 $"
b10000000000000000111100 %"
b10000000000000000111100 D"
1R
#150
0R
#160
b10000000000000001000100 I
b10000000000000001000100 #"
b10000000000000001000100 0"
b1001 0
b1001 F"
b1001 ["
b10000000000000001000100 F
b10000000000000001000100 s
b10000000000000001000100 &"
b10000000000000001000100 ."
b10000000000000001000000 D
b10000000000000001000000 t
b10000000000000001000000 $"
b10000000000000001000000 %"
b10000000000000001000000 D"
b1001 \"
1R
#170
0R
#180
b10000000000000001001000 I
b10000000000000001001000 #"
b10000000000000001001000 0"
b1010 0
b1010 F"
b1010 ["
b1010 \"
b10000000000000001001000 G
b10000000000000001001000 x
b10000000000000001001000 +"
b10000000000000001001100 M"
b10000000000000001000100 E
b10000000000000001000100 w
b10000000000000001001000 F
b10000000000000001001000 s
b10000000000000001001000 &"
b10000000000000001001000 ."
b10000000000000001000100 D
b10000000000000001000100 t
b10000000000000001000100 $"
b10000000000000001000100 %"
b10000000000000001000100 D"
1R
#190
0R
#200
b10000000000000001001100 I
b10000000000000001001100 #"
b10000000000000001001100 0"
b1011 0
b1011 F"
b1011 ["
b10000000000000001001100 F
b10000000000000001001100 s
b10000000000000001001100 &"
b10000000000000001001100 ."
b10000000000000001001000 D
b10000000000000001001000 t
b10000000000000001001000 $"
b10000000000000001001000 %"
b10000000000000001001000 D"
b1011 \"
1R
#210
0R
#220
b10000000000000001010000 I
b10000000000000001010000 #"
b10000000000000001010000 0"
b1100 0
b1100 F"
b1100 ["
b1100 \"
b10000000000000001010000 G
b10000000000000001010000 x
b10000000000000001010000 +"
b10000000000000001010100 M"
b10000000000000001001100 E
b10000000000000001001100 w
b10000000000000001010000 F
b10000000000000001010000 s
b10000000000000001010000 &"
b10000000000000001010000 ."
b10000000000000001001100 D
b10000000000000001001100 t
b10000000000000001001100 $"
b10000000000000001001100 %"
b10000000000000001001100 D"
1R
#230
0R
#240
b10000000000000001010100 I
b10000000000000001010100 #"
b10000000000000001010100 0"
b1101 0
b1101 F"
b1101 ["
b10000000000000001010100 F
b10000000000000001010100 s
b10000000000000001010100 &"
b10000000000000001010100 ."
b10000000000000001010000 D
b10000000000000001010000 t
b10000000000000001010000 $"
b10000000000000001010000 %"
b10000000000000001010000 D"
b1101 \"
1R
#250
0R
#260
b10000000000000001011000 I
b10000000000000001011000 #"
b10000000000000001011000 0"
b1110 0
b1110 F"
b1110 ["
b1110 \"
b10000000000000001011000 G
b10000000000000001011000 x
b10000000000000001011000 +"
b10000000000000001011100 M"
b10000000000000001010100 E
b10000000000000001010100 w
b10000000000000001011000 F
b10000000000000001011000 s
b10000000000000001011000 &"
b10000000000000001011000 ."
b10000000000000001010100 D
b10000000000000001010100 t
b10000000000000001010100 $"
b10000000000000001010100 %"
b10000000000000001010100 D"
1R
#270
0R
#280
b10000000000000001011100 I
b10000000000000001011100 #"
b10000000000000001011100 0"
b1111 0
b1111 F"
b1111 ["
b10000000000000001011100 F
b10000000000000001011100 s
b10000000000000001011100 &"
b10000000000000001011100 ."
b10000000000000001011000 D
b10000000000000001011000 t
b10000000000000001011000 $"
b10000000000000001011000 %"
b10000000000000001011000 D"
b1111 \"
1R
#290
0R
#300
b10000000000000001100000 I
b10000000000000001100000 #"
b10000000000000001100000 0"
b10000 0
b10000 F"
b10000 ["
b10000 \"
b10000000000000001100000 G
b10000000000000001100000 x
b10000000000000001100000 +"
b10000000000000001100100 M"
b10000000000000001011100 E
b10000000000000001011100 w
b10000000000000001100000 F
b10000000000000001100000 s
b10000000000000001100000 &"
b10000000000000001100000 ."
b10000000000000001011100 D
b10000000000000001011100 t
b10000000000000001011100 $"
b10000000000000001011100 %"
b10000000000000001011100 D"
1R
#310
0R
#320
b10000000000000001100100 I
b10000000000000001100100 #"
b10000000000000001100100 0"
b10001 0
b10001 F"
b10001 ["
b10000000000000001100100 F
b10000000000000001100100 s
b10000000000000001100100 &"
b10000000000000001100100 ."
b10000000000000001100000 D
b10000000000000001100000 t
b10000000000000001100000 $"
b10000000000000001100000 %"
b10000000000000001100000 D"
b10001 \"
1R
#330
0R
#340
b10000000000000001101000 I
b10000000000000001101000 #"
b10000000000000001101000 0"
b10010 0
b10010 F"
b10010 ["
b10010 \"
b10000000000000001101000 G
b10000000000000001101000 x
b10000000000000001101000 +"
b10000000000000001101100 M"
b10000000000000001100100 E
b10000000000000001100100 w
b10000000000000001101000 F
b10000000000000001101000 s
b10000000000000001101000 &"
b10000000000000001101000 ."
b10000000000000001100100 D
b10000000000000001100100 t
b10000000000000001100100 $"
b10000000000000001100100 %"
b10000000000000001100100 D"
1R
#350
0R
#360
b10000000000000001101100 I
b10000000000000001101100 #"
b10000000000000001101100 0"
b10011 0
b10011 F"
b10011 ["
b10000000000000001101100 F
b10000000000000001101100 s
b10000000000000001101100 &"
b10000000000000001101100 ."
b10000000000000001101000 D
b10000000000000001101000 t
b10000000000000001101000 $"
b10000000000000001101000 %"
b10000000000000001101000 D"
b10011 \"
1R
#370
0R
#380
b10000000000000001110000 I
b10000000000000001110000 #"
b10000000000000001110000 0"
b10100 0
b10100 F"
b10100 ["
b10100 \"
b10000000000000001110000 G
b10000000000000001110000 x
b10000000000000001110000 +"
b10000000000000001110100 M"
b10000000000000001101100 E
b10000000000000001101100 w
b10000000000000001110000 F
b10000000000000001110000 s
b10000000000000001110000 &"
b10000000000000001110000 ."
b10000000000000001101100 D
b10000000000000001101100 t
b10000000000000001101100 $"
b10000000000000001101100 %"
b10000000000000001101100 D"
1R
#390
0R
#400
b10000000000000001110100 I
b10000000000000001110100 #"
b10000000000000001110100 0"
b10101 0
b10101 F"
b10101 ["
b10000000000000001110100 F
b10000000000000001110100 s
b10000000000000001110100 &"
b10000000000000001110100 ."
b10000000000000001110000 D
b10000000000000001110000 t
b10000000000000001110000 $"
b10000000000000001110000 %"
b10000000000000001110000 D"
b10101 \"
1R
#410
0R
#420
b10000000000000001111000 I
b10000000000000001111000 #"
b10000000000000001111000 0"
b10110 0
b10110 F"
b10110 ["
b10110 \"
b10000000000000001111000 G
b10000000000000001111000 x
b10000000000000001111000 +"
b10000000000000001111100 M"
b10000000000000001110100 E
b10000000000000001110100 w
b10000000000000001111000 F
b10000000000000001111000 s
b10000000000000001111000 &"
b10000000000000001111000 ."
b10000000000000001110100 D
b10000000000000001110100 t
b10000000000000001110100 $"
b10000000000000001110100 %"
b10000000000000001110100 D"
1R
#430
0R
#440
b10000000000000001111100 I
b10000000000000001111100 #"
b10000000000000001111100 0"
b10111 0
b10111 F"
b10111 ["
b10000000000000001111100 F
b10000000000000001111100 s
b10000000000000001111100 &"
b10000000000000001111100 ."
b10000000000000001111000 D
b10000000000000001111000 t
b10000000000000001111000 $"
b10000000000000001111000 %"
b10000000000000001111000 D"
b10111 \"
1R
#450
0R
#460
b10000000000000010000000 I
b10000000000000010000000 #"
b10000000000000010000000 0"
b11000 0
b11000 F"
b11000 ["
b11000 \"
b10000000000000010000000 G
b10000000000000010000000 x
b10000000000000010000000 +"
b10000000000000010000100 M"
b10000000000000001111100 E
b10000000000000001111100 w
b10000000000000010000000 F
b10000000000000010000000 s
b10000000000000010000000 &"
b10000000000000010000000 ."
b10000000000000001111100 D
b10000000000000001111100 t
b10000000000000001111100 $"
b10000000000000001111100 %"
b10000000000000001111100 D"
1R
#470
0R
#480
b10000000000000010000100 I
b10000000000000010000100 #"
b10000000000000010000100 0"
b11001 0
b11001 F"
b11001 ["
b10000000000000010000100 F
b10000000000000010000100 s
b10000000000000010000100 &"
b10000000000000010000100 ."
b10000000000000010000000 D
b10000000000000010000000 t
b10000000000000010000000 $"
b10000000000000010000000 %"
b10000000000000010000000 D"
b11001 \"
1R
#490
0R
#500
b10000000000000010001000 I
b10000000000000010001000 #"
b10000000000000010001000 0"
b11010 0
b11010 F"
b11010 ["
b11010 \"
b10000000000000010001000 G
b10000000000000010001000 x
b10000000000000010001000 +"
b10000000000000010001100 M"
b10000000000000010000100 E
b10000000000000010000100 w
b10000000000000010001000 F
b10000000000000010001000 s
b10000000000000010001000 &"
b10000000000000010001000 ."
b10000000000000010000100 D
b10000000000000010000100 t
b10000000000000010000100 $"
b10000000000000010000100 %"
b10000000000000010000100 D"
1R
#510
0R
#520
b10000000000000010001100 I
b10000000000000010001100 #"
b10000000000000010001100 0"
b11011 0
b11011 F"
b11011 ["
b10000000000000010001100 F
b10000000000000010001100 s
b10000000000000010001100 &"
b10000000000000010001100 ."
b10000000000000010001000 D
b10000000000000010001000 t
b10000000000000010001000 $"
b10000000000000010001000 %"
b10000000000000010001000 D"
b11011 \"
1R
#530
0R
#540
b10000000000000010010000 I
b10000000000000010010000 #"
b10000000000000010010000 0"
b11100 0
b11100 F"
b11100 ["
b11100 \"
b10000000000000010010000 G
b10000000000000010010000 x
b10000000000000010010000 +"
b10000000000000010010100 M"
b10000000000000010001100 E
b10000000000000010001100 w
b10000000000000010010000 F
b10000000000000010010000 s
b10000000000000010010000 &"
b10000000000000010010000 ."
b10000000000000010001100 D
b10000000000000010001100 t
b10000000000000010001100 $"
b10000000000000010001100 %"
b10000000000000010001100 D"
1R
#550
0R
#560
b10000000000000010010100 I
b10000000000000010010100 #"
b10000000000000010010100 0"
b11101 0
b11101 F"
b11101 ["
b10000000000000010010100 F
b10000000000000010010100 s
b10000000000000010010100 &"
b10000000000000010010100 ."
b10000000000000010010000 D
b10000000000000010010000 t
b10000000000000010010000 $"
b10000000000000010010000 %"
b10000000000000010010000 D"
b11101 \"
1R
#570
0R
#580
b10000000000000010011000 I
b10000000000000010011000 #"
b10000000000000010011000 0"
b11110 0
b11110 F"
b11110 ["
b11110 \"
b10000000000000010011000 G
b10000000000000010011000 x
b10000000000000010011000 +"
b10000000000000010011100 M"
b10000000000000010010100 E
b10000000000000010010100 w
b10000000000000010011000 F
b10000000000000010011000 s
b10000000000000010011000 &"
b10000000000000010011000 ."
b10000000000000010010100 D
b10000000000000010010100 t
b10000000000000010010100 $"
b10000000000000010010100 %"
b10000000000000010010100 D"
1R
#590
0R
#600
b10000000000000010011100 I
b10000000000000010011100 #"
b10000000000000010011100 0"
b11111 0
b11111 F"
b11111 ["
b10000000000000010011100 F
b10000000000000010011100 s
b10000000000000010011100 &"
b10000000000000010011100 ."
b10000000000000010011000 D
b10000000000000010011000 t
b10000000000000010011000 $"
b10000000000000010011000 %"
b10000000000000010011000 D"
b11111 \"
1R
#610
0R
#620
b10000000000000010100000 I
b10000000000000010100000 #"
b10000000000000010100000 0"
b100000 0
b100000 F"
b100000 ["
b100000 \"
b10000000000000010100000 G
b10000000000000010100000 x
b10000000000000010100000 +"
b10000000000000010100100 M"
b10000000000000010011100 E
b10000000000000010011100 w
b10000000000000010100000 F
b10000000000000010100000 s
b10000000000000010100000 &"
b10000000000000010100000 ."
b10000000000000010011100 D
b10000000000000010011100 t
b10000000000000010011100 $"
b10000000000000010011100 %"
b10000000000000010011100 D"
1R
#630
0R
#640
b10000000000000010100100 I
b10000000000000010100100 #"
b10000000000000010100100 0"
b100001 0
b100001 F"
b100001 ["
b10000000000000010100100 F
b10000000000000010100100 s
b10000000000000010100100 &"
b10000000000000010100100 ."
b10000000000000010100000 D
b10000000000000010100000 t
b10000000000000010100000 $"
b10000000000000010100000 %"
b10000000000000010100000 D"
b100001 \"
1R
#650
0R
#660
b10000000000000010101000 I
b10000000000000010101000 #"
b10000000000000010101000 0"
b100010 0
b100010 F"
b100010 ["
b100010 \"
b10000000000000010101000 G
b10000000000000010101000 x
b10000000000000010101000 +"
b10000000000000010101100 M"
b10000000000000010100100 E
b10000000000000010100100 w
b10000000000000010101000 F
b10000000000000010101000 s
b10000000000000010101000 &"
b10000000000000010101000 ."
b10000000000000010100100 D
b10000000000000010100100 t
b10000000000000010100100 $"
b10000000000000010100100 %"
b10000000000000010100100 D"
1R
#670
0R
#680
b10000000000000010101100 I
b10000000000000010101100 #"
b10000000000000010101100 0"
b100011 0
b100011 F"
b100011 ["
b10000000000000010101100 F
b10000000000000010101100 s
b10000000000000010101100 &"
b10000000000000010101100 ."
b10000000000000010101000 D
b10000000000000010101000 t
b10000000000000010101000 $"
b10000000000000010101000 %"
b10000000000000010101000 D"
b100011 \"
1R
#690
0R
#700
b10000000000000010110000 I
b10000000000000010110000 #"
b10000000000000010110000 0"
b100100 0
b100100 F"
b100100 ["
b100100 \"
b10000000000000010110000 G
b10000000000000010110000 x
b10000000000000010110000 +"
b10000000000000010110100 M"
b10000000000000010101100 E
b10000000000000010101100 w
b10000000000000010110000 F
b10000000000000010110000 s
b10000000000000010110000 &"
b10000000000000010110000 ."
b10000000000000010101100 D
b10000000000000010101100 t
b10000000000000010101100 $"
b10000000000000010101100 %"
b10000000000000010101100 D"
1R
#710
0R
#720
b10000000000000010110100 I
b10000000000000010110100 #"
b10000000000000010110100 0"
b100101 0
b100101 F"
b100101 ["
b10000000000000010110100 F
b10000000000000010110100 s
b10000000000000010110100 &"
b10000000000000010110100 ."
b10000000000000010110000 D
b10000000000000010110000 t
b10000000000000010110000 $"
b10000000000000010110000 %"
b10000000000000010110000 D"
b100101 \"
1R
#730
0R
#740
b10000000000000010111000 I
b10000000000000010111000 #"
b10000000000000010111000 0"
b100110 0
b100110 F"
b100110 ["
b100110 \"
b10000000000000010111000 G
b10000000000000010111000 x
b10000000000000010111000 +"
b10000000000000010111100 M"
b10000000000000010110100 E
b10000000000000010110100 w
b10000000000000010111000 F
b10000000000000010111000 s
b10000000000000010111000 &"
b10000000000000010111000 ."
b10000000000000010110100 D
b10000000000000010110100 t
b10000000000000010110100 $"
b10000000000000010110100 %"
b10000000000000010110100 D"
1R
#750
0R
#760
b10000000000000010111100 I
b10000000000000010111100 #"
b10000000000000010111100 0"
b100111 0
b100111 F"
b100111 ["
b10000000000000010111100 F
b10000000000000010111100 s
b10000000000000010111100 &"
b10000000000000010111100 ."
b10000000000000010111000 D
b10000000000000010111000 t
b10000000000000010111000 $"
b10000000000000010111000 %"
b10000000000000010111000 D"
b100111 \"
1R
#770
0R
#780
b10000000000000011000000 I
b10000000000000011000000 #"
b10000000000000011000000 0"
b101000 0
b101000 F"
b101000 ["
b101000 \"
b10000000000000011000000 G
b10000000000000011000000 x
b10000000000000011000000 +"
b10000000000000011000100 M"
b10000000000000010111100 E
b10000000000000010111100 w
b10000000000000011000000 F
b10000000000000011000000 s
b10000000000000011000000 &"
b10000000000000011000000 ."
b10000000000000010111100 D
b10000000000000010111100 t
b10000000000000010111100 $"
b10000000000000010111100 %"
b10000000000000010111100 D"
1R
#790
0R
#800
b10000000000000011000100 I
b10000000000000011000100 #"
b10000000000000011000100 0"
b101001 0
b101001 F"
b101001 ["
b10000000000000011000100 F
b10000000000000011000100 s
b10000000000000011000100 &"
b10000000000000011000100 ."
b10000000000000011000000 D
b10000000000000011000000 t
b10000000000000011000000 $"
b10000000000000011000000 %"
b10000000000000011000000 D"
b101001 \"
1R
#810
0R
#820
b10000000000000011001000 I
b10000000000000011001000 #"
b10000000000000011001000 0"
b101010 0
b101010 F"
b101010 ["
b101010 \"
b10000000000000011001000 G
b10000000000000011001000 x
b10000000000000011001000 +"
b10000000000000011001100 M"
b10000000000000011000100 E
b10000000000000011000100 w
b10000000000000011001000 F
b10000000000000011001000 s
b10000000000000011001000 &"
b10000000000000011001000 ."
b10000000000000011000100 D
b10000000000000011000100 t
b10000000000000011000100 $"
b10000000000000011000100 %"
b10000000000000011000100 D"
1R
#830
0R
#840
b10000000000000011001100 I
b10000000000000011001100 #"
b10000000000000011001100 0"
b101011 0
b101011 F"
b101011 ["
b10000000000000011001100 F
b10000000000000011001100 s
b10000000000000011001100 &"
b10000000000000011001100 ."
b10000000000000011001000 D
b10000000000000011001000 t
b10000000000000011001000 $"
b10000000000000011001000 %"
b10000000000000011001000 D"
b101011 \"
1R
#850
0R
