src/testbench.vcd
$date
	Thu Mar  8 14:25:31 2018
$end
$version
	Icarus Verilog
$end
$timescale
	1s
$end
$scope module testbench $end
$var wire 1 ! PCSrc_D $end
$var wire 1 " zero $end
$var wire 5 # writeReg_W [4:0] $end
$var wire 5 $ writeReg_M [4:0] $end
$var wire 5 % writeReg_E [4:0] $end
$var wire 32 & writeData_M [31:0] $end
$var wire 32 ' v0 [31:0] $end
$var wire 1 ( syscall_control $end
$var wire 1 ) stat_control $end
$var wire 32 * srcB [31:0] $end
$var wire 32 + signImm_E [31:0] $end
$var wire 32 , signImm_D [31:0] $end
$var wire 32 - readData_W [31:0] $end
$var wire 32 . readData_M [31:0] $end
$var wire 32 / ra [31:0] $end
$var wire 32 0 number_instructions [31:0] $end
$var wire 1 1 jump $end
$var wire 1 2 jr_control $end
$var wire 1 3 jal_control $end
$var wire 32 4 instr_F [31:0] $end
$var wire 32 5 instr_D [31:0] $end
$var wire 1 6 branch $end
$var wire 32 7 a0 [31:0] $end
$var wire 2 8 WB_W [1:0] $end
$var wire 2 9 WB_M [1:0] $end
$var wire 2 : WB_E [1:0] $end
$var wire 2 ; WB_D [1:0] $end
$var wire 5 < Rt_E [4:0] $end
$var wire 5 = Rs_E [4:0] $end
$var wire 32 > Result_W [31:0] $end
$var wire 5 ? Rd_E [4:0] $end
$var wire 32 @ RD2_E [31:0] $end
$var wire 32 A RD2_D [31:0] $end
$var wire 32 B RD1_E [31:0] $end
$var wire 32 C RD1_D [31:0] $end
$var wire 32 D PC_F [31:0] $end
$var wire 32 E PC_D [31:0] $end
$var wire 32 F PCPlus4_F [31:0] $end
$var wire 32 G PCPlus4_D [31:0] $end
$var wire 32 H PCBranch_D [31:0] $end
$var wire 32 I Next_PC [31:0] $end
$var wire 2 J MEM_M [1:0] $end
$var wire 2 K MEM_E [1:0] $end
$var wire 2 L MEM_D [1:0] $end
$var wire 5 M EX_E [4:0] $end
$var wire 5 N EX_D [4:0] $end
$var wire 32 O ALUOut_W [31:0] $end
$var wire 32 P ALUOut_M [31:0] $end
$var wire 32 Q ALUOut_E [31:0] $end
$var reg 1 R clk $end
$scope module ALU_block $end
$var wire 3 S ALUop [2:0] $end
$var wire 32 T reg2 [31:0] $end
$var wire 32 U reg1 [31:0] $end
$var reg 32 V ALUresult [31:0] $end
$var reg 1 " zero $end
$upscope $end
$scope module ExMem $end
$var wire 32 W ALUOut_E [31:0] $end
$var wire 1 R clk $end
$var wire 5 X WriteReg_E [4:0] $end
$var wire 32 Y WriteData_E [31:0] $end
$var wire 2 Z WB_E [1:0] $end
$var wire 2 [ MEM_E [1:0] $end
$var reg 32 \ ALUOut_M [31:0] $end
$var reg 2 ] MEM_M [1:0] $end
$var reg 2 ^ WB_M [1:0] $end
$var reg 32 _ WriteData_M [31:0] $end
$var reg 5 ` WriteReg_M [4:0] $end
$upscope $end
$scope module IdEx $end
$var wire 5 a Rd_D [4:0] $end
$var wire 5 b Rs_D [4:0] $end
$var wire 5 c Rt_D [4:0] $end
$var wire 1 R clk $end
$var wire 2 d WB_D [1:0] $end
$var wire 32 e SignImm_D [31:0] $end
$var wire 32 f RD2_D [31:0] $end
$var wire 32 g RD1_D [31:0] $end
$var wire 2 h MEM_D [1:0] $end
$var wire 5 i EX_D [4:0] $end
$var reg 5 j EX_E [4:0] $end
$var reg 2 k MEM_E [1:0] $end
$var reg 32 l RD1_E [31:0] $end
$var reg 32 m RD2_E [31:0] $end
$var reg 5 n Rd_E [4:0] $end
$var reg 5 o Rs_E [4:0] $end
$var reg 5 p Rt_E [4:0] $end
$var reg 32 q SignImm_E [31:0] $end
$var reg 2 r WB_E [1:0] $end
$upscope $end
$scope module IfId $end
$var wire 1 ! PCSrcD $end
$var wire 1 R clk $end
$var wire 32 s PC_Plus4_F [31:0] $end
$var wire 32 t PC_F [31:0] $end
$var wire 32 u Instr_F [31:0] $end
$var reg 32 v Instr_D [31:0] $end
$var reg 32 w PC_D [31:0] $end
$var reg 32 x PC_Plus4_D [31:0] $end
$upscope $end
$scope module MemWb $end
$var wire 32 y ALUOut_M [31:0] $end
$var wire 2 z WB_M [1:0] $end
$var wire 5 { WriteReg_M [4:0] $end
$var wire 1 R clk $end
$var wire 32 | ReadData_M [31:0] $end
$var reg 32 } ALUOut_W [31:0] $end
$var reg 32 ~ ReadData_W [31:0] $end
$var reg 2 !" WB_W [1:0] $end
$var reg 5 "" WriteReg_W [4:0] $end
$upscope $end
$scope module PC_block $end
$var wire 1 R clk $end
$var wire 32 #" nextPC [31:0] $end
$var reg 32 $" currPC [31:0] $end
$upscope $end
$scope module PCadd4 $end
$var wire 32 %" currPC [31:0] $end
$var wire 32 &" PCplus4 [31:0] $end
$upscope $end
$scope module aluMux $end
$var wire 32 '" mux_in_0 [31:0] $end
$var wire 32 (" mux_in_1 [31:0] $end
$var wire 1 )" select $end
$var reg 32 *" mux_out [31:0] $end
$upscope $end
$scope module branchAdder $end
$var wire 32 +" PC_Plus4 [31:0] $end
$var wire 32 ," signExtendedImmediate [31:0] $end
$var reg 32 -" out [31:0] $end
$upscope $end
$scope module branchMux $end
$var wire 32 ." mux_in_0 [31:0] $end
$var wire 32 /" mux_in_1 [31:0] $end
$var wire 1 ! select $end
$var reg 32 0" mux_out [31:0] $end
$upscope $end
$scope module branch_control $end
$var wire 1 " zero $end
$var wire 1 6 branch $end
$var reg 1 1" and_out $end
$upscope $end
$scope module control_block $end
$var wire 32 2" instr [31:0] $end
$var reg 3 3" ALUop [2:0] $end
$var reg 1 4" ALUsrc $end
$var reg 1 5" Branch $end
$var reg 5 6" EX_D [4:0] $end
$var reg 1 7" Jump $end
$var reg 2 8" MEM_D [1:0] $end
$var reg 1 9" MemRead $end
$var reg 1 :" MemToReg $end
$var reg 1 ;" MemWrite $end
$var reg 1 <" RegDst $end
$var reg 1 =" RegWrite $end
$var reg 2 >" WB_D [1:0] $end
$var reg 1 6 branch $end
$var reg 1 3 jal_control $end
$var reg 1 2 jr_control $end
$var reg 1 1 jump $end
$var reg 1 ( syscall_control $end
$upscope $end
$scope module dataMem $end
$var wire 32 ?" address [31:0] $end
$var wire 1 R clk $end
$var wire 1 @" memRead $end
$var wire 1 A" memWrite $end
$var wire 32 B" writeData [31:0] $end
$var reg 32 C" readData [31:0] $end
$upscope $end
$scope module instructionMemory $end
$var wire 32 D" currPC [31:0] $end
$var reg 32 E" instr [31:0] $end
$var reg 32 F" number_instructions [31:0] $end
$upscope $end
$scope module memToRegMux $end
$var wire 32 G" mux_in_0 [31:0] $end
$var wire 32 H" mux_in_1 [31:0] $end
$var wire 1 I" select $end
$var reg 32 J" mux_out [31:0] $end
$upscope $end
$scope module reg_block $end
$var wire 1 K" RegWrite $end
$var wire 32 L" a0 [31:0] $end
$var wire 1 R clk $end
$var wire 32 M" jal_address [31:0] $end
$var wire 1 3 jal_control $end
$var wire 32 N" ra [31:0] $end
$var wire 5 O" readReg1 [4:0] $end
$var wire 5 P" readReg2 [4:0] $end
$var wire 32 Q" v0 [31:0] $end
$var wire 32 R" writeData [31:0] $end
$var wire 5 S" writeReg [4:0] $end
$var reg 32 T" readData1 [31:0] $end
$var reg 32 U" readData2 [31:0] $end
$var integer 32 V" i [31:0] $end
$upscope $end
$scope module registerMux $end
$var wire 5 W" mux_in_0 [4:0] $end
$var wire 5 X" mux_in_1 [4:0] $end
$var wire 1 Y" select $end
$var reg 5 Z" mux_out [4:0] $end
$upscope $end
$scope module runStats $end
$var wire 1 R clk $end
$var wire 32 [" number_instructions [31:0] $end
$var wire 1 ) stat_control $end
$var reg 32 \" number_cycles [31:0] $end
$upscope $end
$scope module signExtend_block $end
$var wire 32 ]" instr [31:0] $end
$var reg 32 ^" out_value [31:0] $end
$upscope $end
$scope module testSyscall $end
$var wire 32 _" a0 [31:0] $end
$var wire 1 ( syscall_control $end
$var wire 32 `" v0 [31:0] $end
$var reg 1 ) stat_control $end
$upscope $end
$upscope $end
$enddefinitions $end
#0
$dumpvars
b0 `"
b0 _"
b0 ^"
b0 ]"
b1 \"
b1 ["
b0 Z"
1Y"
b0 X"
b0 W"
b100000 V"
b0 U"
b0 T"
b0 S"
b0 R"
b0 Q"
b0 P"
b0 O"
b0 N"
b1000 M"
b0 L"
1K"
b0 J"
0I"
bx H"
b0 G"
b1 F"
b0 E"
b10000000000000000100000 D"
bx C"
b0 B"
0A"
0@"
b0 ?"
b10 >"
1="
1<"
0;"
0:"
09"
b0 8"
07"
b10xxx 6"
05"
04"
bx 3"
b0 2"
01"
b10000000000000000100100 0"
b0 /"
b10000000000000000100100 ."
b0 -"
b0 ,"
b0 +"
bx *"
0)"
b0 ("
bx '"
b10000000000000000100100 &"
b10000000000000000100000 %"
b10000000000000000100000 $"
b10000000000000000100100 #"
b0 ""
b0 !"
bx ~
b0 }
bx |
b0 {
b0 z
b0 y
b0 x
b0 w
b0 v
b0 u
b10000000000000000100000 t
b10000000000000000100100 s
b10 r
b0 q
b0 p
b0 o
b0 n
bx m
bx l
b0 k
b10xxx j
b10xxx i
b0 h
b0 g
b0 f
b0 e
b10 d
b0 c
b0 b
b0 a
b0 `
b0 _
b0 ^
b0 ]
b0 \
b0 [
b10 Z
bx Y
b0 X
b0 W
b0 V
bx U
bx T
bx S
1R
b0 Q
b0 P
b0 O
b10xxx N
b10xxx M
b0 L
b0 K
b0 J
b10000000000000000100100 I
b0 H
b0 G
b10000000000000000100100 F
b0 E
b10000000000000000100000 D
b0 C
bx B
b0 A
bx @
b0 ?
b0 >
b0 =
b0 <
b10 ;
b10 :
b0 9
b0 8
b0 7
x6
b0 5
b0 4
03
02
x1
b1 0
b0 /
bx .
bx -
b0 ,
b0 +
bx *
0)
0(
b0 '
b0 &
b0 %
b0 $
b0 #
1"
0!
$end
#10
0R
#20
b0 *
b0 T
b0 *"
b10000000000000000101000 H
b10000000000000000101000 -"
b10000000000000000101000 /"
b10000000000000000101000 I
b10000000000000000101000 #"
b10000000000000000101000 0"
b10 0
b10 F"
b10 ["
b10 \"
b10 8
b10 !"
b10 9
b10 ^
b10 z
b0 @
b0 Y
b0 m
b0 '"
b0 B
b0 U
b0 l
b10000000000000000101000 G
b10000000000000000101000 x
b10000000000000000101000 +"
b10000000000000000101100 M"
b10000000000000000100100 E
b10000000000000000100100 w
b10000000000000000101000 F
b10000000000000000101000 s
b10000000000000000101000 &"
b10000000000000000101000 ."
b10000000000000000100100 D
b10000000000000000100100 t
b10000000000000000100100 $"
b10000000000000000100100 %"
b10000000000000000100100 D"
1R
#30
0R
#40
b10000000000000000101100 I
b10000000000000000101100 #"
b10000000000000000101100 0"
b11 0
b11 F"
b11 ["
b10000000000000000101100 F
b10000000000000000101100 s
b10000000000000000101100 &"
b10000000000000000101100 ."
b10000000000000000101000 D
b10000000000000000101000 t
b10000000000000000101000 $"
b10000000000000000101000 %"
b10000000000000000101000 D"
b11 \"
1R
#50
0R
#60
b10000000000000000110000 H
b10000000000000000110000 -"
b10000000000000000110000 /"
b10000000000000000110000 I
b10000000000000000110000 #"
b10000000000000000110000 0"
b100 0
b100 F"
b100 ["
b100 \"
b10000000000000000110000 G
b10000000000000000110000 x
b10000000000000000110000 +"
b10000000000000000110100 M"
b10000000000000000101100 E
b10000000000000000101100 w
b10000000000000000110000 F
b10000000000000000110000 s
b10000000000000000110000 &"
b10000000000000000110000 ."
b10000000000000000101100 D
b10000000000000000101100 t
b10000000000000000101100 $"
b10000000000000000101100 %"
b10000000000000000101100 D"
1R
#70
0R
#80
b10000000000000000110100 I
b10000000000000000110100 #"
b10000000000000000110100 0"
b101 0
b101 F"
b101 ["
b10000000000000000110100 F
b10000000000000000110100 s
b10000000000000000110100 &"
b10000000000000000110100 ."
b10000000000000000110000 D
b10000000000000000110000 t
b10000000000000000110000 $"
b10000000000000000110000 %"
b10000000000000000110000 D"
b101 \"
1R
#90
0R
#100
b10000000000000000111000 H
b10000000000000000111000 -"
b10000000000000000111000 /"
b10000000000000000111000 I
b10000000000000000111000 #"
b10000000000000000111000 0"
b110 0
b110 F"
b110 ["
b111100000111010111111111111111 4
b111100000111010111111111111111 u
b111100000111010111111111111111 E"
b110 \"
b10000000000000000111000 G
b10000000000000000111000 x
b10000000000000000111000 +"
b10000000000000000111100 M"
b10000000000000000110100 E
b10000000000000000110100 w
b10000000000000000111000 F
b10000000000000000111000 s
b10000000000000000111000 &"
b10000000000000000111000 ."
b10000000000000000110100 D
b10000000000000000110100 t
b10000000000000000110100 $"
b10000000000000000110100 %"
b10000000000000000110100 D"
1R
#110
0R
#120
b10000100000000000110100 H
b10000100000000000110100 -"
b10000100000000000110100 /"
b10000000000000000111100 I
b10000000000000000111100 #"
b10000000000000000111100 0"
b111 0
b111 F"
b111 ["
b110111101111011111111111111100 4
b110111101111011111111111111100 u
b110111101111011111111111111100 E"
b1011 N
b1011 i
b1011 6"
14"
1="
b11 3"
0<"
b111111111111111 ,
b111111111111111 e
b111111111111111 ,"
b111111111111111 ^"
b1111 a
b11101 c
b11101 P"
b10000000000000000111100 F
b10000000000000000111100 s
b10000000000000000111100 &"
b10000000000000000111100 ."
b10000000000000000111000 D
b10000000000000000111000 t
b10000000000000000111000 $"
b10000000000000000111000 %"
b10000000000000000111000 D"
b111100000111010111111111111111 5
b111100000111010111111111111111 v
b111100000111010111111111111111 2"
b111100000111010111111111111111 ]"
b111 \"
1R
#130
0R
#140
0"
b1111111111111110000000000000000 Q
b1111111111111110000000000000000 V
b1111111111111110000000000000000 W
b111111111111111 *
b111111111111111 T
b111111111111111 *"
b11101 %
b11101 X
b11101 Z"
b11 S
1)"
0Y"
b10001000000000000110000 H
b10001000000000000110000 -"
b10001000000000000110000 /"
b1111111111111100 ,
b1111111111111100 e
b1111111111111100 ,"
b1111111111111100 ^"
b1001 N
b1001 i
b1001 6"
14"
1="
b1 3"
b11111 a
b11101 b
b11101 O"
b10000000000000001000000 I
b10000000000000001000000 #"
b10000000000000001000000 0"
b1000 0
b1000 F"
b1000 ["
b0 4
b0 u
b0 E"
b1000 \"
b111111111111111 +
b111111111111111 q
b111111111111111 ("
b1111 ?
b1111 n
b1111 X"
b11101 <
b11101 p
b11101 W"
b1011 M
b1011 j
b10000000000000001000000 G
b10000000000000001000000 x
b10000000000000001000000 +"
b110111101111011111111111111100 5
b110111101111011111111111111100 v
b110111101111011111111111111100 2"
b110111101111011111111111111100 ]"
b10000000000000001000100 M"
b10000000000000000111100 E
b10000000000000000111100 w
b10000000000000001000000 F
b10000000000000001000000 s
b10000000000000001000000 &"
b10000000000000001000000 ."
b10000000000000000111100 D
b10000000000000000111100 t
b10000000000000000111100 $"
b10000000000000000111100 %"
b10000000000000000111100 D"
1R
#150
0R
#160
b10000000000000001000000 H
b10000000000000001000000 -"
b10000000000000001000000 /"
b1111111111111100 Q
b1111111111111100 V
b1111111111111100 W
b10000000000000001000100 I
b10000000000000001000100 #"
b10000000000000001000100 0"
b1001 0
b1001 F"
b1001 ["
b10xxx N
b10xxx i
b10xxx 6"
1<"
04"
1="
bx 3"
b0 ,
b0 e
b0 ,"
b0 ^"
b0 a
b0 c
b0 b
b0 P"
b0 O"
b1111111111111100 *
b1111111111111100 T
b1111111111111100 *"
b1 S
b10000000000000001000100 F
b10000000000000001000100 s
b10000000000000001000100 &"
b10000000000000001000100 ."
b10000000000000001000000 D
b10000000000000001000000 t
b10000000000000001000000 $"
b10000000000000001000000 %"
b10000000000000001000000 D"
b0 5
b0 v
b0 2"
b0 ]"
b1111111111111100 +
b1111111111111100 q
b1111111111111100 ("
b11111 ?
b11111 n
b11111 X"
b11101 =
b11101 o
b1001 M
b1001 j
b11101 $
b11101 `
b11101 {
b1111111111111110000000000000000 P
b1111111111111110000000000000000 \
b1111111111111110000000000000000 y
b1111111111111110000000000000000 ?"
b1001 \"
1R
#170
0R
#180
b1111111111111100 >
b1111111111111100 J"
b1111111111111100 R"
b0 *
b0 T
b0 *"
b0 %
b0 X
b0 Z"
bx S
0)"
1Y"
b10000000000000001001000 H
b10000000000000001001000 -"
b10000000000000001001000 /"
b10000000000000001001000 I
b10000000000000001001000 #"
b10000000000000001001000 0"
b1010 0
b1010 F"
b1010 ["
b1010 \"
b11101 #
b11101 ""
b11101 S"
b1111111111111100 O
b1111111111111100 }
b1111111111111100 G"
b11101 $
b11101 `
b11101 {
b1111111111111100 P
b1111111111111100 \
b1111111111111100 y
b1111111111111100 ?"
b0 +
b0 q
b0 ("
b0 ?
b0 n
b0 X"
b0 <
b0 p
b0 W"
b0 =
b0 o
b10xxx M
b10xxx j
b10000000000000001001000 G
b10000000000000001001000 x
b10000000000000001001000 +"
b10000000000000001001100 M"
b10000000000000001000100 E
b10000000000000001000100 w
b10000000000000001001000 F
b10000000000000001001000 s
b10000000000000001001000 &"
b10000000000000001001000 ."
b10000000000000001000100 D
b10000000000000001000100 t
b10000000000000001000100 $"
b10000000000000001000100 %"
b10000000000000001000100 D"
1R
#190
0R
#200
b10000000000000001001100 I
b10000000000000001001100 #"
b10000000000000001001100 0"
b1011 0
b1011 F"
b1011 ["
b10000000000000001001100 F
b10000000000000001001100 s
b10000000000000001001100 &"
b10000000000000001001100 ."
b10000000000000001001000 D
b10000000000000001001000 t
b10000000000000001001000 $"
b10000000000000001001000 %"
b10000000000000001001000 D"
b0 $
b0 `
b0 {
b1011 \"
1R
#210
0R
#220
b10000000000000001010000 H
b10000000000000001010000 -"
b10000000000000001010000 /"
b10000000000000001010000 I
b10000000000000001010000 #"
b10000000000000001010000 0"
b1100 0
b1100 F"
b1100 ["
b1100 \"
b0 #
b0 ""
b0 S"
b10000000000000001010000 G
b10000000000000001010000 x
b10000000000000001010000 +"
b10000000000000001010100 M"
b10000000000000001001100 E
b10000000000000001001100 w
b10000000000000001010000 F
b10000000000000001010000 s
b10000000000000001010000 &"
b10000000000000001010000 ."
b10000000000000001001100 D
b10000000000000001001100 t
b10000000000000001001100 $"
b10000000000000001001100 %"
b10000000000000001001100 D"
1R
#230
0R
#240
b10000000000000001010100 I
b10000000000000001010100 #"
b10000000000000001010100 0"
b1101 0
b1101 F"
b1101 ["
b100100000001000000000000001010 4
b100100000001000000000000001010 u
b100100000001000000000000001010 E"
b10000000000000001010100 F
b10000000000000001010100 s
b10000000000000001010100 &"
b10000000000000001010100 ."
b10000000000000001010000 D
b10000000000000001010000 t
b10000000000000001010000 $"
b10000000000000001010000 %"
b10000000000000001010000 D"
b1101 \"
1R
#250
0R
#260
b10000000000000010000000 H
b10000000000000010000000 -"
b10000000000000010000000 /"
b1010 ,
b1010 e
b1010 ,"
b1010 ^"
b1010 N
b1010 i
b1010 6"
14"
1="
b10 3"
0<"
b100 c
b100 P"
b10000000000000001011000 I
b10000000000000001011000 #"
b10000000000000001011000 0"
b1110 0
b1110 F"
b1110 ["
b0 4
b0 u
b0 E"
b1110 \"
b10000000000000001011000 G
b10000000000000001011000 x
b10000000000000001011000 +"
b100100000001000000000000001010 5
b100100000001000000000000001010 v
b100100000001000000000000001010 2"
b100100000001000000000000001010 ]"
b10000000000000001011100 M"
b10000000000000001010100 E
b10000000000000001010100 w
b10000000000000001011000 F
b10000000000000001011000 s
b10000000000000001011000 &"
b10000000000000001011000 ."
b10000000000000001010100 D
b10000000000000001010100 t
b10000000000000001010100 $"
b10000000000000001010100 %"
b10000000000000001010100 D"
1R
#270
0R
#280
b10000000000000001011000 H
b10000000000000001011000 -"
b10000000000000001011000 /"
b1010 Q
b1010 V
b1010 W
b10000000000000001011100 I
b10000000000000001011100 #"
b10000000000000001011100 0"
b1111 0
b1111 F"
b1111 ["
b10xxx N
b10xxx i
b10xxx 6"
1<"
04"
1="
bx 3"
b0 ,
b0 e
b0 ,"
b0 ^"
b0 c
b0 P"
b1010 *
b1010 T
b1010 *"
b100 %
b100 X
b100 Z"
b10 S
1)"
0Y"
b10000000000000001011100 F
b10000000000000001011100 s
b10000000000000001011100 &"
b10000000000000001011100 ."
b10000000000000001011000 D
b10000000000000001011000 t
b10000000000000001011000 $"
b10000000000000001011000 %"
b10000000000000001011000 D"
b0 5
b0 v
b0 2"
b0 ]"
b1010 +
b1010 q
b1010 ("
b100 <
b100 p
b100 W"
b1010 M
b1010 j
b1111 \"
1R
#290
0R
#300
b1010 >
b1010 J"
b1010 R"
b0 *
b0 T
b0 *"
b0 %
b0 X
b0 Z"
bx S
0)"
1Y"
b10000000000000001100000 H
b10000000000000001100000 -"
b10000000000000001100000 /"
b10000000000000001100000 I
b10000000000000001100000 #"
b10000000000000001100000 0"
b10000 0
b10000 F"
b10000 ["
b10000 \"
b100 #
b100 ""
b100 S"
b1010 O
b1010 }
b1010 G"
b100 $
b100 `
b100 {
b1010 P
b1010 \
b1010 y
b1010 ?"
b0 +
b0 q
b0 ("
b0 <
b0 p
b0 W"
b10xxx M
b10xxx j
b10000000000000001100000 G
b10000000000000001100000 x
b10000000000000001100000 +"
b10000000000000001100100 M"
b10000000000000001011100 E
b10000000000000001011100 w
b10000000000000001100000 F
b10000000000000001100000 s
b10000000000000001100000 &"
b10000000000000001100000 ."
b10000000000000001011100 D
b10000000000000001011100 t
b10000000000000001011100 $"
b10000000000000001011100 %"
b10000000000000001011100 D"
1R
#310
b1010 7
b1010 L"
b1010 _"
0R
#320
b10000000000000001100100 I
b10000000000000001100100 #"
b10000000000000001100100 0"
b10001 0
b10001 F"
b10001 ["
b10000000000000001100100 F
b10000000000000001100100 s
b10000000000000001100100 &"
b10000000000000001100100 ."
b10000000000000001100000 D
b10000000000000001100000 t
b10000000000000001100000 $"
b10000000000000001100000 %"
b10000000000000001100000 D"
b0 $
b0 `
b0 {
b10001 \"
1R
#330
0R
#340
b10000000000000001101000 H
b10000000000000001101000 -"
b10000000000000001101000 /"
b10000000000000001101000 I
b10000000000000001101000 #"
b10000000000000001101000 0"
b10010 0
b10010 F"
b10010 ["
b10010 \"
b0 #
b0 ""
b0 S"
b10000000000000001101000 G
b10000000000000001101000 x
b10000000000000001101000 +"
b10000000000000001101100 M"
b10000000000000001100100 E
b10000000000000001100100 w
b10000000000000001101000 F
b10000000000000001101000 s
b10000000000000001101000 &"
b10000000000000001101000 ."
b10000000000000001100100 D
b10000000000000001100100 t
b10000000000000001100100 $"
b10000000000000001100100 %"
b10000000000000001100100 D"
1R
#350
0R
#360
b10000000000000001101100 I
b10000000000000001101100 #"
b10000000000000001101100 0"
b10011 0
b10011 F"
b10011 ["
b1100000100000000000000111111 4
b1100000100000000000000111111 u
b1100000100000000000000111111 E"
b10000000000000001101100 F
b10000000000000001101100 s
b10000000000000001101100 &"
b10000000000000001101100 ."
b10000000000000001101000 D
b10000000000000001101000 t
b10000000000000001101000 $"
b10000000000000001101000 %"
b10000000000000001101000 D"
b10011 \"
1R
#370
0R
#380
b10000000000000101101100 H
b10000000000000101101100 -"
b10000000000000101101100 /"
b111111 ,
b111111 e
b111111 ,"
b111111 ^"
b0 N
b0 i
b0 6"
13
17"
1="
b0 3"
0<"
b10000 c
b10000 P"
b10000000000000001110000 I
b10000000000000001110000 #"
b10000000000000001110000 0"
b10100 0
b10100 F"
b10100 ["
b0 4
b0 u
b0 E"
b10100 \"
b10000000000000001110000 G
b10000000000000001110000 x
b10000000000000001110000 +"
b1100000100000000000000111111 5
b1100000100000000000000111111 v
b1100000100000000000000111111 2"
b1100000100000000000000111111 ]"
b10000000000000001110100 M"
b10000000000000001101100 E
b10000000000000001101100 w
b10000000000000001110000 F
b10000000000000001110000 s
b10000000000000001110000 &"
b10000000000000001110000 ."
b10000000000000001101100 D
b10000000000000001101100 t
b10000000000000001101100 $"
b10000000000000001101100 %"
b10000000000000001101100 D"
1R
#390
0R
#400
b10000000000000001110000 H
b10000000000000001110000 -"
b10000000000000001110000 /"
1"
b0 Q
b0 V
b0 W
b10000000000000001110100 I
b10000000000000001110100 #"
b10000000000000001110100 0"
b10101 0
b10101 F"
b10101 ["
b10xxx N
b10xxx i
b10xxx 6"
bx 3"
1<"
03
1="
07"
b0 ,
b0 e
b0 ,"
b0 ^"
b0 c
b0 P"
b10000 %
b10000 X
b10000 Z"
b0 S
0Y"
b10000000000000001110100 F
b10000000000000001110100 s
b10000000000000001110100 &"
b10000000000000001110100 ."
b10000000000000001110000 D
b10000000000000001110000 t
b10000000000000001110000 $"
b10000000000000001110000 %"
b10000000000000001110000 D"
b0 5
b0 v
b0 2"
b0 ]"
b111111 +
b111111 q
b111111 ("
b10000 <
b10000 p
b10000 W"
b0 M
b0 j
b10101 \"
1R
#410
0R
#420
b0 >
b0 J"
b0 R"
b0 %
b0 X
b0 Z"
bx S
1Y"
b10000000000000001111000 H
b10000000000000001111000 -"
b10000000000000001111000 /"
b10000000000000001111000 I
b10000000000000001111000 #"
b10000000000000001111000 0"
b10110 0
b10110 F"
b10110 ["
b10110 \"
b10000 #
b10000 ""
b10000 S"
b0 O
b0 }
b0 G"
b10000 $
b10000 `
b10000 {
b0 P
b0 \
b0 y
b0 ?"
b0 +
b0 q
b0 ("
b0 <
b0 p
b0 W"
b10xxx M
b10xxx j
b10000000000000001111000 G
b10000000000000001111000 x
b10000000000000001111000 +"
b10000000000000001111100 M"
b10000000000000001110100 E
b10000000000000001110100 w
b10000000000000001111000 F
b10000000000000001111000 s
b10000000000000001111000 &"
b10000000000000001111000 ."
b10000000000000001110100 D
b10000000000000001110100 t
b10000000000000001110100 $"
b10000000000000001110100 %"
b10000000000000001110100 D"
1R
#430
0R
#440
b10000000000000001111100 I
b10000000000000001111100 #"
b10000000000000001111100 0"
b10111 0
b10111 F"
b10111 ["
b10000000000000001111100 F
b10000000000000001111100 s
b10000000000000001111100 &"
b10000000000000001111100 ."
b10000000000000001111000 D
b10000000000000001111000 t
b10000000000000001111000 $"
b10000000000000001111000 %"
b10000000000000001111000 D"
b0 $
b0 `
b0 {
b10111 \"
1R
#450
0R
#460
b10000000000000010000000 H
b10000000000000010000000 -"
b10000000000000010000000 /"
b10000000000000010000000 I
b10000000000000010000000 #"
b10000000000000010000000 0"
b11000 0
b11000 F"
b11000 ["
b11000 \"
b0 #
b0 ""
b0 S"
b10000000000000010000000 G
b10000000000000010000000 x
b10000000000000010000000 +"
b10000000000000010000100 M"
b10000000000000001111100 E
b10000000000000001111100 w
b10000000000000010000000 F
b10000000000000010000000 s
b10000000000000010000000 &"
b10000000000000010000000 ."
b10000000000000001111100 D
b10000000000000001111100 t
b10000000000000001111100 $"
b10000000000000001111100 %"
b10000000000000001111100 D"
1R
#470
0R
#480
b10000000000000010000100 I
b10000000000000010000100 #"
b10000000000000010000100 0"
b11001 0
b11001 F"
b11001 ["
b10000000000000010000100 F
b10000000000000010000100 s
b10000000000000010000100 &"
b10000000000000010000100 ."
b10000000000000010000000 D
b10000000000000010000000 t
b10000000000000010000000 $"
b10000000000000010000000 %"
b10000000000000010000000 D"
b11001 \"
1R
#490
0R
#500
b10000000000000010001000 H
b10000000000000010001000 -"
b10000000000000010001000 /"
b10000000000000010001000 I
b10000000000000010001000 #"
b10000000000000010001000 0"
b11010 0
b11010 F"
b11010 ["
b10000000010000000100000 4
b10000000010000000100000 u
b10000000010000000100000 E"
b11010 \"
b10000000000000010001000 G
b10000000000000010001000 x
b10000000000000010001000 +"
b10000000000000010001100 M"
b10000000000000010000100 E
b10000000000000010000100 w
b10000000000000010001000 F
b10000000000000010001000 s
b10000000000000010001000 &"
b10000000000000010001000 ."
b10000000000000010000100 D
b10000000000000010000100 t
b10000000000000010000100 $"
b10000000000000010000100 %"
b10000000000000010000100 D"
1R
#510
0R
#520
b10000001000000100001000 H
b10000001000000100001000 -"
b10000001000000100001000 /"
b10000000000000010001100 I
b10000000000000010001100 #"
b10000000000000010001100 0"
b11011 0
b11011 F"
b11011 ["
b0 4
b0 u
b0 E"
b10000000100000 ,
b10000000100000 e
b10000000100000 ,"
b10000000100000 ^"
b10010 N
b10010 i
b10010 6"
1="
b10 3"
1<"
b100 a
b10 b
b10 O"
b10000000000000010001100 F
b10000000000000010001100 s
b10000000000000010001100 &"
b10000000000000010001100 ."
b10000000000000010001000 D
b10000000000000010001000 t
b10000000000000010001000 $"
b10000000000000010001000 %"
b10000000000000010001000 D"
b10000000010000000100000 5
b10000000010000000100000 v
b10000000010000000100000 2"
b10000000010000000100000 ]"
b11011 \"
1R
#530
0R
#540
b100 %
b100 X
b100 Z"
b10 S
b10000000000000010010000 H
b10000000000000010010000 -"
b10000000000000010010000 /"
b10xxx N
b10xxx i
b10xxx 6"
1="
bx 3"
1<"
b0 ,
b0 e
b0 ,"
b0 ^"
b0 a
b0 b
b0 O"
b10000000000000010010000 I
b10000000000000010010000 #"
b10000000000000010010000 0"
b11100 0
b11100 F"
b11100 ["
b11100 \"
b10000000100000 +
b10000000100000 q
b10000000100000 ("
b100 ?
b100 n
b100 X"
b10 =
b10 o
b10010 M
b10010 j
b10000000000000010010000 G
b10000000000000010010000 x
b10000000000000010010000 +"
b0 5
b0 v
b0 2"
b0 ]"
b10000000000000010010100 M"
b10000000000000010001100 E
b10000000000000010001100 w
b10000000000000010010000 F
b10000000000000010010000 s
b10000000000000010010000 &"
b10000000000000010010000 ."
b10000000000000010001100 D
b10000000000000010001100 t
b10000000000000010001100 $"
b10000000000000010001100 %"
b10000000000000010001100 D"
1R
#550
0R
#560
b10000000000000010010100 I
b10000000000000010010100 #"
b10000000000000010010100 0"
b11101 0
b11101 F"
b11101 ["
b0 %
b0 X
b0 Z"
bx S
b10000000000000010010100 F
b10000000000000010010100 s
b10000000000000010010100 &"
b10000000000000010010100 ."
b10000000000000010010000 D
b10000000000000010010000 t
b10000000000000010010000 $"
b10000000000000010010000 %"
b10000000000000010010000 D"
b0 +
b0 q
b0 ("
b0 ?
b0 n
b0 X"
b0 =
b0 o
b10xxx M
b10xxx j
b100 $
b100 `
b100 {
b11101 \"
1R
