src/testbench.vcd
$date
	Thu Mar  8 12:56:19 2018
$end
$version
	Icarus Verilog
$end
$timescale
	1s
$end
$scope module testbench $end
$var wire 1 ! PCSrc_D $end
$var wire 32 " Result_W [31:0] $end
$var wire 1 # zero $end
$var wire 5 $ writeReg_W [4:0] $end
$var wire 5 % writeReg_M [4:0] $end
$var wire 5 & writeReg_E [4:0] $end
$var wire 32 ' writeData_M [31:0] $end
$var wire 32 ( v0 [31:0] $end
$var wire 1 ) syscall_control $end
$var wire 1 * stat_control $end
$var wire 32 + srcB [31:0] $end
$var wire 32 , signImm_E [31:0] $end
$var wire 32 - signImm_D [31:0] $end
$var wire 32 . readData_W [31:0] $end
$var wire 32 / readData_M [31:0] $end
$var wire 32 0 ra [31:0] $end
$var wire 32 1 number_instructions [31:0] $end
$var wire 1 2 jump $end
$var wire 1 3 jr_control $end
$var wire 1 4 jal_control $end
$var wire 32 5 instr_F [31:0] $end
$var wire 32 6 instr_D [31:0] $end
$var wire 1 7 branch $end
$var wire 32 8 a0 [31:0] $end
$var wire 2 9 WB_W [1:0] $end
$var wire 2 : WB_M [1:0] $end
$var wire 2 ; WB_E [1:0] $end
$var wire 2 < WB_D [1:0] $end
$var wire 5 = Rt_E [4:0] $end
$var wire 5 > Rs_E [4:0] $end
$var wire 1 ? ResultW $end
$var wire 5 @ Rd_E [4:0] $end
$var wire 32 A RD2_E [31:0] $end
$var wire 32 B RD2_D [31:0] $end
$var wire 32 C RD1_E [31:0] $end
$var wire 32 D RD1_D [31:0] $end
$var wire 32 E PC_F [31:0] $end
$var wire 32 F PC_D [31:0] $end
$var wire 32 G PCPlus4_F [31:0] $end
$var wire 32 H PCPlus4_D [31:0] $end
$var wire 32 I PCBranch_D [31:0] $end
$var wire 32 J Next_PC [31:0] $end
$var wire 2 K MEM_M [1:0] $end
$var wire 2 L MEM_E [1:0] $end
$var wire 2 M MEM_D [1:0] $end
$var wire 5 N EX_E [4:0] $end
$var wire 5 O EX_D [4:0] $end
$var wire 32 P ALUOut_W [31:0] $end
$var wire 32 Q ALUOut_M [31:0] $end
$var wire 32 R ALUOut_E [31:0] $end
$var reg 1 S clk $end
$scope module ALU_block $end
$var wire 3 T ALUop [2:0] $end
$var wire 32 U reg2 [31:0] $end
$var wire 32 V reg1 [31:0] $end
$var reg 32 W ALUresult [31:0] $end
$var reg 1 # zero $end
$upscope $end
$scope module ExMem $end
$var wire 32 X ALUOut_E [31:0] $end
$var wire 1 S clk $end
$var wire 5 Y WriteReg_E [4:0] $end
$var wire 32 Z WriteData_E [31:0] $end
$var wire 2 [ WB_E [1:0] $end
$var wire 2 \ MEM_E [1:0] $end
$var reg 32 ] ALUOut_M [31:0] $end
$var reg 2 ^ MEM_M [1:0] $end
$var reg 2 _ WB_M [1:0] $end
$var reg 32 ` WriteData_M [31:0] $end
$var reg 5 a WriteReg_M [4:0] $end
$upscope $end
$scope module IdEx $end
$var wire 5 b Rd_D [4:0] $end
$var wire 5 c Rs_D [4:0] $end
$var wire 5 d Rt_D [4:0] $end
$var wire 1 S clk $end
$var wire 2 e WB_D [1:0] $end
$var wire 32 f SignImm_D [31:0] $end
$var wire 32 g RD2_D [31:0] $end
$var wire 32 h RD1_D [31:0] $end
$var wire 2 i MEM_D [1:0] $end
$var wire 5 j EX_D [4:0] $end
$var reg 5 k EX_E [4:0] $end
$var reg 2 l MEM_E [1:0] $end
$var reg 32 m RD1_E [31:0] $end
$var reg 32 n RD2_E [31:0] $end
$var reg 5 o Rd_E [4:0] $end
$var reg 5 p Rs_E [4:0] $end
$var reg 5 q Rt_E [4:0] $end
$var reg 32 r SignImm_E [31:0] $end
$var reg 2 s WB_E [1:0] $end
$upscope $end
$scope module IfId $end
$var wire 1 ! PCSrcD $end
$var wire 1 S clk $end
$var wire 32 t PC_Plus4_F [31:0] $end
$var wire 32 u PC_F [31:0] $end
$var wire 32 v Instr_F [31:0] $end
$var reg 32 w Instr_D [31:0] $end
$var reg 32 x PC_D [31:0] $end
$var reg 32 y PC_Plus4_D [31:0] $end
$upscope $end
$scope module MemWb $end
$var wire 32 z ALUOut_M [31:0] $end
$var wire 2 { WB_M [1:0] $end
$var wire 5 | WriteReg_M [4:0] $end
$var wire 1 S clk $end
$var wire 32 } ReadData_M [31:0] $end
$var reg 32 ~ ALUOut_W [31:0] $end
$var reg 32 !" ReadData_W [31:0] $end
$var reg 2 "" WB_W [1:0] $end
$var reg 5 #" WriteReg_W [4:0] $end
$upscope $end
$scope module PC_block $end
$var wire 1 S clk $end
$var wire 32 $" nextPC [31:0] $end
$var reg 32 %" currPC [31:0] $end
$upscope $end
$scope module PCadd4 $end
$var wire 32 &" currPC [31:0] $end
$var wire 32 '" PCplus4 [31:0] $end
$upscope $end
$scope module aluMux $end
$var wire 32 (" mux_in_0 [31:0] $end
$var wire 32 )" mux_in_1 [31:0] $end
$var wire 1 *" select $end
$var reg 32 +" mux_out [31:0] $end
$upscope $end
$scope module branchAdder $end
$var wire 32 ," PC_Plus4 [31:0] $end
$var wire 32 -" signExtendedImmediate [31:0] $end
$var reg 32 ." out [31:0] $end
$upscope $end
$scope module branchMux $end
$var wire 32 /" mux_in_0 [31:0] $end
$var wire 32 0" mux_in_1 [31:0] $end
$var wire 1 ! select $end
$var reg 32 1" mux_out [31:0] $end
$upscope $end
$scope module branch_control $end
$var wire 1 # zero $end
$var wire 1 7 branch $end
$var reg 1 2" and_out $end
$upscope $end
$scope module control_block $end
$var wire 32 3" instr [31:0] $end
$var reg 3 4" ALUop [2:0] $end
$var reg 1 5" ALUsrc $end
$var reg 1 6" Branch $end
$var reg 5 7" EX_D [4:0] $end
$var reg 1 8" Jump $end
$var reg 2 9" MEM_D [1:0] $end
$var reg 1 :" MemRead $end
$var reg 1 ;" MemToReg $end
$var reg 1 <" MemWrite $end
$var reg 1 =" RegDst $end
$var reg 1 >" RegWrite $end
$var reg 2 ?" WB_D [1:0] $end
$var reg 1 7 branch $end
$var reg 1 4 jal_control $end
$var reg 1 3 jr_control $end
$var reg 1 2 jump $end
$var reg 1 ) syscall_control $end
$upscope $end
$scope module dataMem $end
$var wire 32 @" address [31:0] $end
$var wire 1 S clk $end
$var wire 1 A" memRead $end
$var wire 1 B" memWrite $end
$var wire 32 C" writeData [31:0] $end
$var reg 32 D" readData [31:0] $end
$upscope $end
$scope module instructionMemory $end
$var wire 32 E" currPC [31:0] $end
$var reg 32 F" instr [31:0] $end
$var reg 32 G" number_instructions [31:0] $end
$upscope $end
$scope module memToRegMux $end
$var wire 32 H" mux_in_0 [31:0] $end
$var wire 32 I" mux_in_1 [31:0] $end
$var wire 1 J" select $end
$var reg 32 K" mux_out [31:0] $end
$upscope $end
$scope module reg_block $end
$var wire 1 L" RegWrite $end
$var wire 32 M" a0 [31:0] $end
$var wire 1 S clk $end
$var wire 32 N" jal_address [31:0] $end
$var wire 1 4 jal_control $end
$var wire 32 O" ra [31:0] $end
$var wire 5 P" readReg1 [4:0] $end
$var wire 5 Q" readReg2 [4:0] $end
$var wire 32 R" v0 [31:0] $end
$var wire 32 S" writeData [31:0] $end
$var wire 5 T" writeReg [4:0] $end
$var reg 32 U" readData1 [31:0] $end
$var reg 32 V" readData2 [31:0] $end
$var integer 32 W" i [31:0] $end
$upscope $end
$scope module registerMux $end
$var wire 5 X" mux_in_0 [4:0] $end
$var wire 5 Y" mux_in_1 [4:0] $end
$var wire 1 Z" select $end
$var reg 5 [" mux_out [4:0] $end
$upscope $end
$scope module runStats $end
$var wire 1 S clk $end
$var wire 32 \" number_instructions [31:0] $end
$var wire 1 * stat_control $end
$var reg 32 ]" number_cycles [31:0] $end
$upscope $end
$scope module signExtend_block $end
$var wire 32 ^" instr [31:0] $end
$var reg 32 _" out_value [31:0] $end
$upscope $end
$scope module testSyscall $end
$var wire 32 `" a0 [31:0] $end
$var wire 1 ) syscall_control $end
$var wire 32 a" v0 [31:0] $end
$var reg 1 * stat_control $end
$upscope $end
$upscope $end
$enddefinitions $end
#0
$dumpvars
b0 a"
b0 `"
b0 _"
b0 ^"
b1 ]"
b1 \"
b0 ["
1Z"
b0 Y"
b0 X"
b100000 W"
b0 V"
b0 U"
b0 T"
bz S"
b0 R"
b0 Q"
b0 P"
b0 O"
b1000 N"
b0 M"
1L"
b0 K"
0J"
bx I"
b0 H"
b1 G"
b100100000010000000000000000001 F"
b10000000000000000100000 E"
bx D"
b0 C"
0B"
0A"
b0 @"
b10 ?"
1>"
1="
0<"
0;"
0:"
b0 9"
08"
b10xxx 7"
06"
05"
bx 4"
b0 3"
02"
b10000000000000000100100 1"
b0 0"
b10000000000000000100100 /"
b0 ."
b0 -"
b0 ,"
bx +"
0*"
b0 )"
bx ("
b10000000000000000100100 '"
b10000000000000000100000 &"
b10000000000000000100000 %"
b10000000000000000100100 $"
b0 #"
b0 ""
bx !"
b0 ~
bx }
b0 |
b0 {
b0 z
b0 y
b0 x
b0 w
b100100000010000000000000000001 v
b10000000000000000100000 u
b10000000000000000100100 t
b10 s
b0 r
b0 q
b0 p
b0 o
bx n
bx m
b0 l
b10xxx k
b10xxx j
b0 i
b0 h
b0 g
b0 f
b10 e
b0 d
b0 c
b0 b
b0 a
b0 `
b0 _
b0 ^
b0 ]
b0 \
b10 [
bx Z
b0 Y
b0 X
b0 W
bx V
bx U
bx T
1S
b0 R
b0 Q
b0 P
b10xxx O
b10xxx N
b0 M
b0 L
b0 K
b10000000000000000100100 J
b0 I
b0 H
b10000000000000000100100 G
b0 F
b10000000000000000100000 E
b0 D
bx C
b0 B
bx A
b0 @
0?
b0 >
b0 =
b10 <
b10 ;
b0 :
b0 9
b0 8
x7
b0 6
b100100000010000000000000000001 5
04
03
x2
b1 1
b0 0
bx /
bx .
b0 -
b0 ,
bx +
0*
0)
b0 (
b0 '
b0 &
b0 %
b0 $
1#
bz "
0!
$end
#10
0S
#20
b0 +
b0 U
b0 +"
b10000000000000000101000 J
b10000000000000000101000 $"
b10000000000000000101000 1"
b10 1
b10 G"
b10 \"
b0 5
b0 v
b0 F"
b10 ]"
b10 9
b10 ""
b10 :
b10 _
b10 {
b0 A
b0 Z
b0 n
b0 ("
b0 C
b0 V
b0 m
b10000000000000000101000 G
b10000000000000000101000 t
b10000000000000000101000 '"
b10000000000000000101000 /"
b10000000000000000100100 E
b10000000000000000100100 u
b10000000000000000100100 %"
b10000000000000000100100 &"
b10000000000000000100100 E"
1S
#30
0S
#40
b10000000000000000101100 J
b10000000000000000101100 $"
b10000000000000000101100 1"
b11 1
b11 G"
b11 \"
b10000000000000000101100 G
b10000000000000000101100 t
b10000000000000000101100 '"
b10000000000000000101100 /"
b10000000000000000101000 E
b10000000000000000101000 u
b10000000000000000101000 %"
b10000000000000000101000 &"
b10000000000000000101000 E"
b11 ]"
1S
#50
0S
#60
b10000000000000000110000 J
b10000000000000000110000 $"
b10000000000000000110000 1"
b100 1
b100 G"
b100 \"
b100 ]"
b10000000000000000110000 G
b10000000000000000110000 t
b10000000000000000110000 '"
b10000000000000000110000 /"
b10000000000000000101100 E
b10000000000000000101100 u
b10000000000000000101100 %"
b10000000000000000101100 &"
b10000000000000000101100 E"
1S
#70
0S
#80
b10000000000000000110100 J
b10000000000000000110100 $"
b10000000000000000110100 1"
b101 1
b101 G"
b101 \"
b10000000000000000110100 G
b10000000000000000110100 t
b10000000000000000110100 '"
b10000000000000000110100 /"
b10000000000000000110000 E
b10000000000000000110000 u
b10000000000000000110000 %"
b10000000000000000110000 &"
b10000000000000000110000 E"
b101 ]"
1S
#90
0S
#100
b10000000000000000111000 J
b10000000000000000111000 $"
b10000000000000000111000 1"
b110 1
b110 G"
b110 \"
b110 ]"
b10000000000000000111000 G
b10000000000000000111000 t
b10000000000000000111000 '"
b10000000000000000111000 /"
b10000000000000000110100 E
b10000000000000000110100 u
b10000000000000000110100 %"
b10000000000000000110100 &"
b10000000000000000110100 E"
1S
#110
0S
#120
b10000000000000000111100 J
b10000000000000000111100 $"
b10000000000000000111100 1"
b111 1
b111 G"
b111 \"
b100100000010010000000000000010 5
b100100000010010000000000000010 v
b100100000010010000000000000010 F"
b10000000000000000111100 G
b10000000000000000111100 t
b10000000000000000111100 '"
b10000000000000000111100 /"
b10000000000000000111000 E
b10000000000000000111000 u
b10000000000000000111000 %"
b10000000000000000111000 &"
b10000000000000000111000 E"
b111 ]"
1S
#130
0S
#140
b10000000000000001000000 J
b10000000000000001000000 $"
b10000000000000001000000 1"
b1000 1
b1000 G"
b1000 \"
b0 5
b0 v
b0 F"
b1000 ]"
b10000000000000001000000 G
b10000000000000001000000 t
b10000000000000001000000 '"
b10000000000000001000000 /"
b10000000000000000111100 E
b10000000000000000111100 u
b10000000000000000111100 %"
b10000000000000000111100 &"
b10000000000000000111100 E"
1S
#150
0S
#160
b10000000000000001000100 J
b10000000000000001000100 $"
b10000000000000001000100 1"
b1001 1
b1001 G"
b1001 \"
b10000000000000001000100 G
b10000000000000001000100 t
b10000000000000001000100 '"
b10000000000000001000100 /"
b10000000000000001000000 E
b10000000000000001000000 u
b10000000000000001000000 %"
b10000000000000001000000 &"
b10000000000000001000000 E"
b1001 ]"
1S
#170
0S
#180
b10000000000000001001000 J
b10000000000000001001000 $"
b10000000000000001001000 1"
b1010 1
b1010 G"
b1010 \"
b1010 ]"
b10000000000000001001000 G
b10000000000000001001000 t
b10000000000000001001000 '"
b10000000000000001001000 /"
b10000000000000001000100 E
b10000000000000001000100 u
b10000000000000001000100 %"
b10000000000000001000100 &"
b10000000000000001000100 E"
1S
#190
0S
#200
b10000000000000001001100 J
b10000000000000001001100 $"
b10000000000000001001100 1"
b1011 1
b1011 G"
b1011 \"
b10000000000000001001100 G
b10000000000000001001100 t
b10000000000000001001100 '"
b10000000000000001001100 /"
b10000000000000001001000 E
b10000000000000001001000 u
b10000000000000001001000 %"
b10000000000000001001000 &"
b10000000000000001001000 E"
b1011 ]"
1S
#210
0S
#220
b10000000000000001010000 J
b10000000000000001010000 $"
b10000000000000001010000 1"
b1100 1
b1100 G"
b1100 \"
b1100 ]"
b10000000000000001010000 G
b10000000000000001010000 t
b10000000000000001010000 '"
b10000000000000001010000 /"
b10000000000000001001100 E
b10000000000000001001100 u
b10000000000000001001100 %"
b10000000000000001001100 &"
b10000000000000001001100 E"
1S
#230
0S
#240
b10000000000000001010100 J
b10000000000000001010100 $"
b10000000000000001010100 1"
b1101 1
b1101 G"
b1101 \"
b100100000000100000000000000001 5
b100100000000100000000000000001 v
b100100000000100000000000000001 F"
b10000000000000001010100 G
b10000000000000001010100 t
b10000000000000001010100 '"
b10000000000000001010100 /"
b10000000000000001010000 E
b10000000000000001010000 u
b10000000000000001010000 %"
b10000000000000001010000 &"
b10000000000000001010000 E"
b1101 ]"
1S
#250
0S
#260
b10000000000000001011000 J
b10000000000000001011000 $"
b10000000000000001011000 1"
b1110 1
b1110 G"
b1110 \"
b0 5
b0 v
b0 F"
b1110 ]"
b10000000000000001011000 G
b10000000000000001011000 t
b10000000000000001011000 '"
b10000000000000001011000 /"
b10000000000000001010100 E
b10000000000000001010100 u
b10000000000000001010100 %"
b10000000000000001010100 &"
b10000000000000001010100 E"
1S
#270
0S
#280
b10000000000000001011100 J
b10000000000000001011100 $"
b10000000000000001011100 1"
b1111 1
b1111 G"
b1111 \"
b10000000000000001011100 G
b10000000000000001011100 t
b10000000000000001011100 '"
b10000000000000001011100 /"
b10000000000000001011000 E
b10000000000000001011000 u
b10000000000000001011000 %"
b10000000000000001011000 &"
b10000000000000001011000 E"
b1111 ]"
1S
#290
0S
#300
b10000000000000001100000 J
b10000000000000001100000 $"
b10000000000000001100000 1"
b10000 1
b10000 G"
b10000 \"
b10000 ]"
b10000000000000001100000 G
b10000000000000001100000 t
b10000000000000001100000 '"
b10000000000000001100000 /"
b10000000000000001011100 E
b10000000000000001011100 u
b10000000000000001011100 %"
b10000000000000001011100 &"
b10000000000000001011100 E"
1S
#310
0S
#320
b10000000000000001100100 J
b10000000000000001100100 $"
b10000000000000001100100 1"
b10001 1
b10001 G"
b10001 \"
b10000000000000001100100 G
b10000000000000001100100 t
b10000000000000001100100 '"
b10000000000000001100100 /"
b10000000000000001100000 E
b10000000000000001100000 u
b10000000000000001100000 %"
b10000000000000001100000 &"
b10000000000000001100000 E"
b10001 ]"
1S
#330
0S
#340
b10000000000000001101000 J
b10000000000000001101000 $"
b10000000000000001101000 1"
b10010 1
b10010 G"
b10010 \"
b10010 ]"
b10000000000000001101000 G
b10000000000000001101000 t
b10000000000000001101000 '"
b10000000000000001101000 /"
b10000000000000001100100 E
b10000000000000001100100 u
b10000000000000001100100 %"
b10000000000000001100100 &"
b10000000000000001100100 E"
1S
#350
0S
#360
b10000000000000001101100 J
b10000000000000001101100 $"
b10000000000000001101100 1"
b10011 1
b10011 G"
b10011 \"
b1001010000010000000100000 5
b1001010000010000000100000 v
b1001010000010000000100000 F"
b10000000000000001101100 G
b10000000000000001101100 t
b10000000000000001101100 '"
b10000000000000001101100 /"
b10000000000000001101000 E
b10000000000000001101000 u
b10000000000000001101000 %"
b10000000000000001101000 &"
b10000000000000001101000 E"
b10011 ]"
1S
#370
0S
#380
b10000000000000001110000 J
b10000000000000001110000 $"
b10000000000000001110000 1"
b10100 1
b10100 G"
b10100 \"
b0 5
b0 v
b0 F"
b10100 ]"
b10000000000000001110000 G
b10000000000000001110000 t
b10000000000000001110000 '"
b10000000000000001110000 /"
b10000000000000001101100 E
b10000000000000001101100 u
b10000000000000001101100 %"
b10000000000000001101100 &"
b10000000000000001101100 E"
1S
#390
0S
#400
b10000000000000001110100 J
b10000000000000001110100 $"
b10000000000000001110100 1"
b10101 1
b10101 G"
b10101 \"
b10000000000000001110100 G
b10000000000000001110100 t
b10000000000000001110100 '"
b10000000000000001110100 /"
b10000000000000001110000 E
b10000000000000001110000 u
b10000000000000001110000 %"
b10000000000000001110000 &"
b10000000000000001110000 E"
b10101 ]"
1S
#410
0S
#420
b10000000000000001111000 J
b10000000000000001111000 $"
b10000000000000001111000 1"
b10110 1
b10110 G"
b10110 \"
b10110 ]"
b10000000000000001111000 G
b10000000000000001111000 t
b10000000000000001111000 '"
b10000000000000001111000 /"
b10000000000000001110100 E
b10000000000000001110100 u
b10000000000000001110100 %"
b10000000000000001110100 &"
b10000000000000001110100 E"
1S
#430
0S
#440
b10000000000000001111100 J
b10000000000000001111100 $"
b10000000000000001111100 1"
b10111 1
b10111 G"
b10111 \"
b10000000000000001111100 G
b10000000000000001111100 t
b10000000000000001111100 '"
b10000000000000001111100 /"
b10000000000000001111000 E
b10000000000000001111000 u
b10000000000000001111000 %"
b10000000000000001111000 &"
b10000000000000001111000 E"
b10111 ]"
1S
#450
0S
#460
b10000000000000010000000 J
b10000000000000010000000 $"
b10000000000000010000000 1"
b11000 1
b11000 G"
b11000 \"
b11000 ]"
b10000000000000010000000 G
b10000000000000010000000 t
b10000000000000010000000 '"
b10000000000000010000000 /"
b10000000000000001111100 E
b10000000000000001111100 u
b10000000000000001111100 %"
b10000000000000001111100 &"
b10000000000000001111100 E"
1S
#470
0S
#480
b10000000000000010000100 J
b10000000000000010000100 $"
b10000000000000010000100 1"
b11001 1
b11001 G"
b11001 \"
b1100 5
b1100 v
b1100 F"
b10000000000000010000100 G
b10000000000000010000100 t
b10000000000000010000100 '"
b10000000000000010000100 /"
b10000000000000010000000 E
b10000000000000010000000 u
b10000000000000010000000 %"
b10000000000000010000000 &"
b10000000000000010000000 E"
b11001 ]"
1S
#490
0S
#500
b10000000000000010001000 J
b10000000000000010001000 $"
b10000000000000010001000 1"
b11010 1
b11010 G"
b11010 \"
b0 5
b0 v
b0 F"
b11010 ]"
b10000000000000010001000 G
b10000000000000010001000 t
b10000000000000010001000 '"
b10000000000000010001000 /"
b10000000000000010000100 E
b10000000000000010000100 u
b10000000000000010000100 %"
b10000000000000010000100 &"
b10000000000000010000100 E"
1S
#510
0S
#520
b10000000000000010001100 J
b10000000000000010001100 $"
b10000000000000010001100 1"
b11011 1
b11011 G"
b11011 \"
b10000000000000010001100 G
b10000000000000010001100 t
b10000000000000010001100 '"
b10000000000000010001100 /"
b10000000000000010001000 E
b10000000000000010001000 u
b10000000000000010001000 %"
b10000000000000010001000 &"
b10000000000000010001000 E"
b11011 ]"
1S
#530
0S
#540
b10000000000000010010000 J
b10000000000000010010000 $"
b10000000000000010010000 1"
b11100 1
b11100 G"
b11100 \"
b11100 ]"
b10000000000000010010000 G
b10000000000000010010000 t
b10000000000000010010000 '"
b10000000000000010010000 /"
b10000000000000010001100 E
b10000000000000010001100 u
b10000000000000010001100 %"
b10000000000000010001100 &"
b10000000000000010001100 E"
1S
#550
0S
#560
b10000000000000010010100 J
b10000000000000010010100 $"
b10000000000000010010100 1"
b11101 1
b11101 G"
b11101 \"
b10000000000000010010100 G
b10000000000000010010100 t
b10000000000000010010100 '"
b10000000000000010010100 /"
b10000000000000010010000 E
b10000000000000010010000 u
b10000000000000010010000 %"
b10000000000000010010000 &"
b10000000000000010010000 E"
b11101 ]"
1S
#570
0S
#580
b10000000000000010011000 J
b10000000000000010011000 $"
b10000000000000010011000 1"
b11110 1
b11110 G"
b11110 \"
b11110 ]"
b10000000000000010011000 G
b10000000000000010011000 t
b10000000000000010011000 '"
b10000000000000010011000 /"
b10000000000000010010100 E
b10000000000000010010100 u
b10000000000000010010100 %"
b10000000000000010010100 &"
b10000000000000010010100 E"
1S
#590
0S
#600
b10000000000000010011100 J
b10000000000000010011100 $"
b10000000000000010011100 1"
b11111 1
b11111 G"
b11111 \"
b100100000000100000000000001010 5
b100100000000100000000000001010 v
b100100000000100000000000001010 F"
b10000000000000010011100 G
b10000000000000010011100 t
b10000000000000010011100 '"
b10000000000000010011100 /"
b10000000000000010011000 E
b10000000000000010011000 u
b10000000000000010011000 %"
b10000000000000010011000 &"
b10000000000000010011000 E"
b11111 ]"
1S
#610
0S
#620
b10000000000000010100000 J
b10000000000000010100000 $"
b10000000000000010100000 1"
b100000 1
b100000 G"
b100000 \"
b0 5
b0 v
b0 F"
b100000 ]"
b10000000000000010100000 G
b10000000000000010100000 t
b10000000000000010100000 '"
b10000000000000010100000 /"
b10000000000000010011100 E
b10000000000000010011100 u
b10000000000000010011100 %"
b10000000000000010011100 &"
b10000000000000010011100 E"
1S
#630
0S
#640
b10000000000000010100100 J
b10000000000000010100100 $"
b10000000000000010100100 1"
b100001 1
b100001 G"
b100001 \"
b10000000000000010100100 G
b10000000000000010100100 t
b10000000000000010100100 '"
b10000000000000010100100 /"
b10000000000000010100000 E
b10000000000000010100000 u
b10000000000000010100000 %"
b10000000000000010100000 &"
b10000000000000010100000 E"
b100001 ]"
1S
#650
0S
#660
b10000000000000010101000 J
b10000000000000010101000 $"
b10000000000000010101000 1"
b100010 1
b100010 G"
b100010 \"
b100010 ]"
b10000000000000010101000 G
b10000000000000010101000 t
b10000000000000010101000 '"
b10000000000000010101000 /"
b10000000000000010100100 E
b10000000000000010100100 u
b10000000000000010100100 %"
b10000000000000010100100 &"
b10000000000000010100100 E"
1S
#670
0S
#680
b10000000000000010101100 J
b10000000000000010101100 $"
b10000000000000010101100 1"
b100011 1
b100011 G"
b100011 \"
b10000000000000010101100 G
b10000000000000010101100 t
b10000000000000010101100 '"
b10000000000000010101100 /"
b10000000000000010101000 E
b10000000000000010101000 u
b10000000000000010101000 %"
b10000000000000010101000 &"
b10000000000000010101000 E"
b100011 ]"
1S
#690
0S
#700
b10000000000000010110000 J
b10000000000000010110000 $"
b10000000000000010110000 1"
b100100 1
b100100 G"
b100100 \"
b100100 ]"
b10000000000000010110000 G
b10000000000000010110000 t
b10000000000000010110000 '"
b10000000000000010110000 /"
b10000000000000010101100 E
b10000000000000010101100 u
b10000000000000010101100 %"
b10000000000000010101100 &"
b10000000000000010101100 E"
1S
#710
0S
#720
b10000000000000010110100 J
b10000000000000010110100 $"
b10000000000000010110100 1"
b100101 1
b100101 G"
b100101 \"
b1100 5
b1100 v
b1100 F"
b10000000000000010110100 G
b10000000000000010110100 t
b10000000000000010110100 '"
b10000000000000010110100 /"
b10000000000000010110000 E
b10000000000000010110000 u
b10000000000000010110000 %"
b10000000000000010110000 &"
b10000000000000010110000 E"
b100101 ]"
1S
#730
0S
#740
b10000000000000010111000 J
b10000000000000010111000 $"
b10000000000000010111000 1"
b100110 1
b100110 G"
b100110 \"
b0 5
b0 v
b0 F"
b100110 ]"
b10000000000000010111000 G
b10000000000000010111000 t
b10000000000000010111000 '"
b10000000000000010111000 /"
b10000000000000010110100 E
b10000000000000010110100 u
b10000000000000010110100 %"
b10000000000000010110100 &"
b10000000000000010110100 E"
1S
#750
0S
#760
b10000000000000010111100 J
b10000000000000010111100 $"
b10000000000000010111100 1"
b100111 1
b100111 G"
b100111 \"
b10000000000000010111100 G
b10000000000000010111100 t
b10000000000000010111100 '"
b10000000000000010111100 /"
b10000000000000010111000 E
b10000000000000010111000 u
b10000000000000010111000 %"
b10000000000000010111000 &"
b10000000000000010111000 E"
b100111 ]"
1S
#770
0S
#780
b10000000000000011000000 J
b10000000000000011000000 $"
b10000000000000011000000 1"
b101000 1
b101000 G"
b101000 \"
b101000 ]"
b10000000000000011000000 G
b10000000000000011000000 t
b10000000000000011000000 '"
b10000000000000011000000 /"
b10000000000000010111100 E
b10000000000000010111100 u
b10000000000000010111100 %"
b10000000000000010111100 &"
b10000000000000010111100 E"
1S
#790
0S
#800
b10000000000000011000100 J
b10000000000000011000100 $"
b10000000000000011000100 1"
b101001 1
b101001 G"
b101001 \"
b10000000000000011000100 G
b10000000000000011000100 t
b10000000000000011000100 '"
b10000000000000011000100 /"
b10000000000000011000000 E
b10000000000000011000000 u
b10000000000000011000000 %"
b10000000000000011000000 &"
b10000000000000011000000 E"
b101001 ]"
1S
#810
0S
#820
b10000000000000011001000 J
b10000000000000011001000 $"
b10000000000000011001000 1"
b101010 1
b101010 G"
b101010 \"
b101010 ]"
b10000000000000011001000 G
b10000000000000011001000 t
b10000000000000011001000 '"
b10000000000000011001000 /"
b10000000000000011000100 E
b10000000000000011000100 u
b10000000000000011000100 %"
b10000000000000011000100 &"
b10000000000000011000100 E"
1S
#830
0S
#840
b10000000000000011001100 J
b10000000000000011001100 $"
b10000000000000011001100 1"
b101011 1
b101011 G"
b101011 \"
b10000000000000011001100 G
b10000000000000011001100 t
b10000000000000011001100 '"
b10000000000000011001100 /"
b10000000000000011001000 E
b10000000000000011001000 u
b10000000000000011001000 %"
b10000000000000011001000 &"
b10000000000000011001000 E"
b101011 ]"
1S
#850
0S
#860
b10000000000000011010000 J
b10000000000000011010000 $"
b10000000000000011010000 1"
b101100 1
b101100 G"
b101100 \"
b101100 ]"
b10000000000000011010000 G
b10000000000000011010000 t
b10000000000000011010000 '"
b10000000000000011010000 /"
b10000000000000011001100 E
b10000000000000011001100 u
b10000000000000011001100 %"
b10000000000000011001100 &"
b10000000000000011001100 E"
1S
#870
0S
#880
b101101 ]"
1S
