src/testbench.vcd
$date
	Mon Mar 26 21:04:04 2018
$end
$version
	Icarus Verilog
$end
$timescale
	1s
$end
$scope module testbench $end
$var wire 1 ! PCSrc_D $end
$var wire 5 " writeReg_W [4:0] $end
$var wire 5 # writeReg_M [4:0] $end
$var wire 5 $ writeReg_E [4:0] $end
$var wire 32 % writeData_M [31:0] $end
$var wire 32 & v0 [31:0] $end
$var wire 1 ' sysstall $end
$var wire 1 ( syscall_control $end
$var wire 1 ) stat_control $end
$var wire 32 * sp [31:0] $end
$var wire 32 + signImm_E [31:0] $end
$var wire 32 , signImm_D [31:0] $end
$var wire 32 - readData_W [31:0] $end
$var wire 32 . readData_M [31:0] $end
$var wire 32 / ra [31:0] $end
$var wire 32 0 number_instructions [31:0] $end
$var wire 32 1 jumpAddr [31:0] $end
$var wire 1 2 jump $end
$var wire 1 3 jr_control $end
$var wire 32 4 jrMux_out [31:0] $end
$var wire 1 5 jal_control $end
$var wire 32 6 instr_F [31:0] $end
$var wire 32 7 instr_D [31:0] $end
$var wire 32 8 branch_mux_out [31:0] $end
$var wire 32 9 a0 [31:0] $end
$var wire 32 : WriteData_E [31:0] $end
$var wire 2 ; WB_W [1:0] $end
$var wire 2 < WB_M [1:0] $end
$var wire 2 = WB_E [1:0] $end
$var wire 2 > WB_D [1:0] $end
$var wire 1 ? StallF $end
$var wire 1 @ StallD $end
$var wire 32 A SrcBE [31:0] $end
$var wire 32 B SrcAE [31:0] $end
$var wire 5 C Rt_E [4:0] $end
$var wire 5 D Rs_E [4:0] $end
$var wire 32 E Result_W [31:0] $end
$var wire 5 F Rd_E [4:0] $end
$var wire 32 G RD2_E [31:0] $end
$var wire 32 H RD2_D [31:0] $end
$var wire 32 I RD1_E [31:0] $end
$var wire 32 J RD1_D [31:0] $end
$var wire 32 K PC_F [31:0] $end
$var wire 32 L PC_D [31:0] $end
$var wire 32 M PCPlus4_F [31:0] $end
$var wire 32 N PCPlus4_D [31:0] $end
$var wire 32 O PCBranch_D [31:0] $end
$var wire 32 P Next_PC [31:0] $end
$var wire 2 Q MEM_M [1:0] $end
$var wire 2 R MEM_E [1:0] $end
$var wire 2 S MEM_D [1:0] $end
$var wire 2 T ForwardBE [1:0] $end
$var wire 1 U ForwardBD $end
$var wire 2 V ForwardAE [1:0] $end
$var wire 1 W ForwardAD $end
$var wire 1 X FlushE $end
$var wire 1 Y EqualD $end
$var wire 7 Z EX_E [6:0] $end
$var wire 7 [ EX_D [6:0] $end
$var wire 3 \ BranchOp [2:0] $end
$var wire 1 ] BranchD $end
$var wire 32 ^ And_Input2 [31:0] $end
$var wire 32 _ And_Input1 [31:0] $end
$var wire 32 ` ALUOut_W [31:0] $end
$var wire 32 a ALUOut_M [31:0] $end
$var wire 32 b ALUOut_E [31:0] $end
$var reg 1 c clk $end
$scope module ALU_block $end
$var wire 5 d ALUop [4:0] $end
$var wire 32 e reg2 [31:0] $end
$var wire 32 f reg1 [31:0] $end
$var reg 32 g ALUresult [31:0] $end
$upscope $end
$scope module ExMem $end
$var wire 32 h ALUOut_E [31:0] $end
$var wire 1 i FlushE $end
$var wire 1 c clk $end
$var wire 5 j WriteReg_E [4:0] $end
$var wire 32 k WriteData_E [31:0] $end
$var wire 2 l WB_E [1:0] $end
$var wire 2 m MEM_E [1:0] $end
$var reg 32 n ALUOut_M [31:0] $end
$var reg 2 o MEM_M [1:0] $end
$var reg 2 p WB_M [1:0] $end
$var reg 32 q WriteData_M [31:0] $end
$var reg 5 r WriteReg_M [4:0] $end
$upscope $end
$scope module IdEx $end
$var wire 5 s Rd_D [4:0] $end
$var wire 5 t Rs_D [4:0] $end
$var wire 5 u Rt_D [4:0] $end
$var wire 1 c clk $end
$var wire 2 v WB_D [1:0] $end
$var wire 32 w SignImm_D [31:0] $end
$var wire 32 x RD2_D [31:0] $end
$var wire 32 y RD1_D [31:0] $end
$var wire 2 z MEM_D [1:0] $end
$var wire 1 X FlushE $end
$var wire 7 { EX_D [6:0] $end
$var reg 7 | EX_E [6:0] $end
$var reg 2 } MEM_E [1:0] $end
$var reg 32 ~ RD1_E [31:0] $end
$var reg 32 !" RD2_E [31:0] $end
$var reg 5 "" Rd_E [4:0] $end
$var reg 5 #" Rs_E [4:0] $end
$var reg 5 $" Rt_E [4:0] $end
$var reg 32 %" SignImm_E [31:0] $end
$var reg 2 &" WB_E [1:0] $end
$upscope $end
$scope module IfId $end
$var wire 1 ! PCSrcD $end
$var wire 1 c clk $end
$var wire 1 @ StallD $end
$var wire 32 '" PC_Plus4_F [31:0] $end
$var wire 32 (" PC_F [31:0] $end
$var wire 32 )" Instr_F [31:0] $end
$var reg 32 *" Instr_D [31:0] $end
$var reg 32 +" PC_D [31:0] $end
$var reg 32 ," PC_Plus4_D [31:0] $end
$upscope $end
$scope module JumpAddr_block $end
$var wire 32 -" PCplus4 [31:0] $end
$var wire 32 ." instr [31:0] $end
$var wire 32 /" jumpAddr [31:0] $end
$upscope $end
$scope module MemWb $end
$var wire 32 0" ALUOut_M [31:0] $end
$var wire 2 1" WB_M [1:0] $end
$var wire 5 2" WriteReg_M [4:0] $end
$var wire 1 c clk $end
$var wire 32 3" ReadData_M [31:0] $end
$var reg 32 4" ALUOut_W [31:0] $end
$var reg 32 5" ReadData_W [31:0] $end
$var reg 2 6" WB_W [1:0] $end
$var reg 5 7" WriteReg_W [4:0] $end
$upscope $end
$scope module MuxRD1 $end
$var wire 32 8" mux_in_1 [31:0] $end
$var wire 1 W select $end
$var wire 32 9" mux_in_0 [31:0] $end
$var reg 32 :" mux_out [31:0] $end
$upscope $end
$scope module MuxRD2 $end
$var wire 32 ;" mux_in_1 [31:0] $end
$var wire 1 U select $end
$var wire 32 <" mux_in_0 [31:0] $end
$var reg 32 =" mux_out [31:0] $end
$upscope $end
$scope module PC_block $end
$var wire 1 c clk $end
$var wire 32 >" nextPC [31:0] $end
$var wire 1 ? StallF $end
$var reg 32 ?" currPC [31:0] $end
$upscope $end
$scope module PCadd4 $end
$var wire 32 @" currPC [31:0] $end
$var wire 32 A" PCplus4 [31:0] $end
$upscope $end
$scope module aluMux $end
$var wire 32 B" mux_in_1 [31:0] $end
$var wire 1 C" select $end
$var wire 32 D" mux_in_0 [31:0] $end
$var reg 32 E" mux_out [31:0] $end
$upscope $end
$scope module aluSrcAMux $end
$var wire 32 F" mux_in_0 [31:0] $end
$var wire 32 G" mux_in_2 [31:0] $end
$var wire 2 H" select [1:0] $end
$var wire 32 I" mux_in_1 [31:0] $end
$var reg 32 J" mux_out [31:0] $end
$upscope $end
$scope module aluSrcBMux $end
$var wire 32 K" mux_in_0 [31:0] $end
$var wire 32 L" mux_in_2 [31:0] $end
$var wire 2 M" select [1:0] $end
$var wire 32 N" mux_in_1 [31:0] $end
$var reg 32 O" mux_out [31:0] $end
$upscope $end
$scope module branchAdder $end
$var wire 32 P" PC_Plus4 [31:0] $end
$var wire 32 Q" signExtendedImmediate [31:0] $end
$var reg 32 R" out [31:0] $end
$upscope $end
$scope module branchAnd $end
$var wire 1 Y zero $end
$var wire 1 ] branch $end
$var reg 1 S" and_out $end
$upscope $end
$scope module branchControl $end
$var wire 32 T" input1 [31:0] $end
$var wire 32 U" input2 [31:0] $end
$var wire 3 V" BranchOp [2:0] $end
$var reg 1 Y equalD $end
$upscope $end
$scope module branchMux $end
$var wire 32 W" mux_in_0 [31:0] $end
$var wire 32 X" mux_in_1 [31:0] $end
$var wire 1 ! select $end
$var reg 32 Y" mux_out [31:0] $end
$upscope $end
$scope module control_block $end
$var wire 32 Z" instr [31:0] $end
$var reg 5 [" ALUop [4:0] $end
$var reg 1 \" ALUsrc $end
$var reg 1 ] Branch $end
$var reg 3 ]" BranchOp [2:0] $end
$var reg 7 ^" EX_D [6:0] $end
$var reg 1 2 Jump $end
$var reg 2 _" MEM_D [1:0] $end
$var reg 1 `" MemRead $end
$var reg 1 a" MemToReg $end
$var reg 1 b" MemWrite $end
$var reg 1 c" RegDst $end
$var reg 1 d" RegWrite $end
$var reg 2 e" WB_D [1:0] $end
$var reg 1 5 jal_control $end
$var reg 1 3 jr_control $end
$var reg 1 ( syscall_control $end
$upscope $end
$scope module dataMem $end
$var wire 32 f" address [31:0] $end
$var wire 1 c clk $end
$var wire 1 g" memRead $end
$var wire 1 h" memWrite $end
$var wire 32 i" writeData [31:0] $end
$var reg 32 j" readData [31:0] $end
$upscope $end
$scope module hazard $end
$var wire 1 ] BranchD $end
$var wire 1 k" MemReadE $end
$var wire 1 l" MemReadM $end
$var wire 1 m" MemtoRegE $end
$var wire 1 n" MemtoRegM $end
$var wire 1 o" RegWriteE $end
$var wire 1 p" RegWriteM $end
$var wire 1 q" RegWriteW $end
$var wire 5 r" RsD [4:0] $end
$var wire 5 s" RsE [4:0] $end
$var wire 5 t" RtD [4:0] $end
$var wire 5 u" RtE [4:0] $end
$var wire 5 v" WriteRegM [4:0] $end
$var wire 5 w" WriteRegW [4:0] $end
$var wire 1 ( sycall_control $end
$var wire 5 x" WriteRegE [4:0] $end
$var reg 1 X FlushE $end
$var reg 1 W ForwardAD $end
$var reg 2 y" ForwardAE [1:0] $end
$var reg 1 U ForwardBD $end
$var reg 2 z" ForwardBE [1:0] $end
$var reg 1 @ StallD $end
$var reg 1 ? StallF $end
$var reg 1 {" branchstall $end
$var reg 1 |" lwstall $end
$var reg 1 ' sysstall $end
$upscope $end
$scope module instructionMemory $end
$var wire 32 }" currPC [31:0] $end
$var reg 32 ~" instr [31:0] $end
$var reg 32 !# number_instructions [31:0] $end
$upscope $end
$scope module jrMux $end
$var wire 32 "# mux_in_0 [31:0] $end
$var wire 1 3 select $end
$var wire 32 ## mux_in_1 [31:0] $end
$var reg 32 $# mux_out [31:0] $end
$upscope $end
$scope module jumpMux $end
$var wire 32 %# mux_in_0 [31:0] $end
$var wire 32 &# mux_in_1 [31:0] $end
$var wire 1 2 select $end
$var reg 32 '# mux_out [31:0] $end
$upscope $end
$scope module memToRegMux $end
$var wire 32 (# mux_in_0 [31:0] $end
$var wire 32 )# mux_in_1 [31:0] $end
$var wire 1 *# select $end
$var reg 32 +# mux_out [31:0] $end
$upscope $end
$scope module reg_block $end
$var wire 1 ,# RegWrite $end
$var wire 32 -# a0 [31:0] $end
$var wire 1 c clk $end
$var wire 32 .# jal_address [31:0] $end
$var wire 1 5 jal_control $end
$var wire 32 /# ra [31:0] $end
$var wire 5 0# readReg1 [4:0] $end
$var wire 5 1# readReg2 [4:0] $end
$var wire 32 2# sp [31:0] $end
$var wire 32 3# v0 [31:0] $end
$var wire 32 4# writeData [31:0] $end
$var wire 5 5# writeReg [4:0] $end
$var reg 32 6# readData1 [31:0] $end
$var reg 32 7# readData2 [31:0] $end
$var integer 32 8# i [31:0] $end
$upscope $end
$scope module registerMux $end
$var wire 5 9# mux_in_0 [4:0] $end
$var wire 5 :# mux_in_1 [4:0] $end
$var wire 1 ;# select $end
$var reg 5 <# mux_out [4:0] $end
$upscope $end
$scope module runStats $end
$var wire 1 c clk $end
$var wire 32 =# number_instructions [31:0] $end
$var wire 1 ) stat_control $end
$var reg 32 ># number_cycles [31:0] $end
$upscope $end
$scope module signExtend_block $end
$var wire 32 ?# instr [31:0] $end
$var reg 32 @# out_value [31:0] $end
$upscope $end
$scope module testSyscall $end
$var wire 32 A# a0 [31:0] $end
$var wire 1 ( syscall_control $end
$var wire 1 ' sysstall $end
$var wire 32 B# v0 [31:0] $end
$var reg 1 ) stat_control $end
$upscope $end
$upscope $end
$enddefinitions $end
#0
$dumpvars
b0 B#
b0 A#
b111111111111111 @#
b111100000111010111111111111111 ?#
b1 >#
b1 =#
bx <#
0;#
bx :#
bx 9#
b100000 8#
b0 7#
b0 6#
bx 5#
bx 4#
b0 3#
b0 2#
b11101 1#
b0 0#
b0 /#
b10000000000000000111000 .#
b0 -#
1,#
bx +#
x*#
bx )#
bx (#
b10000000000000000110100 '#
b11101011111111111111100 &#
b10000000000000000110100 %#
b11101011111111111111100 $#
b0 ##
b11101011111111111111100 "#
b1 !#
b111100000111010111111111111111 ~"
b10000000000000000110000 }"
0|"
0{"
b0 z"
b0 y"
bx x"
bx w"
bx v"
bx u"
b11101 t"
bx s"
b0 r"
xq"
xp"
0o"
xn"
0m"
xl"
0k"
bx j"
b0 i"
xh"
xg"
bx f"
b10 e"
1d"
0c"
0b"
0a"
0`"
b0 _"
b100011 ^"
b0 ]"
1\"
b11 ["
b111100000111010111111111111111 Z"
b10000000000000000110100 Y"
b10000100000000000110000 X"
b10000000000000000110100 W"
b0 V"
bx U"
b0 T"
0S"
b10000100000000000110000 R"
b111111111111111 Q"
b10000000000000000110100 P"
bx O"
bx N"
b0 M"
bx L"
bx K"
bx J"
bx I"
b0 H"
bx G"
bx F"
bx E"
bx D"
0C"
bx B"
b10000000000000000110100 A"
b10000000000000000110000 @"
b10000000000000000110000 ?"
b10000000000000000110100 >"
bx ="
b0 <"
bx ;"
b0 :"
b0 9"
bx 8"
bx 7"
bx 6"
bx 5"
bx 4"
bx 3"
bx 2"
bx 1"
bx 0"
b11101011111111111111100 /"
b111100000111010111111111111111 ."
b10000000000000000110100 -"
b10000000000000000110100 ,"
b10000000000000000110000 +"
b111100000111010111111111111111 *"
b111100000111010111111111111111 )"
b10000000000000000110000 ("
b10000000000000000110100 '"
b0 &"
bx %"
bx $"
bx #"
bx ""
bx !"
bx ~
b0 }
b0 |
b100011 {
b0 z
b0 y
b0 x
b111111111111111 w
b10 v
b11101 u
b0 t
b1111 s
bx r
b0 q
bx p
bx o
bx n
b0 m
b0 l
bx k
bx j
zi
bx h
bx g
bx f
bx e
b0 d
1c
bx b
bx a
bx `
b0 _
bx ^
0]
b0 \
b100011 [
b0 Z
0Y
0X
0W
b0 V
xU
b0 T
b0 S
b0 R
bx Q
b10000000000000000110100 P
b10000100000000000110000 O
b10000000000000000110100 N
b10000000000000000110100 M
b10000000000000000110000 L
b10000000000000000110000 K
b0 J
bx I
b0 H
bx G
bx F
bx E
bx D
bx C
bx B
bx A
0@
0?
b10 >
b0 =
bx <
bx ;
bx :
b0 9
b10000000000000000110100 8
b111100000111010111111111111111 7
b111100000111010111111111111111 6
05
b11101011111111111111100 4
03
02
b11101011111111111111100 1
b1 0
b0 /
bx .
bx -
b111111111111111 ,
bx +
b0 *
0)
0(
0'
b0 &
b0 %
bx $
bx #
bx "
0!
$end
#10
0c
#20
b0 ^
b0 ="
b0 U"
0U
b1111111111111110000000000000000 b
b1111111111111110000000000000000 g
b1111111111111110000000000000000 h
b10000000000000000111000 P
b10000000000000000111000 >"
b10000000000000000111000 '#
0p"
0n"
0g"
0h"
0l"
b111111111111111 A
b111111111111111 e
b111111111111111 E"
b0 :
b0 k
b0 D"
b0 O"
b0 B
b0 f
b0 J"
b11101 $
b11101 j
b11101 x"
b11101 <#
1o"
b11 d
1C"
b10000000000000000111000 8
b10000000000000000111000 Y"
b10000000000000000111000 %#
b10 0
b10 !#
b10 =#
b1100000100000000000000111101 6
b1100000100000000000000111101 )"
b1100000100000000000000111101 ~"
b0 <
b0 p
b0 1"
b0 Q
b0 o
b111111111111111 +
b111111111111111 %"
b111111111111111 B"
b0 G
b0 !"
b0 K"
b0 I
b0 ~
b0 F"
b1111 F
b1111 ""
b1111 :#
b11101 C
b11101 $"
b11101 u"
b11101 9#
b0 D
b0 #"
b0 s"
b10 =
b10 l
b10 &"
b100011 Z
b100011 |
b10000000000000000111000 M
b10000000000000000111000 '"
b10000000000000000111000 A"
b10000000000000000111000 W"
b10000000000000000110100 K
b10000000000000000110100 ("
b10000000000000000110100 ?"
b10000000000000000110100 @"
b10000000000000000110100 }"
b10 >#
1c
#30
0c
#40
b10000000000000011110100 4
b10000000000000011110100 $#
b10000000000000011110100 &#
b10000000000000011110100 1
b10000000000000011110100 /"
b10000000000000011110100 "#
b10000000000000011110100 P
b10000000000000011110100 >"
b10000000000000011110100 '#
b1111111111111110000000000000000 :
b1111111111111110000000000000000 k
b1111111111111110000000000000000 D"
b1111111111111110000000000000000 O"
b0 ^
b0 ="
b0 U"
b10000000000000000111100 8
b10000000000000000111100 Y"
b10000000000000000111100 %#
b11 0
b11 !#
b11 =#
b110111101111011111111111111100 6
b110111101111011111111111111100 )"
b110111101111011111111111111100 ~"
b10000000000000100101100 O
b10000000000000100101100 R"
b10000000000000100101100 X"
b0 [
b0 {
b0 ^"
15
12
0\"
1d"
b0 ["
b111101 ,
b111101 w
b111101 Q"
b111101 @#
b0 s
b10000 u
b10000 1#
b10000 t"
b10 T
b10 M"
b10 z"
0U
1p"
0*#
0q"
b10000000000000000111100 M
b10000000000000000111100 '"
b10000000000000000111100 A"
b10000000000000000111100 W"
b10000000000000000111000 K
b10000000000000000111000 ("
b10000000000000000111000 ?"
b10000000000000000111000 @"
b10000000000000000111000 }"
b10000000000000000111000 N
b10000000000000000111000 ,"
b10000000000000000111000 -"
b10000000000000000111000 P"
b1100000100000000000000111101 7
b1100000100000000000000111101 *"
b1100000100000000000000111101 ."
b1100000100000000000000111101 Z"
b1100000100000000000000111101 ?#
b10000000000000000111100 .#
b10000000000000000110100 L
b10000000000000000110100 +"
b11101 #
b11101 r
b11101 2"
b11101 v"
b1111111111111110000000000000000 a
b1111111111111110000000000000000 n
b1111111111111110000000000000000 0"
b1111111111111110000000000000000 8"
b1111111111111110000000000000000 ;"
b1111111111111110000000000000000 G"
b1111111111111110000000000000000 L"
b1111111111111110000000000000000 f"
b10 <
b10 p
b10 1"
b0 ;
b0 6"
b11 >#
1c
#50
0c
#60
b10111101111111111111110000 4
b10111101111111111111110000 $#
b10111101111111111111110000 &#
b0 :
b0 k
b0 D"
b0 O"
b1111111111111110000000000000000 ^
b1111111111111110000000000000000 ="
b1111111111111110000000000000000 U"
b1111111111111110000000000000000 _
b1111111111111110000000000000000 :"
b1111111111111110000000000000000 T"
b0 b
b0 g
b0 h
b10111101111111111111110000 1
b10111101111111111111110000 /"
b10111101111111111111110000 "#
b10000000000000011111000 P
b10000000000000011111000 >"
b10000000000000011111000 '#
b1111111111111110000000000000000 E
b1111111111111110000000000000000 I"
b1111111111111110000000000000000 N"
b1111111111111110000000000000000 +#
b1111111111111110000000000000000 4#
1q"
b0 A
b0 e
b0 E"
b0 T
b0 M"
b0 z"
1U
1W
b10000 $
b10000 j
b10000 x"
b10000 <#
b0 d
0C"
b10001000000000000101100 O
b10001000000000000101100 R"
b10001000000000000101100 X"
b1111111111111100 ,
b1111111111111100 w
b1111111111111100 Q"
b1111111111111100 @#
b100001 [
b100001 {
b100001 ^"
1\"
b1 ["
05
1d"
02
b11111 s
b11101 u
b11101 t
b11101 1#
b11101 0#
b11101 t"
b11101 r"
b10000000000000011111000 8
b10000000000000011111000 Y"
b10000000000000011111000 %#
b100 0
b100 !#
b100 =#
b100111101111011111111101100000 6
b100111101111011111111101100000 )"
b100111101111011111111101100000 ~"
b11101 "
b11101 7"
b11101 w"
b11101 5#
b1111111111111110000000000000000 `
b1111111111111110000000000000000 4"
b1111111111111110000000000000000 (#
b10 ;
b10 6"
b11101 #
b11101 r
b11101 2"
b11101 v"
b111101 +
b111101 %"
b111101 B"
b0 F
b0 ""
b0 :#
b10000 C
b10000 $"
b10000 u"
b10000 9#
b0 Z
b0 |
b10000000000000000111100 N
b10000000000000000111100 ,"
b10000000000000000111100 -"
b10000000000000000111100 P"
b110111101111011111111111111100 7
b110111101111011111111111111100 *"
b110111101111011111111111111100 ."
b110111101111011111111111111100 Z"
b110111101111011111111111111100 ?#
b10000000000000001000000 .#
b10000000000000000111000 L
b10000000000000000111000 +"
b10000000000000011111000 M
b10000000000000011111000 '"
b10000000000000011111000 A"
b10000000000000011111000 W"
b10000000000000011110100 K
b10000000000000011110100 ("
b10000000000000011110100 ?"
b10000000000000011110100 @"
b10000000000000011110100 }"
b100 >#
1c
#70
b1111111111111110000000000000000 *
b1111111111111110000000000000000 2#
0c
#80
b10111101111111110110000000 4
b10111101111111110110000000 $#
b10111101111111110110000000 &#
b10000000000000011111100 P
b10000000000000011111100 >"
b10000000000000011111100 '#
b10111101111111110110000000 1
b10111101111111110110000000 /"
b10111101111111110110000000 "#
b1111111111111111111111111111100 b
b1111111111111111111111111111100 g
b1111111111111111111111111111100 h
b1111111111111110000000000000000 :
b1111111111111110000000000000000 k
b1111111111111110000000000000000 D"
b1111111111111110000000000000000 O"
b1111111111111110000000000000000 B
b1111111111111110000000000000000 f
b1111111111111110000000000000000 J"
b10000000000000011111100 8
b10000000000000011111100 Y"
b10000000000000011111100 %#
b101 0
b101 !#
b101 =#
b10101111101111110000000010011100 6
b10101111101111110000000010011100 )"
b10101111101111110000000010011100 ~"
b1111111111111001111000 O
b1111111111111001111000 R"
b1111111111111001111000 X"
b100010 [
b100010 {
b100010 ^"
1\"
1d"
b10 ["
b11111111111111111111111101100000 ,
b11111111111111111111111101100000 w
b11111111111111111111111101100000 Q"
b11111111111111111111111101100000 @#
b1111111111111100 A
b1111111111111100 e
b1111111111111100 E"
b11101 $
b11101 j
b11101 x"
b11101 <#
b1 d
1C"
b1 T
b1 M"
b1 z"
b1 V
b1 H"
b1 y"
0U
0W
b0 _
b0 :"
b0 T"
b0 ^
b0 ="
b0 U"
b10000000000000011111100 M
b10000000000000011111100 '"
b10000000000000011111100 A"
b10000000000000011111100 W"
b10000000000000011111000 K
b10000000000000011111000 ("
b10000000000000011111000 ?"
b10000000000000011111000 @"
b10000000000000011111000 }"
b10000000000000011111000 N
b10000000000000011111000 ,"
b10000000000000011111000 -"
b10000000000000011111000 P"
b100111101111011111111101100000 7
b100111101111011111111101100000 *"
b100111101111011111111101100000 ."
b100111101111011111111101100000 Z"
b100111101111011111111101100000 ?#
b10000000000000011111100 .#
b10000000000000011110100 L
b10000000000000011110100 +"
b1111111111111100 +
b1111111111111100 %"
b1111111111111100 B"
b11111 F
b11111 ""
b11111 :#
b11101 C
b11101 $"
b11101 u"
b11101 9#
b11101 D
b11101 #"
b11101 s"
b100001 Z
b100001 |
b10000 #
b10000 r
b10000 2"
b10000 v"
b0 a
b0 n
b0 0"
b0 8"
b0 ;"
b0 G"
b0 L"
b0 f"
b101 >#
1c
#90
0c
#100
b10111111000000001001110000 4
b10111111000000001001110000 $#
b10111111000000001001110000 &#
b1111111111111111111111111111100 :
b1111111111111111111111111111100 k
b1111111111111111111111111111100 D"
b1111111111111111111111111111100 O"
b1111111111111111111111111111100 B
b1111111111111111111111111111100 f
b1111111111111111111111111111100 J"
b1111111111111111111111111111100 _
b1111111111111111111111111111100 :"
b1111111111111111111111111111100 T"
b1111111111111111111111101011100 b
b1111111111111111111111101011100 g
b1111111111111111111111101011100 h
b10111111000000001001110000 1
b10111111000000001001110000 /"
b10111111000000001001110000 "#
0,#
b1111111111111110000000000000000 J
b1111111111111110000000000000000 y
b1111111111111110000000000000000 9"
b1111111111111110000000000000000 6#
b10000000000000100000000 P
b10000000000000100000000 >"
b10000000000000100000000 '#
b0 E
b0 I"
b0 N"
b0 +#
b0 4#
b10 T
b10 M"
b10 z"
b10 V
b10 H"
b10 y"
1W
b11111111111111111111111101100000 A
b11111111111111111111111101100000 e
b11111111111111111111111101100000 E"
b10 d
b10000000000001101101100 O
b10000000000001101101100 R"
b10000000000001101101100 X"
b10011100 ,
b10011100 w
b10011100 Q"
b10011100 @#
b0 >
b0 v
b0 e"
b10 S
b10 z
b10 _"
1b"
1\"
0d"
b10 ["
b0 s
b11111 u
b11111 1#
b11111 t"
b10000000000000100000000 8
b10000000000000100000000 Y"
b10000000000000100000000 %#
b110 0
b110 !#
b110 =#
b10101111101111100000000010011000 6
b10101111101111100000000010011000 )"
b10101111101111100000000010011000 ~"
b10000 "
b10000 7"
b10000 w"
b10000 5#
b0 `
b0 4"
b0 (#
b11101 #
b11101 r
b11101 2"
b11101 v"
b1111111111111111111111111111100 a
b1111111111111111111111111111100 n
b1111111111111111111111111111100 0"
b1111111111111111111111111111100 8"
b1111111111111111111111111111100 ;"
b1111111111111111111111111111100 G"
b1111111111111111111111111111100 L"
b1111111111111111111111111111100 f"
b11111111111111111111111101100000 +
b11111111111111111111111101100000 %"
b11111111111111111111111101100000 B"
b100010 Z
b100010 |
b10000000000000011111100 N
b10000000000000011111100 ,"
b10000000000000011111100 -"
b10000000000000011111100 P"
b10101111101111110000000010011100 7
b10101111101111110000000010011100 *"
b10101111101111110000000010011100 ."
b10101111101111110000000010011100 Z"
b10101111101111110000000010011100 ?#
b10000000000000100000000 .#
b10000000000000011111000 L
b10000000000000011111000 +"
b10000000000000100000000 M
b10000000000000100000000 '"
b10000000000000100000000 A"
b10000000000000100000000 W"
b10000000000000011111100 K
b10000000000000011111100 ("
b10000000000000011111100 ?"
b10000000000000011111100 @"
b10000000000000011111100 }"
b110 >#
1c
#110
0c
#120
b10111110000000001001100000 4
b10111110000000001001100000 $#
b10111110000000001001100000 &#
b10000000000000100000100 P
b10000000000000100000100 >"
b10000000000000100000100 '#
b10111110000000001001100000 1
b10111110000000001001100000 /"
b10111110000000001001100000 "#
b1111111111111111111111111111000 b
b1111111111111111111111111111000 g
b1111111111111111111111111111000 h
b10000000000000100000100 8
b10000000000000100000100 Y"
b10000000000000100000100 %#
b111 0
b111 !#
b111 =#
b11101000001111000000100001 6
b11101000001111000000100001 )"
b11101000001111000000100001 ~"
b10000000000001101100000 O
b10000000000001101100000 R"
b10000000000001101100000 X"
1b"
1\"
b10 ["
b10011000 ,
b10011000 w
b10011000 Q"
b10011000 @#
b11110 u
b11110 1#
b11110 t"
b10011100 A
b10011100 e
b10011100 E"
b11111 $
b11111 j
b11111 x"
b11111 <#
0o"
b1111111111111111111111101011100 _
b1111111111111111111111101011100 :"
b1111111111111111111111101011100 T"
b1111111111111111111111101011100 B
b1111111111111111111111101011100 f
b1111111111111111111111101011100 J"
b0 :
b0 k
b0 D"
b0 O"
b0 T
b0 M"
b0 z"
b1111111111111111111111111111100 E
b1111111111111111111111111111100 I"
b1111111111111111111111111111100 N"
b1111111111111111111111111111100 +#
b1111111111111111111111111111100 4#
b10000000000000100000100 M
b10000000000000100000100 '"
b10000000000000100000100 A"
b10000000000000100000100 W"
b10000000000000100000000 K
b10000000000000100000000 ("
b10000000000000100000000 ?"
b10000000000000100000000 @"
b10000000000000100000000 }"
b10000000000000100000000 N
b10000000000000100000000 ,"
b10000000000000100000000 -"
b10000000000000100000000 P"
b10101111101111100000000010011000 7
b10101111101111100000000010011000 *"
b10101111101111100000000010011000 ."
b10101111101111100000000010011000 Z"
b10101111101111100000000010011000 ?#
b10000000000000100000100 .#
b10000000000000011111100 L
b10000000000000011111100 +"
b10011100 +
b10011100 %"
b10011100 B"
b1111111111111110000000000000000 I
b1111111111111110000000000000000 ~
b1111111111111110000000000000000 F"
b0 F
b0 ""
b0 :#
b11111 C
b11111 $"
b11111 u"
b11111 9#
b0 =
b0 l
b0 &"
b10 R
b10 m
b10 }
b11101 #
b11101 r
b11101 2"
b11101 v"
b1111111111111111111111101011100 a
b1111111111111111111111101011100 n
b1111111111111111111111101011100 0"
b1111111111111111111111101011100 8"
b1111111111111111111111101011100 ;"
b1111111111111111111111101011100 G"
b1111111111111111111111101011100 L"
b1111111111111111111111101011100 f"
b11101 "
b11101 7"
b11101 w"
b11101 5#
b1111111111111111111111111111100 `
b1111111111111111111111111111100 4"
b1111111111111111111111111111100 (#
b111 >#
1c
#130
0c
