src/testbench.vcd
$date
	Sun Mar 25 20:18:38 2018
$end
$version
	Icarus Verilog
$end
$timescale
	1s
$end
$scope module testbench $end
$var wire 1 ! PCSrc_D $end
$var wire 5 " writeReg_W [4:0] $end
$var wire 5 # writeReg_M [4:0] $end
$var wire 5 $ writeReg_E [4:0] $end
$var wire 32 % writeData_M [31:0] $end
$var wire 32 & v0 [31:0] $end
$var wire 1 ' syscall_control $end
$var wire 1 ( stat_control $end
$var wire 32 ) signImm_E [31:0] $end
$var wire 32 * signImm_D [31:0] $end
$var wire 32 + readData_W [31:0] $end
$var wire 32 , readData_M [31:0] $end
$var wire 32 - ra [31:0] $end
$var wire 32 . number_instructions [31:0] $end
$var wire 32 / jumpAddr [31:0] $end
$var wire 1 0 jump $end
$var wire 1 1 jr_control $end
$var wire 32 2 jrMux_out [31:0] $end
$var wire 1 3 jal_control $end
$var wire 32 4 instr_F [31:0] $end
$var wire 32 5 instr_D [31:0] $end
$var wire 32 6 branch_mux_out [31:0] $end
$var wire 32 7 a0 [31:0] $end
$var wire 32 8 WriteData_E [31:0] $end
$var wire 2 9 WB_W [1:0] $end
$var wire 2 : WB_M [1:0] $end
$var wire 2 ; WB_E [1:0] $end
$var wire 2 < WB_D [1:0] $end
$var wire 1 = StallF $end
$var wire 1 > StallD $end
$var wire 32 ? SrcBE [31:0] $end
$var wire 32 @ SrcAE [31:0] $end
$var wire 5 A Rt_E [4:0] $end
$var wire 5 B Rs_E [4:0] $end
$var wire 32 C Result_W [31:0] $end
$var wire 5 D Rd_E [4:0] $end
$var wire 32 E RD2_E [31:0] $end
$var wire 32 F RD2_D [31:0] $end
$var wire 32 G RD1_E [31:0] $end
$var wire 32 H RD1_D [31:0] $end
$var wire 32 I PC_F [31:0] $end
$var wire 32 J PC_D [31:0] $end
$var wire 32 K PCPlus4_F [31:0] $end
$var wire 32 L PCPlus4_D [31:0] $end
$var wire 32 M PCBranch_D [31:0] $end
$var wire 32 N Next_PC [31:0] $end
$var wire 2 O MEM_M [1:0] $end
$var wire 2 P MEM_E [1:0] $end
$var wire 2 Q MEM_D [1:0] $end
$var wire 2 R ForwardBE [1:0] $end
$var wire 1 S ForwardBD $end
$var wire 2 T ForwardAE [1:0] $end
$var wire 1 U ForwardAD $end
$var wire 1 V FlushE $end
$var wire 1 W EqualD $end
$var wire 5 X EX_E [4:0] $end
$var wire 5 Y EX_D [4:0] $end
$var wire 1 Z BranchD $end
$var wire 32 [ And_Input2 [31:0] $end
$var wire 32 \ And_Input1 [31:0] $end
$var wire 32 ] ALUOut_W [31:0] $end
$var wire 32 ^ ALUOut_M [31:0] $end
$var wire 32 _ ALUOut_E [31:0] $end
$var reg 1 ` clk $end
$scope module ALU_block $end
$var wire 3 a ALUop [2:0] $end
$var wire 32 b reg2 [31:0] $end
$var wire 32 c reg1 [31:0] $end
$var reg 32 d ALUresult [31:0] $end
$upscope $end
$scope module ExMem $end
$var wire 32 e ALUOut_E [31:0] $end
$var wire 1 f FlushE $end
$var wire 1 ` clk $end
$var wire 5 g WriteReg_E [4:0] $end
$var wire 32 h WriteData_E [31:0] $end
$var wire 2 i WB_E [1:0] $end
$var wire 2 j MEM_E [1:0] $end
$var reg 32 k ALUOut_M [31:0] $end
$var reg 2 l MEM_M [1:0] $end
$var reg 2 m WB_M [1:0] $end
$var reg 32 n WriteData_M [31:0] $end
$var reg 5 o WriteReg_M [4:0] $end
$upscope $end
$scope module IdEx $end
$var wire 5 p Rd_D [4:0] $end
$var wire 5 q Rs_D [4:0] $end
$var wire 5 r Rt_D [4:0] $end
$var wire 1 ` clk $end
$var wire 2 s WB_D [1:0] $end
$var wire 32 t SignImm_D [31:0] $end
$var wire 32 u RD2_D [31:0] $end
$var wire 32 v RD1_D [31:0] $end
$var wire 2 w MEM_D [1:0] $end
$var wire 1 V FlushE $end
$var wire 5 x EX_D [4:0] $end
$var reg 5 y EX_E [4:0] $end
$var reg 2 z MEM_E [1:0] $end
$var reg 32 { RD1_E [31:0] $end
$var reg 32 | RD2_E [31:0] $end
$var reg 5 } Rd_E [4:0] $end
$var reg 5 ~ Rs_E [4:0] $end
$var reg 5 !" Rt_E [4:0] $end
$var reg 32 "" SignImm_E [31:0] $end
$var reg 2 #" WB_E [1:0] $end
$upscope $end
$scope module IfId $end
$var wire 1 ! PCSrcD $end
$var wire 1 ` clk $end
$var wire 1 > StallD $end
$var wire 32 $" PC_Plus4_F [31:0] $end
$var wire 32 %" PC_F [31:0] $end
$var wire 32 &" Instr_F [31:0] $end
$var reg 32 '" Instr_D [31:0] $end
$var reg 32 (" PC_D [31:0] $end
$var reg 32 )" PC_Plus4_D [31:0] $end
$upscope $end
$scope module JumpAddr_block $end
$var wire 32 *" PCplus4 [31:0] $end
$var wire 32 +" instr [31:0] $end
$var wire 32 ," jumpAddr [31:0] $end
$upscope $end
$scope module MemWb $end
$var wire 32 -" ALUOut_M [31:0] $end
$var wire 2 ." WB_M [1:0] $end
$var wire 5 /" WriteReg_M [4:0] $end
$var wire 1 ` clk $end
$var wire 32 0" ReadData_M [31:0] $end
$var reg 32 1" ALUOut_W [31:0] $end
$var reg 32 2" ReadData_W [31:0] $end
$var reg 2 3" WB_W [1:0] $end
$var reg 5 4" WriteReg_W [4:0] $end
$upscope $end
$scope module MuxRD1 $end
$var wire 32 5" mux_in_1 [31:0] $end
$var wire 1 U select $end
$var wire 32 6" mux_in_0 [31:0] $end
$var reg 32 7" mux_out [31:0] $end
$upscope $end
$scope module MuxRD2 $end
$var wire 32 8" mux_in_1 [31:0] $end
$var wire 1 S select $end
$var wire 32 9" mux_in_0 [31:0] $end
$var reg 32 :" mux_out [31:0] $end
$upscope $end
$scope module PC_block $end
$var wire 1 ` clk $end
$var wire 32 ;" nextPC [31:0] $end
$var wire 1 = StallF $end
$var reg 32 <" currPC [31:0] $end
$upscope $end
$scope module PCadd4 $end
$var wire 32 =" currPC [31:0] $end
$var wire 32 >" PCplus4 [31:0] $end
$upscope $end
$scope module aluMux $end
$var wire 32 ?" mux_in_1 [31:0] $end
$var wire 1 @" select $end
$var wire 32 A" mux_in_0 [31:0] $end
$var reg 32 B" mux_out [31:0] $end
$upscope $end
$scope module aluSrcAMux $end
$var wire 32 C" mux_in_0 [31:0] $end
$var wire 32 D" mux_in_2 [31:0] $end
$var wire 2 E" select [1:0] $end
$var wire 32 F" mux_in_1 [31:0] $end
$var reg 32 G" mux_out [31:0] $end
$upscope $end
$scope module aluSrcBMux $end
$var wire 32 H" mux_in_0 [31:0] $end
$var wire 32 I" mux_in_2 [31:0] $end
$var wire 2 J" select [1:0] $end
$var wire 32 K" mux_in_1 [31:0] $end
$var reg 32 L" mux_out [31:0] $end
$upscope $end
$scope module branchAdder $end
$var wire 32 M" PC_Plus4 [31:0] $end
$var wire 32 N" signExtendedImmediate [31:0] $end
$var reg 32 O" out [31:0] $end
$upscope $end
$scope module branchMux $end
$var wire 32 P" mux_in_1 [31:0] $end
$var wire 1 ! select $end
$var wire 32 Q" mux_in_0 [31:0] $end
$var reg 32 R" mux_out [31:0] $end
$upscope $end
$scope module branch_control $end
$var wire 1 W zero $end
$var wire 1 Z branch $end
$var reg 1 S" and_out $end
$upscope $end
$scope module control_block $end
$var wire 32 T" instr [31:0] $end
$var reg 3 U" ALUop [2:0] $end
$var reg 1 V" ALUsrc $end
$var reg 1 Z Branch $end
$var reg 5 W" EX_D [4:0] $end
$var reg 1 0 Jump $end
$var reg 2 X" MEM_D [1:0] $end
$var reg 1 Y" MemRead $end
$var reg 1 Z" MemToReg $end
$var reg 1 [" MemWrite $end
$var reg 1 \" RegDst $end
$var reg 1 ]" RegWrite $end
$var reg 2 ^" WB_D [1:0] $end
$var reg 1 3 jal_control $end
$var reg 1 1 jr_control $end
$var reg 1 ' syscall_control $end
$upscope $end
$scope module dataMem $end
$var wire 32 _" SyscallRead [31:0] $end
$var wire 32 `" address [31:0] $end
$var wire 1 ` clk $end
$var wire 1 a" memRead $end
$var wire 1 b" memWrite $end
$var wire 32 c" writeData [31:0] $end
$var reg 32 d" readData [31:0] $end
$upscope $end
$scope module hazard $end
$var wire 1 Z BranchD $end
$var wire 1 e" MemReadE $end
$var wire 1 f" MemReadM $end
$var wire 1 g" MemtoRegE $end
$var wire 1 h" MemtoRegM $end
$var wire 1 i" RegWriteE $end
$var wire 1 j" RegWriteM $end
$var wire 1 k" RegWriteW $end
$var wire 5 l" RsD [4:0] $end
$var wire 5 m" RsE [4:0] $end
$var wire 5 n" RtD [4:0] $end
$var wire 5 o" RtE [4:0] $end
$var wire 5 p" WriteRegM [4:0] $end
$var wire 5 q" WriteRegW [4:0] $end
$var wire 5 r" WriteRegE [4:0] $end
$var reg 1 V FlushE $end
$var reg 1 U ForwardAD $end
$var reg 2 s" ForwardAE [1:0] $end
$var reg 1 S ForwardBD $end
$var reg 2 t" ForwardBE [1:0] $end
$var reg 1 > StallD $end
$var reg 1 = StallF $end
$var reg 1 u" branchstall $end
$var reg 1 v" lwstall $end
$upscope $end
$scope module instructionMemory $end
$var wire 32 w" currPC [31:0] $end
$var reg 32 x" instr [31:0] $end
$var reg 32 y" number_instructions [31:0] $end
$upscope $end
$scope module jrMux $end
$var wire 32 z" mux_in_0 [31:0] $end
$var wire 1 1 select $end
$var wire 32 {" mux_in_1 [31:0] $end
$var reg 32 |" mux_out [31:0] $end
$upscope $end
$scope module jumpMux $end
$var wire 32 }" mux_in_0 [31:0] $end
$var wire 32 ~" mux_in_1 [31:0] $end
$var wire 1 0 select $end
$var reg 32 !# mux_out [31:0] $end
$upscope $end
$scope module memToRegMux $end
$var wire 32 "# mux_in_0 [31:0] $end
$var wire 32 ## mux_in_1 [31:0] $end
$var wire 1 $# select $end
$var reg 32 %# mux_out [31:0] $end
$upscope $end
$scope module regEqual $end
$var wire 32 &# input1 [31:0] $end
$var wire 32 '# input2 [31:0] $end
$var reg 1 W equalD $end
$upscope $end
$scope module reg_block $end
$var wire 1 (# RegWrite $end
$var wire 32 )# a0 [31:0] $end
$var wire 1 ` clk $end
$var wire 32 *# jal_address [31:0] $end
$var wire 1 3 jal_control $end
$var wire 32 +# ra [31:0] $end
$var wire 5 ,# readReg1 [4:0] $end
$var wire 5 -# readReg2 [4:0] $end
$var wire 32 .# v0 [31:0] $end
$var wire 32 /# writeData [31:0] $end
$var wire 5 0# writeReg [4:0] $end
$var reg 32 1# readData1 [31:0] $end
$var reg 32 2# readData2 [31:0] $end
$var integer 32 3# i [31:0] $end
$upscope $end
$scope module registerMux $end
$var wire 5 4# mux_in_0 [4:0] $end
$var wire 5 5# mux_in_1 [4:0] $end
$var wire 1 6# select $end
$var reg 5 7# mux_out [4:0] $end
$upscope $end
$scope module runStats $end
$var wire 1 ` clk $end
$var wire 32 8# number_instructions [31:0] $end
$var wire 1 ( stat_control $end
$var reg 32 9# number_cycles [31:0] $end
$upscope $end
$scope module signExtend_block $end
$var wire 32 :# instr [31:0] $end
$var reg 32 ;# out_value [31:0] $end
$upscope $end
$scope module testSyscall $end
$var wire 32 <# a0 [31:0] $end
$var wire 1 ' syscall_control $end
$var wire 32 =# v0 [31:0] $end
$var reg 1 ( stat_control $end
$upscope $end
$upscope $end
$enddefinitions $end
#0
$dumpvars
b0 =#
b0 <#
b1 ;#
b100100000010000000000000000001 :#
b1 9#
b1 8#
bx 7#
x6#
bx 5#
bx 4#
b100000 3#
b0 2#
b0 1#
bx 0#
bx /#
b0 .#
b1000 -#
b0 ,#
b0 +#
b10000000000000000101000 *#
b0 )#
1(#
bx '#
b0 &#
bx %#
x$#
bx ##
bx "#
b10000000000000000100100 !#
b1000000000000000000100 ~"
b10000000000000000100100 }"
b10000000000000000100100 |"
b0 {"
b10000000000000000100100 z"
b1 y"
b100100000010000000000000000001 x"
b10000000000000000100000 w"
xv"
0u"
b0 t"
b0 s"
bx r"
bx q"
bx p"
bx o"
b1000 n"
bx m"
b0 l"
xk"
xj"
xi"
xh"
xg"
xf"
xe"
bx d"
b0 c"
xb"
xa"
bx `"
bz _"
b10 ^"
1]"
0\"
0["
0Z"
0Y"
b0 X"
b1010 W"
1V"
b10 U"
b100100000010000000000000000001 T"
0S"
b10000000000000000100100 R"
b10000000000000000100100 Q"
b10000000000000000101000 P"
b10000000000000000101000 O"
b1 N"
b10000000000000000100100 M"
bx L"
bx K"
b0 J"
bx I"
bx H"
bx G"
bx F"
b0 E"
bx D"
bx C"
bx B"
bx A"
x@"
bx ?"
b10000000000000000100100 >"
b10000000000000000100000 ="
b10000000000000000100000 <"
b10000000000000000100100 ;"
bx :"
b0 9"
bx 8"
b0 7"
b0 6"
bx 5"
bx 4"
bx 3"
bx 2"
bx 1"
bx 0"
bx /"
bx ."
bx -"
b1000000000000000000100 ,"
b100100000010000000000000000001 +"
b10000000000000000100100 *"
b10000000000000000100100 )"
b10000000000000000100000 ("
b100100000010000000000000000001 '"
b100100000010000000000000000001 &"
b10000000000000000100000 %"
b10000000000000000100100 $"
bx #"
bx ""
bx !"
bx ~
bx }
bx |
bx {
bx z
bx y
b1010 x
b0 w
b0 v
b0 u
b1 t
b10 s
b1000 r
b0 q
b0 p
bx o
b0 n
bx m
bx l
bx k
bx j
bx i
bx h
bx g
zf
bx e
bx d
bx c
bx b
bx a
1`
bx _
bx ^
bx ]
b0 \
bx [
0Z
b1010 Y
bx X
0W
xV
0U
b0 T
xS
b0 R
b0 Q
bx P
bx O
b10000000000000000100100 N
b10000000000000000101000 M
b10000000000000000100100 L
b10000000000000000100100 K
b10000000000000000100000 J
b10000000000000000100000 I
b0 H
bx G
b0 F
bx E
bx D
bx C
bx B
bx A
bx @
bx ?
x>
x=
b10 <
bx ;
bx :
bx 9
bx 8
b0 7
b10000000000000000100100 6
b100100000010000000000000000001 5
b100100000010000000000000000001 4
03
b10000000000000000100100 2
01
00
b1000000000000000000100 /
b1 .
b0 -
bx ,
bx +
b1 *
bx )
0(
0'
b0 &
b0 %
bx $
bx #
bx "
0!
$end
#10
0`
#20
b1 _
b1 d
b1 e
b1 ?
b1 b
b1 B"
b0 8
b0 h
b0 A"
b0 L"
b0 @
b0 c
b0 G"
b1000 $
b1000 g
b1000 r"
b1000 7#
0V
0>
0=
0v"
1i"
0g"
0e"
b10 a
1@"
06#
b1 )
b1 ""
b1 ?"
b0 E
b0 |
b0 H"
b0 G
b0 {
b0 C"
b0 D
b0 }
b0 5#
b1000 A
b1000 !"
b1000 o"
b1000 4#
b0 B
b0 ~
b0 m"
b10 ;
b10 i
b10 #"
b0 P
b0 j
b0 z
b1010 X
b1010 y
b10 9#
1`
#30
0`
#40
b1 8
b1 h
b1 A"
b1 L"
b10 R
b10 J"
b10 t"
1S
b1 [
b1 :"
b1 '#
1j"
0h"
0a"
0b"
0f"
b1000 #
b1000 o
b1000 /"
b1000 p"
b1 ^
b1 k
b1 -"
b1 5"
b1 8"
b1 D"
b1 I"
b1 `"
b10 :
b10 m
b10 ."
b0 O
b0 l
b10000000000000000101000 N
b10000000000000000101000 ;"
b10000000000000000101000 !#
b10000000000000000101000 6
b10000000000000000101000 R"
b10000000000000000101000 }"
b10000000000000000101000 2
b10000000000000000101000 Q"
b10000000000000000101000 |"
b10 .
b10 y"
b10 8#
b100100000010010000000000000010 4
b100100000010010000000000000010 &"
b100100000010010000000000000010 x"
b10000000000000000101000 K
b10000000000000000101000 $"
b10000000000000000101000 >"
b10000000000000000101000 z"
b10000000000000000100100 I
b10000000000000000100100 %"
b10000000000000000100100 <"
b10000000000000000100100 ="
b10000000000000000100100 w"
b11 9#
1`
#50
0`
#60
1W
b0 [
b0 :"
b0 '#
b1001000000000000001000 /
b1001000000000000001000 ,"
b1001000000000000001000 ~"
b1 C
b1 F"
b1 K"
b1 %#
b1 /#
0$#
1k"
0S
b10000000000000000110100 M
b10000000000000000110100 O"
b10000000000000000110100 P"
1V"
1]"
b10 U"
b10 *
b10 t
b10 N"
b10 ;#
b1001 r
b1001 -#
b1001 n"
b1000 "
b1000 4"
b1000 q"
b1000 0#
b1 ]
b1 1"
b1 "#
b10 9
b10 3"
b1000 #
b1000 o
b1000 /"
b1000 p"
b10000000000000000101100 L
b10000000000000000101100 )"
b10000000000000000101100 *"
b10000000000000000101100 M"
b100100000010010000000000000010 5
b100100000010010000000000000010 '"
b100100000010010000000000000010 +"
b100100000010010000000000000010 T"
b100100000010010000000000000010 :#
b10000000000000000110000 *#
b10000000000000000101000 J
b10000000000000000101000 ("
b10000000000000000101100 N
b10000000000000000101100 ;"
b10000000000000000101100 !#
b10000000000000000101100 6
b10000000000000000101100 R"
b10000000000000000101100 }"
b10000000000000000101100 2
b10000000000000000101100 Q"
b10000000000000000101100 |"
b11 .
b11 y"
b11 8#
b100100000000100000000000000001 4
b100100000000100000000000000001 &"
b100100000000100000000000000001 x"
b100 9#
b10000000000000000101100 K
b10000000000000000101100 $"
b10000000000000000101100 >"
b10000000000000000101100 z"
b10000000000000000101000 I
b10000000000000000101000 %"
b10000000000000000101000 <"
b10000000000000000101000 ="
b10000000000000000101000 w"
1`
#70
0`
#80
b10000000000000000100 /
b10000000000000000100 ,"
b10000000000000000100 ~"
b10000000000000000110000 M
b10000000000000000110000 O"
b10000000000000000110000 P"
b10 _
b10 d
b10 e
b0 8
b0 h
b0 A"
b0 L"
b1 *
b1 t
b1 N"
b1 ;#
1V"
1]"
b10 U"
b10 r
b10 -#
b10 n"
b10 ?
b10 b
b10 B"
b1001 $
b1001 g
b1001 r"
b1001 7#
b0 R
b0 J"
b0 t"
b100100000000100000000000000001 5
b100100000000100000000000000001 '"
b100100000000100000000000000001 +"
b100100000000100000000000000001 T"
b100100000000100000000000000001 :#
b10 )
b10 ""
b10 ?"
b1001 A
b1001 !"
b1001 o"
b1001 4#
b1000 #
b1000 o
b1000 /"
b1000 p"
b10000000000000000110000 N
b10000000000000000110000 ;"
b10000000000000000110000 !#
b10000000000000000110000 6
b10000000000000000110000 R"
b10000000000000000110000 }"
b10000000000000000110000 2
b10000000000000000110000 Q"
b10000000000000000110000 |"
b100 .
b100 y"
b100 8#
b1001010000010000000100000 4
b1001010000010000000100000 &"
b1001010000010000000100000 x"
b10000000000000000110000 K
b10000000000000000110000 $"
b10000000000000000110000 >"
b10000000000000000110000 z"
b10000000000000000101100 I
b10000000000000000101100 %"
b10000000000000000101100 <"
b10000000000000000101100 ="
b10000000000000000101100 w"
b101 9#
1`
#90
0`
#100
b1 [
b1 :"
b1 '#
0W
b1 _
b1 d
b1 e
b101000001000000010000000 /
b101000001000000010000000 ,"
b101000001000000010000000 ~"
b1 F
b1 u
b1 9"
b1 2#
b10 \
b10 7"
b10 &#
b1 ?
b1 b
b1 B"
1U
b10 $
b10 g
b10 r"
b10 7#
b10000001000000010110100 M
b10000001000000010110100 O"
b10000001000000010110100 P"
b10010 Y
b10010 x
b10010 W"
1\"
0V"
1]"
b10 U"
b10000000100000 *
b10000000100000 t
b10000000100000 N"
b10000000100000 ;#
b100 p
b1000 r
b1001 q
b1000 -#
b1001 ,#
b1000 n"
b1001 l"
b1001 #
b1001 o
b1001 /"
b1001 p"
b10 ^
b10 k
b10 -"
b10 5"
b10 8"
b10 D"
b10 I"
b10 `"
b1 )
b1 ""
b1 ?"
b10 A
b10 !"
b10 o"
b10 4#
b10000000000000000110100 L
b10000000000000000110100 )"
b10000000000000000110100 *"
b10000000000000000110100 M"
b1001010000010000000100000 5
b1001010000010000000100000 '"
b1001010000010000000100000 +"
b1001010000010000000100000 T"
b1001010000010000000100000 :#
b10000000000000000111000 *#
b10000000000000000110000 J
b10000000000000000110000 ("
b10000000000000000110100 N
b10000000000000000110100 ;"
b10000000000000000110100 !#
b10000000000000000110100 6
b10000000000000000110100 R"
b10000000000000000110100 }"
b10000000000000000110100 2
b10000000000000000110100 Q"
b10000000000000000110100 |"
b101 .
b101 y"
b101 8#
b1100 4
b1100 &"
b1100 x"
b110 9#
b10000000000000000110100 K
b10000000000000000110100 $"
b10000000000000000110100 >"
b10000000000000000110100 z"
b10000000000000000110000 I
b10000000000000000110000 %"
b10000000000000000110000 <"
b10000000000000000110000 ="
b10000000000000000110000 w"
1`
#110
0`
#120
1W
b0 [
b0 :"
b0 '#
b110000 /
b110000 ,"
b110000 ~"
b10000000000000001100100 M
b10000000000000001100100 O"
b10000000000000001100100 P"
b0 F
b0 u
b0 9"
b0 2#
b11 _
b11 d
b11 e
b1100 *
b1100 t
b1100 N"
b1100 ;#
b10000 Y
b10000 x
b10000 W"
1'
1]"
b0 U"
1\"
b0 p
b0 r
b0 q
b0 -#
b0 ,#
b0 n"
b0 l"
b100 $
b100 g
b100 r"
b100 7#
0@"
16#
b0 \
b0 7"
b0 &#
b10 @
b10 c
b10 G"
b1 8
b1 h
b1 A"
b1 L"
b1 T
b1 E"
b1 s"
0U
b10 C
b10 F"
b10 K"
b10 %#
b10 /#
b1100 5
b1100 '"
b1100 +"
b1100 T"
b1100 :#
b10000000100000 )
b10000000100000 ""
b10000000100000 ?"
b1 E
b1 |
b1 H"
b100 D
b100 }
b100 5#
b1000 A
b1000 !"
b1000 o"
b1000 4#
b1001 B
b1001 ~
b1001 m"
b10010 X
b10010 y
b10 #
b10 o
b10 /"
b10 p"
b1 ^
b1 k
b1 -"
b1 5"
b1 8"
b1 D"
b1 I"
b1 `"
b1001 "
b1001 4"
b1001 q"
b1001 0#
b10 ]
b10 1"
b10 "#
b10000000000000000111000 N
b10000000000000000111000 ;"
b10000000000000000111000 !#
b10000000000000000111000 6
b10000000000000000111000 R"
b10000000000000000111000 }"
b10000000000000000111000 2
b10000000000000000111000 Q"
b10000000000000000111000 |"
b110 .
b110 y"
b110 8#
b100100000000100000000000001010 4
b100100000000100000000000001010 &"
b100100000000100000000000001010 x"
b10000000000000000111000 K
b10000000000000000111000 $"
b10000000000000000111000 >"
b10000000000000000111000 z"
b10000000000000000110100 I
b10000000000000000110100 %"
b10000000000000000110100 <"
b10000000000000000110100 ="
b10000000000000000110100 w"
b111 9#
1`
#130
0`
#140
b0 _
b0 d
b0 e
b10000000000000101000 /
b10000000000000101000 ,"
b10000000000000101000 ~"
b1 C
b1 F"
b1 K"
b1 %#
b1 /#
b0 @
b0 c
b0 G"
b0 ?
b0 b
b0 B"
b0 8
b0 h
b0 A"
b0 L"
b0 $
b0 g
b0 r"
b0 7#
b0 T
b0 E"
b0 s"
b0 a
b1010 Y
b1010 x
b1010 W"
1V"
b10 U"
0'
1]"
0\"
b1010 *
b1010 t
b1010 N"
b1010 ;#
b10 r
b10 -#
b10 n"
b10 "
b10 4"
b10 q"
b10 0#
b1 ]
b1 1"
b1 "#
b100 #
b100 o
b100 /"
b100 p"
b11 ^
b11 k
b11 -"
b11 5"
b11 8"
b11 D"
b11 I"
b11 `"
b1100 )
b1100 ""
b1100 ?"
b0 E
b0 |
b0 H"
b0 D
b0 }
b0 5#
b0 A
b0 !"
b0 o"
b0 4#
b0 B
b0 ~
b0 m"
b10000 X
b10000 y
b10000000000000000111100 L
b10000000000000000111100 )"
b10000000000000000111100 *"
b10000000000000000111100 M"
b100100000000100000000000001010 5
b100100000000100000000000001010 '"
b100100000000100000000000001010 +"
b100100000000100000000000001010 T"
b100100000000100000000000001010 :#
b10000000000000001000000 *#
b10000000000000000111000 J
b10000000000000000111000 ("
b10000000000000000111100 N
b10000000000000000111100 ;"
b10000000000000000111100 !#
b10000000000000000111100 6
b10000000000000000111100 R"
b10000000000000000111100 }"
b10000000000000000111100 2
b10000000000000000111100 Q"
b10000000000000000111100 |"
b111 .
b111 y"
b111 8#
b1100 4
b1100 &"
b1100 x"
b1000 9#
b10000000000000000111100 K
b10000000000000000111100 $"
b10000000000000000111100 >"
b10000000000000000111100 z"
b10000000000000000111000 I
b10000000000000000111000 %"
b10000000000000000111000 <"
b10000000000000000111000 ="
b10000000000000000111000 w"
1`
#150
b1 &
b1 .#
b1 =#
0`
#160
b110000 /
b110000 ,"
b110000 ~"
b10000000000000001101100 M
b10000000000000001101100 O"
b10000000000000001101100 P"
b1010 _
b1010 d
b1010 e
b1100 *
b1100 t
b1100 N"
b1100 ;#
b10000 Y
b10000 x
b10000 W"
1'
1\"
0V"
1]"
b0 U"
b0 r
b0 -#
b0 n"
b1010 ?
b1010 b
b1010 B"
b10 $
b10 g
b10 r"
b10 7#
b10 a
1@"
06#
b11 C
b11 F"
b11 K"
b11 %#
b11 /#
b1100 5
b1100 '"
b1100 +"
b1100 T"
b1100 :#
b1010 )
b1010 ""
b1010 ?"
b10 A
b10 !"
b10 o"
b10 4#
b1010 X
b1010 y
b0 #
b0 o
b0 /"
b0 p"
b0 ^
b0 k
b0 -"
b0 5"
b0 8"
b0 D"
b0 I"
b0 `"
b100 "
b100 4"
b100 q"
b100 0#
b11 ]
b11 1"
b11 "#
b10000000000000001000000 N
b10000000000000001000000 ;"
b10000000000000001000000 !#
b10000000000000001000000 6
b10000000000000001000000 R"
b10000000000000001000000 }"
b10000000000000001000000 2
b10000000000000001000000 Q"
b10000000000000001000000 |"
b1000 .
b1000 y"
b1000 8#
b0 4
b0 &"
b0 x"
b10000000000000001000000 K
b10000000000000001000000 $"
b10000000000000001000000 >"
b10000000000000001000000 z"
b10000000000000000111100 I
b10000000000000000111100 %"
b10000000000000000111100 <"
b10000000000000000111100 ="
b10000000000000000111100 w"
b1001 9#
1`
#170
b11 7
b11 )#
b11 <#
0`
#180
b0 _
b0 d
b0 e
b0 /
b0 ,"
b0 ~"
b0 C
b0 F"
b0 K"
b0 %#
b0 /#
b0 ?
b0 b
b0 B"
b0 $
b0 g
b0 r"
b0 7#
b0 a
0@"
16#
b10000000000000001000100 M
b10000000000000001000100 O"
b10000000000000001000100 P"
b10xxx Y
b10xxx x
b10xxx W"
bx U"
0'
1]"
1\"
b0 *
b0 t
b0 N"
b0 ;#
b0 "
b0 4"
b0 q"
b0 0#
b0 ]
b0 1"
b0 "#
b10 #
b10 o
b10 /"
b10 p"
b1010 ^
b1010 k
b1010 -"
b1010 5"
b1010 8"
b1010 D"
b1010 I"
b1010 `"
b1100 )
b1100 ""
b1100 ?"
b0 A
b0 !"
b0 o"
b0 4#
b10000 X
b10000 y
b10000000000000001000100 L
b10000000000000001000100 )"
b10000000000000001000100 *"
b10000000000000001000100 M"
b0 5
b0 '"
b0 +"
b0 T"
b0 :#
b10000000000000001001000 *#
b10000000000000001000000 J
b10000000000000001000000 ("
b10000000000000001000100 N
b10000000000000001000100 ;"
b10000000000000001000100 !#
b10000000000000001000100 6
b10000000000000001000100 R"
b10000000000000001000100 }"
b10000000000000001000100 2
b10000000000000001000100 Q"
b10000000000000001000100 |"
b1001 .
b1001 y"
b1001 8#
bx 4
bx &"
bx x"
b1010 9#
b10000000000000001000100 K
b10000000000000001000100 $"
b10000000000000001000100 >"
b10000000000000001000100 z"
b10000000000000001000000 I
b10000000000000001000000 %"
b10000000000000001000000 <"
b10000000000000001000000 ="
b10000000000000001000000 w"
1`
#190
0`
#200
b0xxxxxxxxxxxxxxxxxxxxxxxx00 /
b0xxxxxxxxxxxxxxxxxxxxxxxx00 ,"
b0xxxxxxxxxxxxxxxxxxxxxxxx00 ~"
bx M
bx O"
bx P"
bx F
bx u
bx 9"
bx 2#
bx H
bx v
bx 6"
bx 1#
xS
xU
bx *
bx t
bx N"
bx ;#
0]"
b0 U"
0\"
bx p
bx r
bx q
bx -#
bx ,#
bx n"
bx l"
bx a
b1010 C
b1010 F"
b1010 K"
b1010 %#
b1010 /#
bx 5
bx '"
bx +"
bx T"
bx :#
b0 )
b0 ""
b0 ?"
b10xxx X
b10xxx y
b0 #
b0 o
b0 /"
b0 p"
b0 ^
b0 k
b0 -"
b0 5"
b0 8"
b0 D"
b0 I"
b0 `"
b10 "
b10 4"
b10 q"
b10 0#
b1010 ]
b1010 1"
b1010 "#
b1011 9#
1`
