src/testbench.vcd
$date
	Thu Mar  8 12:36:17 2018
$end
$version
	Icarus Verilog
$end
$timescale
	1s
$end
$scope module testbench $end
$var wire 32 ! Result_W [31:0] $end
$var wire 1 " zero $end
$var wire 5 # writeReg_W [4:0] $end
$var wire 5 $ writeReg_M [4:0] $end
$var wire 5 % writeReg_E [4:0] $end
$var wire 32 & writeData_M [31:0] $end
$var wire 32 ' v0 [31:0] $end
$var wire 1 ( syscall_control $end
$var wire 1 ) stat_control $end
$var wire 32 * srcB [31:0] $end
$var wire 32 + signImm_E [31:0] $end
$var wire 32 , signImm_D [31:0] $end
$var wire 32 - readData_W [31:0] $end
$var wire 32 . readData_M [31:0] $end
$var wire 32 / ra [31:0] $end
$var wire 32 0 number_instructions [31:0] $end
$var wire 1 1 jump $end
$var wire 1 2 jr_control $end
$var wire 1 3 jal_control $end
$var wire 32 4 instr_F [31:0] $end
$var wire 32 5 instr_D [31:0] $end
$var wire 1 6 branch $end
$var wire 32 7 a0 [31:0] $end
$var wire 2 8 WB_W [1:0] $end
$var wire 2 9 WB_M [1:0] $end
$var wire 2 : WB_E [1:0] $end
$var wire 2 ; WB_D [1:0] $end
$var wire 5 < Rt_E [4:0] $end
$var wire 5 = Rs_E [4:0] $end
$var wire 1 > ResultW $end
$var wire 5 ? Rd_E [4:0] $end
$var wire 32 @ RD2_E [31:0] $end
$var wire 32 A RD2_D [31:0] $end
$var wire 32 B RD1_E [31:0] $end
$var wire 32 C RD1_D [31:0] $end
$var wire 32 D PC_F [31:0] $end
$var wire 32 E PC_D [31:0] $end
$var wire 1 F PCSrc_D $end
$var wire 32 G PCPlus4_F [31:0] $end
$var wire 32 H PCPlus4_D [31:0] $end
$var wire 32 I PCBranch_D [31:0] $end
$var wire 32 J Next_PC [31:0] $end
$var wire 3 K MEM_M [2:0] $end
$var wire 3 L MEM_E [2:0] $end
$var wire 3 M MEM_D [2:0] $end
$var wire 5 N EX_E [4:0] $end
$var wire 5 O EX_D [4:0] $end
$var wire 32 P ALUOut_W [31:0] $end
$var wire 32 Q ALUOut_M [31:0] $end
$var wire 32 R ALUOut_E [31:0] $end
$var reg 1 S clk $end
$scope module ALU_block $end
$var wire 3 T ALUop [2:0] $end
$var wire 32 U reg2 [31:0] $end
$var wire 32 V reg1 [31:0] $end
$var reg 32 W ALUresult [31:0] $end
$var reg 1 " zero $end
$upscope $end
$scope module ExMem $end
$var wire 32 X ALUOut_E [31:0] $end
$var wire 2 Y MEM_E [1:0] $end
$var wire 1 S clk $end
$var wire 5 Z WriteReg_E [4:0] $end
$var wire 32 [ WriteData_E [31:0] $end
$var wire 2 \ WB_E [1:0] $end
$var reg 32 ] ALUOut_M [31:0] $end
$var reg 2 ^ MEM_M [1:0] $end
$var reg 2 _ WB_M [1:0] $end
$var reg 32 ` WriteData_M [31:0] $end
$var reg 5 a WriteReg_M [4:0] $end
$upscope $end
$scope module IdEx $end
$var wire 2 b MEM_D [1:0] $end
$var wire 5 c Rd_D [4:0] $end
$var wire 5 d Rs_D [4:0] $end
$var wire 5 e Rt_D [4:0] $end
$var wire 1 S clk $end
$var wire 2 f WB_D [1:0] $end
$var wire 32 g SignImm_D [31:0] $end
$var wire 32 h RD2_D [31:0] $end
$var wire 32 i RD1_D [31:0] $end
$var wire 5 j EX_D [4:0] $end
$var reg 5 k EX_E [4:0] $end
$var reg 2 l MEM_E [1:0] $end
$var reg 32 m RD1_E [31:0] $end
$var reg 32 n RD2_E [31:0] $end
$var reg 5 o Rd_E [4:0] $end
$var reg 5 p Rs_E [4:0] $end
$var reg 5 q Rt_E [4:0] $end
$var reg 32 r SignImm_E [31:0] $end
$var reg 2 s WB_E [1:0] $end
$upscope $end
$scope module IfId $end
$var wire 1 S clk $end
$var wire 32 t PC_Plus4_F [31:0] $end
$var wire 32 u PC_F [31:0] $end
$var wire 1 F PCSrcD $end
$var wire 32 v Instr_F [31:0] $end
$var reg 32 w Instr_D [31:0] $end
$var reg 32 x PC_D [31:0] $end
$var reg 32 y PC_Plus4_D [31:0] $end
$upscope $end
$scope module MemWb $end
$var wire 32 z ALUOut_M [31:0] $end
$var wire 2 { WB_M [1:0] $end
$var wire 5 | WriteReg_M [4:0] $end
$var wire 1 S clk $end
$var wire 32 } ReadData_M [31:0] $end
$var reg 32 ~ ALUOut_W [31:0] $end
$var reg 32 !" ReadData_W [31:0] $end
$var reg 2 "" WB_W [1:0] $end
$var reg 5 #" WriteReg_W [4:0] $end
$upscope $end
$scope module PC_block $end
$var wire 1 S clk $end
$var wire 32 $" nextPC [31:0] $end
$var reg 32 %" currPC [31:0] $end
$upscope $end
$scope module PCadd4 $end
$var wire 32 &" currPC [31:0] $end
$var wire 32 '" PCplus4 [31:0] $end
$upscope $end
$scope module aluMux $end
$var wire 32 (" mux_in_0 [31:0] $end
$var wire 32 )" mux_in_1 [31:0] $end
$var wire 1 *" select $end
$var reg 32 +" mux_out [31:0] $end
$upscope $end
$scope module branchAdder $end
$var wire 32 ," PC_Plus4 [31:0] $end
$var wire 32 -" signExtendedImmediate [31:0] $end
$var reg 32 ." out [31:0] $end
$upscope $end
$scope module branchMux $end
$var wire 32 /" mux_in_0 [31:0] $end
$var wire 32 0" mux_in_1 [31:0] $end
$var wire 1 F select $end
$var reg 32 1" mux_out [31:0] $end
$upscope $end
$scope module branch_control $end
$var wire 1 " zero $end
$var wire 1 6 branch $end
$var reg 1 F and_out $end
$upscope $end
$scope module control_block $end
$var wire 32 2" instr [31:0] $end
$var reg 3 3" ALUop [2:0] $end
$var reg 1 4" ALUsrc $end
$var reg 1 5" Branch $end
$var reg 5 6" EX_D [4:0] $end
$var reg 1 7" Jump $end
$var reg 2 8" MEM_D [1:0] $end
$var reg 1 9" MemRead $end
$var reg 1 :" MemToReg $end
$var reg 1 ;" MemWrite $end
$var reg 1 <" RegDst $end
$var reg 1 =" RegWrite $end
$var reg 2 >" WB_D [1:0] $end
$var reg 1 6 branch $end
$var reg 1 3 jal_control $end
$var reg 1 2 jr_control $end
$var reg 1 1 jump $end
$var reg 1 ( syscall_control $end
$upscope $end
$scope module dataMem $end
$var wire 32 ?" address [31:0] $end
$var wire 1 S clk $end
$var wire 1 @" memRead $end
$var wire 1 A" memWrite $end
$var wire 32 B" writeData [31:0] $end
$var reg 32 C" readData [31:0] $end
$upscope $end
$scope module instructionMemory $end
$var wire 32 D" currPC [31:0] $end
$var reg 32 E" instr [31:0] $end
$var reg 32 F" number_instructions [31:0] $end
$upscope $end
$scope module memToRegMux $end
$var wire 32 G" mux_in_0 [31:0] $end
$var wire 32 H" mux_in_1 [31:0] $end
$var wire 1 I" select $end
$var reg 32 J" mux_out [31:0] $end
$upscope $end
$scope module reg_block $end
$var wire 1 K" RegWrite $end
$var wire 32 L" a0 [31:0] $end
$var wire 1 S clk $end
$var wire 32 M" jal_address [31:0] $end
$var wire 1 3 jal_control $end
$var wire 32 N" ra [31:0] $end
$var wire 5 O" readReg1 [4:0] $end
$var wire 5 P" readReg2 [4:0] $end
$var wire 32 Q" v0 [31:0] $end
$var wire 32 R" writeData [31:0] $end
$var wire 5 S" writeReg [4:0] $end
$var reg 32 T" readData1 [31:0] $end
$var reg 32 U" readData2 [31:0] $end
$var integer 32 V" i [31:0] $end
$upscope $end
$scope module registerMux $end
$var wire 5 W" mux_in_0 [4:0] $end
$var wire 5 X" mux_in_1 [4:0] $end
$var wire 1 Y" select $end
$var reg 5 Z" mux_out [4:0] $end
$upscope $end
$scope module runStats $end
$var wire 1 S clk $end
$var wire 32 [" number_instructions [31:0] $end
$var wire 1 ) stat_control $end
$var reg 32 \" number_cycles [31:0] $end
$upscope $end
$scope module signExtend_block $end
$var wire 32 ]" instr [31:0] $end
$var reg 32 ^" out_value [31:0] $end
$upscope $end
$scope module testSyscall $end
$var wire 32 _" a0 [31:0] $end
$var wire 1 ( syscall_control $end
$var wire 32 `" v0 [31:0] $end
$var reg 1 ) stat_control $end
$upscope $end
$upscope $end
$enddefinitions $end
#0
$dumpvars
b0 `"
b0 _"
b0 ^"
b0 ]"
b1 \"
b1 ["
b0 Z"
1Y"
b0 X"
b0 W"
b100000 V"
b0 U"
b0 T"
b0 S"
bz R"
b0 Q"
b0 P"
b0 O"
b0 N"
b1000 M"
b0 L"
1K"
b0 J"
0I"
bx H"
b0 G"
b1 F"
b100100000010000000000000000001 E"
b10000000000000000100000 D"
bx C"
b0 B"
0A"
0@"
b0 ?"
b10 >"
1="
1<"
0;"
0:"
09"
b0 8"
07"
b10xxx 6"
05"
04"
bx 3"
b0 2"
b0z 1"
b0 0"
b0z /"
b0 ."
b0 -"
b0 ,"
bx +"
0*"
b0 )"
bx ("
b10000000000000000100100 '"
b10000000000000000100000 &"
b10000000000000000100000 %"
b0z $"
b0 #"
b0 ""
bx !"
b0 ~
bx }
b0 |
b0 {
b0 z
b0 y
b0 x
b0 w
b100100000010000000000000000001 v
b10000000000000000100000 u
b10000000000000000100100 t
b10 s
b0 r
b0 q
b0 p
b0 o
bx n
bx m
bx l
b10xxx k
b10xxx j
b0 i
b0 h
b0 g
b10 f
b0 e
b0 d
b0 c
b0 b
b0 a
b0 `
b0 _
b0 ^
b0 ]
b10 \
bx [
b0 Z
bx Y
b0 X
b0 W
bx V
bx U
bx T
1S
b0 R
b0 Q
b0 P
b10xxx O
b10xxx N
b0 M
b0xx L
b0 K
b0z J
b0 I
b0 H
b10000000000000000100100 G
0F
b0 E
b10000000000000000100000 D
b0 C
bx B
b0 A
bx @
b0 ?
0>
b0 =
b0 <
b10 ;
b10 :
b0 9
b0 8
b0 7
x6
b0 5
b100100000010000000000000000001 4
03
02
x1
b1 0
b0 /
bx .
bx -
b0 ,
b0 +
bx *
0)
0(
b0 '
b0 &
b0 %
b0 $
b0 #
1"
bz !
$end
#10
0S
#20
xA"
x@"
b0 *
b0 U
b0 +"
b0 Y
b10 0
b10 F"
b10 ["
bx 4
bx v
bx E"
b10 \"
b10 8
b10 ""
b10 9
b10 _
b10 {
b0xx K
bx ^
b0 @
b0 [
b0 n
b0 ("
b0 B
b0 V
b0 m
b0 L
b0 l
bx G
bx t
bx '"
b0z D
b0z u
b0z %"
b0z &"
b0z D"
1S
#30
0S
#40
0A"
0@"
b0 K
b0 ^
b11 \"
1S
#50
0S
#60
b100 \"
1S
#70
0S
#80
b101 \"
1S
#90
0S
#100
b110 \"
1S
#110
0S
#120
b111 \"
1S
#130
0S
#140
b1000 \"
1S
#150
0S
#160
b1001 \"
1S
#170
0S
#180
b1010 \"
1S
#190
0S
#200
b1011 \"
1S
#210
0S
#220
b1100 \"
1S
#230
0S
#240
b1101 \"
1S
#250
0S
#260
b1110 \"
1S
#270
0S
#280
b1111 \"
1S
#290
0S
#300
b10000 \"
1S
#310
0S
#320
b10001 \"
1S
#330
0S
#340
b10010 \"
1S
#350
0S
#360
b10011 \"
1S
#370
0S
#380
b10100 \"
1S
#390
0S
#400
b10101 \"
1S
#410
0S
#420
b10110 \"
1S
#430
0S
#440
b10111 \"
1S
#450
0S
#460
b11000 \"
1S
#470
0S
#480
b11001 \"
1S
#490
0S
#500
b11010 \"
1S
#510
0S
#520
b11011 \"
1S
#530
0S
#540
b11100 \"
1S
#550
0S
#560
b11101 \"
1S
#570
0S
#580
b11110 \"
1S
#590
0S
#600
b11111 \"
1S
#610
0S
#620
b100000 \"
1S
#630
0S
#640
b100001 \"
1S
#650
0S
#660
b100010 \"
1S
#670
0S
#680
b100011 \"
1S
#690
0S
#700
b100100 \"
1S
#710
0S
#720
b100101 \"
1S
#730
0S
#740
b100110 \"
1S
#750
0S
#760
b100111 \"
1S
#770
0S
#780
b101000 \"
1S
#790
0S
#800
b101001 \"
1S
#810
0S
#820
b101010 \"
1S
#830
0S
#840
b101011 \"
1S
#850
0S
#860
b101100 \"
1S
#870
0S
#880
b101101 \"
1S
#890
0S
#900
b101110 \"
1S
#910
0S
#920
b101111 \"
1S
#930
0S
#940
b110000 \"
1S
#950
0S
#960
b110001 \"
1S
#970
0S
#980
b110010 \"
1S
#990
0S
#1000
b110011 \"
1S
#1010
0S
#1020
b110100 \"
1S
#1030
0S
#1040
b110101 \"
1S
#1050
0S
#1060
b110110 \"
1S
#1070
0S
#1080
b110111 \"
1S
#1090
0S
#1100
b111000 \"
1S
#1110
0S
#1120
b111001 \"
1S
#1130
0S
#1140
b111010 \"
1S
#1150
0S
#1160
b111011 \"
1S
#1170
0S
#1180
b111100 \"
1S
#1190
0S
#1200
b111101 \"
1S
#1210
0S
#1220
b111110 \"
1S
#1230
0S
#1240
b111111 \"
1S
#1250
0S
#1260
b1000000 \"
1S
#1270
0S
#1280
b1000001 \"
1S
#1290
0S
#1300
b1000010 \"
1S
#1310
0S
#1320
b1000011 \"
1S
#1330
0S
#1340
b1000100 \"
1S
#1350
0S
#1360
b1000101 \"
1S
#1370
0S
#1380
b1000110 \"
1S
#1390
0S
#1400
b1000111 \"
1S
#1410
0S
#1420
b1001000 \"
1S
#1430
0S
#1440
b1001001 \"
1S
#1450
0S
#1460
b1001010 \"
1S
#1470
0S
#1480
b1001011 \"
1S
#1490
0S
#1500
b1001100 \"
1S
#1510
0S
#1520
b1001101 \"
1S
#1530
0S
#1540
b1001110 \"
1S
#1550
0S
#1560
b1001111 \"
1S
#1570
0S
#1580
b1010000 \"
1S
#1590
0S
#1600
b1010001 \"
1S
#1610
0S
#1620
b1010010 \"
1S
#1630
0S
#1640
b1010011 \"
1S
#1650
0S
#1660
b1010100 \"
1S
#1670
0S
#1680
b1010101 \"
1S
#1690
0S
#1700
b1010110 \"
1S
#1710
0S
#1720
b1010111 \"
1S
#1730
0S
#1740
b1011000 \"
1S
#1750
0S
#1760
b1011001 \"
1S
#1770
0S
#1780
b1011010 \"
1S
#1790
0S
#1800
b1011011 \"
1S
#1810
0S
#1820
b1011100 \"
1S
#1830
0S
#1840
b1011101 \"
1S
#1850
0S
#1860
b1011110 \"
1S
#1870
0S
#1880
b1011111 \"
1S
#1890
0S
#1900
b1100000 \"
1S
#1910
0S
#1920
b1100001 \"
1S
#1930
0S
#1940
b1100010 \"
1S
#1950
0S
#1960
b1100011 \"
1S
#1970
0S
#1980
b1100100 \"
1S
#1990
0S
#2000
b1100101 \"
1S
#2010
0S
#2020
b1100110 \"
1S
#2030
0S
#2040
b1100111 \"
1S
#2050
0S
#2060
b1101000 \"
1S
#2070
0S
#2080
b1101001 \"
1S
#2090
0S
#2100
b1101010 \"
1S
#2110
0S
#2120
b1101011 \"
1S
#2130
0S
#2140
b1101100 \"
1S
#2150
0S
#2160
b1101101 \"
1S
#2170
0S
#2180
b1101110 \"
1S
#2190
0S
#2200
b1101111 \"
1S
#2210
0S
#2220
b1110000 \"
1S
#2230
0S
#2240
b1110001 \"
1S
#2250
0S
#2260
b1110010 \"
1S
#2270
0S
#2280
b1110011 \"
1S
#2290
0S
#2300
b1110100 \"
1S
#2310
0S
#2320
b1110101 \"
1S
#2330
0S
#2340
b1110110 \"
1S
#2350
0S
#2360
b1110111 \"
1S
#2370
0S
#2380
b1111000 \"
1S
#2390
0S
#2400
b1111001 \"
1S
#2410
0S
#2420
b1111010 \"
1S
#2430
0S
#2440
b1111011 \"
1S
#2450
0S
#2460
b1111100 \"
1S
#2470
0S
#2480
b1111101 \"
1S
#2490
0S
#2500
b1111110 \"
1S
#2510
0S
#2520
b1111111 \"
1S
#2530
0S
#2540
b10000000 \"
1S
#2550
0S
#2560
b10000001 \"
1S
#2570
0S
#2580
b10000010 \"
1S
#2590
0S
#2600
b10000011 \"
1S
#2610
0S
#2620
b10000100 \"
1S
#2630
0S
#2640
b10000101 \"
1S
#2650
0S
#2660
b10000110 \"
1S
#2670
0S
#2680
b10000111 \"
1S
#2690
0S
#2700
b10001000 \"
1S
#2710
0S
#2720
b10001001 \"
1S
#2730
0S
#2740
b10001010 \"
1S
#2750
0S
#2760
b10001011 \"
1S
#2770
0S
#2780
b10001100 \"
1S
#2790
0S
#2800
b10001101 \"
1S
#2810
0S
#2820
b10001110 \"
1S
#2830
0S
#2840
b10001111 \"
1S
#2850
0S
#2860
b10010000 \"
1S
#2870
0S
#2880
b10010001 \"
1S
#2890
0S
#2900
b10010010 \"
1S
#2910
0S
#2920
b10010011 \"
1S
#2930
0S
#2940
b10010100 \"
1S
#2950
0S
#2960
b10010101 \"
1S
#2970
0S
#2980
b10010110 \"
1S
#2990
0S
#3000
b10010111 \"
1S
#3010
0S
#3020
b10011000 \"
1S
#3030
0S
#3040
b10011001 \"
1S
#3050
0S
#3060
b10011010 \"
1S
#3070
0S
#3080
b10011011 \"
1S
#3090
0S
#3100
b10011100 \"
1S
#3110
0S
#3120
b10011101 \"
1S
#3130
0S
#3140
b10011110 \"
1S
#3150
0S
#3160
b10011111 \"
1S
#3170
0S
#3180
b10100000 \"
1S
#3190
0S
#3200
b10100001 \"
1S
#3210
0S
#3220
b10100010 \"
1S
#3230
0S
#3240
b10100011 \"
1S
#3250
0S
#3260
b10100100 \"
1S
#3270
0S
#3280
b10100101 \"
1S
#3290
0S
#3300
b10100110 \"
1S
#3310
0S
#3320
b10100111 \"
1S
#3330
0S
#3340
b10101000 \"
1S
#3350
0S
#3360
b10101001 \"
1S
#3370
0S
#3380
b10101010 \"
1S
#3390
0S
#3400
b10101011 \"
1S
#3410
0S
#3420
b10101100 \"
1S
#3430
0S
#3440
b10101101 \"
1S
#3450
0S
#3460
b10101110 \"
1S
#3470
0S
#3480
b10101111 \"
1S
#3490
0S
#3500
b10110000 \"
1S
#3510
0S
#3520
b10110001 \"
1S
#3530
0S
#3540
b10110010 \"
1S
#3550
0S
#3560
b10110011 \"
1S
#3570
0S
#3580
b10110100 \"
1S
#3590
0S
#3600
b10110101 \"
1S
#3610
0S
#3620
b10110110 \"
1S
#3630
0S
#3640
b10110111 \"
1S
#3650
0S
#3660
b10111000 \"
1S
#3670
0S
#3680
b10111001 \"
1S
#3690
0S
#3700
b10111010 \"
1S
#3710
0S
#3720
b10111011 \"
1S
#3730
0S
#3740
b10111100 \"
1S
#3750
0S
#3760
b10111101 \"
1S
#3770
0S
#3780
b10111110 \"
1S
#3790
0S
#3800
b10111111 \"
1S
#3810
0S
#3820
b11000000 \"
1S
#3830
0S
#3840
b11000001 \"
1S
#3850
0S
#3860
b11000010 \"
1S
#3870
0S
#3880
b11000011 \"
1S
#3890
0S
#3900
b11000100 \"
1S
#3910
0S
#3920
b11000101 \"
1S
#3930
0S
#3940
b11000110 \"
1S
#3950
0S
#3960
b11000111 \"
1S
#3970
0S
#3980
b11001000 \"
1S
#3990
0S
#4000
b11001001 \"
1S
#4010
0S
#4020
b11001010 \"
1S
#4030
0S
#4040
b11001011 \"
1S
#4050
0S
#4060
b11001100 \"
1S
#4070
0S
#4080
b11001101 \"
1S
#4090
0S
#4100
b11001110 \"
1S
#4110
0S
#4120
b11001111 \"
1S
#4130
0S
#4140
b11010000 \"
1S
#4150
0S
#4160
b11010001 \"
1S
#4170
0S
#4180
b11010010 \"
1S
#4190
0S
#4200
b11010011 \"
1S
#4210
0S
#4220
b11010100 \"
1S
#4230
0S
#4240
b11010101 \"
1S
#4250
0S
#4260
b11010110 \"
1S
#4270
0S
#4280
b11010111 \"
1S
#4290
0S
#4300
b11011000 \"
1S
#4310
0S
#4320
b11011001 \"
1S
#4330
0S
#4340
b11011010 \"
1S
#4350
0S
#4360
b11011011 \"
1S
#4370
0S
#4380
b11011100 \"
1S
#4390
0S
#4400
b11011101 \"
1S
#4410
0S
#4420
b11011110 \"
1S
#4430
0S
#4440
b11011111 \"
1S
#4450
0S
#4460
b11100000 \"
1S
#4470
0S
#4480
b11100001 \"
1S
#4490
0S
#4500
b11100010 \"
1S
#4510
0S
#4520
b11100011 \"
1S
#4530
0S
#4540
b11100100 \"
1S
#4550
0S
#4560
b11100101 \"
1S
#4570
0S
#4580
b11100110 \"
1S
#4590
0S
#4600
b11100111 \"
1S
#4610
0S
#4620
b11101000 \"
1S
#4630
0S
#4640
b11101001 \"
1S
#4650
0S
#4660
b11101010 \"
1S
#4670
0S
#4680
b11101011 \"
1S
#4690
0S
#4700
b11101100 \"
1S
#4710
0S
#4720
b11101101 \"
1S
#4730
0S
#4740
b11101110 \"
1S
#4750
0S
#4760
b11101111 \"
1S
#4770
0S
#4780
b11110000 \"
1S
#4790
0S
#4800
b11110001 \"
1S
#4810
0S
#4820
b11110010 \"
1S
#4830
0S
#4840
b11110011 \"
1S
#4850
0S
#4860
b11110100 \"
1S
#4870
0S
#4880
b11110101 \"
1S
#4890
0S
#4900
b11110110 \"
1S
#4910
0S
#4920
b11110111 \"
1S
#4930
0S
#4940
b11111000 \"
1S
#4950
0S
#4960
b11111001 \"
1S
#4970
0S
#4980
b11111010 \"
1S
#4990
0S
#5000
b11111011 \"
1S
#5010
0S
#5020
b11111100 \"
1S
#5030
0S
#5040
b11111101 \"
1S
#5050
0S
#5060
b11111110 \"
1S
#5070
0S
#5080
b11111111 \"
1S
#5090
0S
#5100
b100000000 \"
1S
#5110
0S
#5120
b100000001 \"
1S
#5130
0S
#5140
b100000010 \"
1S
#5150
0S
#5160
b100000011 \"
1S
#5170
0S
#5180
b100000100 \"
1S
#5190
0S
#5200
b100000101 \"
1S
#5210
0S
#5220
b100000110 \"
1S
#5230
0S
#5240
b100000111 \"
1S
#5250
0S
#5260
b100001000 \"
1S
#5270
0S
#5280
b100001001 \"
1S
#5290
0S
#5300
b100001010 \"
1S
#5310
0S
#5320
b100001011 \"
1S
#5330
0S
#5340
b100001100 \"
1S
#5350
0S
#5360
b100001101 \"
1S
#5370
0S
#5380
b100001110 \"
1S
#5390
0S
#5400
b100001111 \"
1S
#5410
0S
#5420
b100010000 \"
1S
#5430
0S
#5440
b100010001 \"
1S
#5450
0S
#5460
b100010010 \"
1S
#5470
0S
#5480
b100010011 \"
1S
#5490
0S
#5500
b100010100 \"
1S
#5510
0S
#5520
b100010101 \"
1S
#5530
0S
#5540
b100010110 \"
1S
#5550
0S
#5560
b100010111 \"
1S
#5570
0S
#5580
b100011000 \"
1S
#5590
0S
#5600
b100011001 \"
1S
#5610
0S
#5620
b100011010 \"
1S
#5630
0S
#5640
b100011011 \"
1S
#5650
0S
#5660
b100011100 \"
1S
#5670
0S
#5680
b100011101 \"
1S
#5690
0S
#5700
b100011110 \"
1S
#5710
0S
#5720
b100011111 \"
1S
#5730
0S
#5740
b100100000 \"
1S
#5750
0S
#5760
b100100001 \"
1S
#5770
0S
#5780
b100100010 \"
1S
#5790
0S
#5800
b100100011 \"
1S
#5810
0S
#5820
b100100100 \"
1S
#5830
0S
#5840
b100100101 \"
1S
#5850
0S
#5860
b100100110 \"
1S
#5870
0S
#5880
b100100111 \"
1S
#5890
0S
#5900
b100101000 \"
1S
#5910
0S
#5920
b100101001 \"
1S
#5930
0S
#5940
b100101010 \"
1S
#5950
0S
#5960
b100101011 \"
1S
#5970
0S
#5980
b100101100 \"
1S
#5990
0S
#6000
b100101101 \"
1S
#6010
0S
#6020
b100101110 \"
1S
#6030
0S
#6040
b100101111 \"
1S
#6050
0S
#6060
b100110000 \"
1S
#6070
0S
#6080
b100110001 \"
1S
#6090
0S
#6100
b100110010 \"
1S
#6110
0S
#6120
b100110011 \"
1S
#6130
0S
#6140
b100110100 \"
1S
#6150
0S
#6160
b100110101 \"
1S
#6170
0S
#6180
b100110110 \"
1S
#6190
0S
#6200
b100110111 \"
1S
#6210
0S
#6220
b100111000 \"
1S
#6230
0S
#6240
b100111001 \"
1S
#6250
0S
#6260
b100111010 \"
1S
#6270
0S
#6280
b100111011 \"
1S
#6290
0S
#6300
b100111100 \"
1S
#6310
0S
#6320
b100111101 \"
1S
#6330
0S
#6340
b100111110 \"
1S
#6350
0S
#6360
b100111111 \"
1S
#6370
0S
#6380
b101000000 \"
1S
#6390
0S
#6400
b101000001 \"
1S
#6410
0S
#6420
b101000010 \"
1S
#6430
0S
#6440
b101000011 \"
1S
#6450
0S
#6460
b101000100 \"
1S
#6470
0S
#6480
b101000101 \"
1S
#6490
0S
#6500
b101000110 \"
1S
#6510
0S
#6520
b101000111 \"
1S
#6530
0S
#6540
b101001000 \"
1S
#6550
0S
#6560
b101001001 \"
1S
#6570
0S
#6580
b101001010 \"
1S
#6590
0S
#6600
b101001011 \"
1S
#6610
0S
#6620
b101001100 \"
1S
#6630
0S
#6640
b101001101 \"
1S
#6650
0S
#6660
b101001110 \"
1S
#6670
0S
#6680
b101001111 \"
1S
#6690
0S
#6700
b101010000 \"
1S
#6710
0S
#6720
b101010001 \"
1S
#6730
0S
#6740
b101010010 \"
1S
#6750
0S
#6760
b101010011 \"
1S
#6770
0S
#6780
b101010100 \"
1S
#6790
0S
#6800
b101010101 \"
1S
#6810
0S
#6820
b101010110 \"
1S
#6830
0S
#6840
b101010111 \"
1S
#6850
0S
#6860
b101011000 \"
1S
#6870
0S
#6880
b101011001 \"
1S
#6890
0S
#6900
b101011010 \"
1S
#6910
0S
#6920
b101011011 \"
1S
#6930
0S
#6940
b101011100 \"
1S
#6950
0S
#6960
b101011101 \"
1S
#6970
0S
#6980
b101011110 \"
1S
#6990
0S
#7000
b101011111 \"
1S
#7010
0S
#7020
b101100000 \"
1S
#7030
0S
#7040
b101100001 \"
1S
#7050
0S
#7060
b101100010 \"
1S
#7070
0S
#7080
b101100011 \"
1S
#7090
0S
#7100
b101100100 \"
1S
#7110
0S
#7120
b101100101 \"
1S
#7130
0S
#7140
b101100110 \"
1S
#7150
0S
#7160
b101100111 \"
1S
#7170
0S
#7180
b101101000 \"
1S
#7190
0S
#7200
b101101001 \"
1S
#7210
0S
#7220
b101101010 \"
1S
#7230
0S
#7240
b101101011 \"
1S
#7250
0S
#7260
b101101100 \"
1S
#7270
0S
#7280
b101101101 \"
1S
#7290
0S
#7300
b101101110 \"
1S
#7310
0S
#7320
b101101111 \"
1S
#7330
0S
#7340
b101110000 \"
1S
#7350
0S
#7360
b101110001 \"
1S
#7370
0S
#7380
b101110010 \"
1S
#7390
0S
#7400
b101110011 \"
1S
#7410
0S
#7420
b101110100 \"
1S
#7430
0S
#7440
b101110101 \"
1S
#7450
0S
#7460
b101110110 \"
1S
#7470
0S
#7480
b101110111 \"
1S
#7490
0S
#7500
b101111000 \"
1S
#7510
0S
#7520
b101111001 \"
1S
#7530
0S
#7540
b101111010 \"
1S
#7550
0S
#7560
b101111011 \"
1S
#7570
0S
#7580
b101111100 \"
1S
#7590
0S
#7600
b101111101 \"
1S
#7610
0S
#7620
b101111110 \"
1S
#7630
0S
#7640
b101111111 \"
1S
#7650
0S
#7660
b110000000 \"
1S
#7670
0S
#7680
b110000001 \"
1S
#7690
0S
#7700
b110000010 \"
1S
#7710
0S
#7720
b110000011 \"
1S
#7730
0S
#7740
b110000100 \"
1S
#7750
0S
#7760
b110000101 \"
1S
#7770
0S
#7780
b110000110 \"
1S
#7790
0S
#7800
b110000111 \"
1S
#7810
0S
#7820
b110001000 \"
1S
#7830
0S
#7840
b110001001 \"
1S
#7850
0S
#7860
b110001010 \"
1S
#7870
0S
#7880
b110001011 \"
1S
#7890
0S
#7900
b110001100 \"
1S
#7910
0S
#7920
b110001101 \"
1S
#7930
0S
#7940
b110001110 \"
1S
#7950
0S
#7960
b110001111 \"
1S
#7970
0S
#7980
b110010000 \"
1S
#7990
0S
#8000
b110010001 \"
1S
#8010
0S
#8020
b110010010 \"
1S
#8030
0S
#8040
b110010011 \"
1S
#8050
0S
#8060
b110010100 \"
1S
#8070
0S
#8080
b110010101 \"
1S
#8090
0S
#8100
b110010110 \"
1S
#8110
0S
#8120
b110010111 \"
1S
#8130
0S
#8140
b110011000 \"
1S
#8150
0S
#8160
b110011001 \"
1S
#8170
0S
#8180
b110011010 \"
1S
#8190
0S
#8200
b110011011 \"
1S
#8210
0S
#8220
b110011100 \"
1S
#8230
0S
#8240
b110011101 \"
1S
#8250
0S
#8260
b110011110 \"
1S
#8270
0S
#8280
b110011111 \"
1S
#8290
0S
#8300
b110100000 \"
1S
#8310
0S
#8320
b110100001 \"
1S
#8330
0S
#8340
b110100010 \"
1S
#8350
0S
#8360
b110100011 \"
1S
#8370
0S
#8380
b110100100 \"
1S
#8390
0S
#8400
b110100101 \"
1S
#8410
0S
#8420
b110100110 \"
1S
#8430
0S
#8440
b110100111 \"
1S
#8450
0S
#8460
b110101000 \"
1S
#8470
0S
#8480
b110101001 \"
1S
#8490
0S
#8500
b110101010 \"
1S
#8510
0S
#8520
b110101011 \"
1S
#8530
0S
#8540
b110101100 \"
1S
#8550
0S
#8560
b110101101 \"
1S
#8570
0S
#8580
b110101110 \"
1S
#8590
0S
#8600
b110101111 \"
1S
#8610
0S
#8620
b110110000 \"
1S
#8630
0S
#8640
b110110001 \"
1S
#8650
0S
#8660
b110110010 \"
1S
#8670
0S
#8680
b110110011 \"
1S
#8690
0S
#8700
b110110100 \"
1S
#8710
0S
#8720
b110110101 \"
1S
#8730
0S
#8740
b110110110 \"
1S
#8750
0S
#8760
b110110111 \"
1S
#8770
0S
#8780
b110111000 \"
1S
#8790
0S
#8800
b110111001 \"
1S
#8810
0S
#8820
b110111010 \"
1S
#8830
0S
#8840
b110111011 \"
1S
#8850
0S
#8860
b110111100 \"
1S
#8870
0S
#8880
b110111101 \"
1S
#8890
0S
#8900
b110111110 \"
1S
#8910
0S
#8920
b110111111 \"
1S
#8930
0S
#8940
b111000000 \"
1S
#8950
0S
#8960
b111000001 \"
1S
#8970
0S
#8980
b111000010 \"
1S
#8990
0S
#9000
b111000011 \"
1S
#9010
0S
#9020
b111000100 \"
1S
#9030
0S
#9040
b111000101 \"
1S
#9050
0S
#9060
b111000110 \"
1S
#9070
0S
#9080
b111000111 \"
1S
#9090
0S
#9100
b111001000 \"
1S
#9110
0S
